<svg xmlns="http://www.w3.org/2000/svg" width="22" height="22" version="1.1">
 <defs>
  <style id="current-color-scheme" type="text/css">
   .ColorScheme-Text { color: #00cce5; } .ColorScheme-Highlight { color: #1AD6AB; }
  </style>
  <linearGradient id="arrongin" x1="0%" x2="0%" y1="0%" y2="100%">
   <stop offset="0%" style="stop-color:#dd9b44"/>
   <stop offset="100%" style="stop-color:#ad6c16"/>
  </linearGradient>
  <linearGradient id="aurora" x1="0%" x2="0%" y1="0%" y2="100%">
   <stop offset="0%" style="stop-color:#09D4DF"/>
   <stop offset="100%" style="stop-color:#9269F4"/>
  </linearGradient>
  <linearGradient id="cyberneon" x1="0%" x2="0%" y1="0%" y2="100%">
   <stop offset="0" style="stop-color:#0abdc6"/>
   <stop offset="1" style="stop-color:#ea00d9"/>
  </linearGradient>
  <linearGradient id="fitdance" x1="0%" x2="0%" y1="0%" y2="100%">
   <stop offset="0%" style="stop-color:#1AD6AB"/>
   <stop offset="100%" style="stop-color:#329DB6"/>
  </linearGradient>
  <linearGradient id="oomox" x1="0%" x2="0%" y1="0%" y2="100%">
   <stop offset="0%" style="stop-color:#005aa5"/>
   <stop offset="100%" style="stop-color:#8e59ff"/>
  </linearGradient>
  <linearGradient id="rainblue" x1="0%" x2="0%" y1="0%" y2="100%">
   <stop offset="0%" style="stop-color:#00F260"/>
   <stop offset="100%" style="stop-color:#0575E6"/>
  </linearGradient>
  <linearGradient id="sunrise" x1="0%" x2="0%" y1="0%" y2="100%">
   <stop offset="0%" style="stop-color:#FF8501"/>
   <stop offset="100%" style="stop-color:#FFCB01"/>
  </linearGradient>
  <linearGradient id="telinkrin" x1="0%" x2="0%" y1="0%" y2="100%">
   <stop offset="0%" style="stop-color:#b2ced6"/>
   <stop offset="100%" style="stop-color:#6da5b7"/>
  </linearGradient>
  <linearGradient id="60spsycho" x1="0%" x2="0%" y1="0%" y2="100%">
   <stop offset="0%" style="stop-color:#df5940"/>
   <stop offset="25%" style="stop-color:#d8d15f"/>
   <stop offset="50%" style="stop-color:#e9882a"/>
   <stop offset="100%" style="stop-color:#279362"/>
  </linearGradient>
  <linearGradient id="90ssummer" x1="0%" x2="0%" y1="0%" y2="100%">
   <stop offset="0%" style="stop-color:#f618c7"/>
   <stop offset="20%" style="stop-color:#94ffab"/>
   <stop offset="50%" style="stop-color:#fbfd54"/>
   <stop offset="100%" style="stop-color:#0f83ae"/>
  </linearGradient>
 </defs>
 <circle fill="currentColor" class="ColorScheme-Highlight" cx="16" cy="6" r="2"/>
 <path fill="currentColor" class="ColorScheme-Highlight" d="M 8.5 4 C 7.674418 4 7 4.674419 7 5.5 C 7 6.3255815 7.674418 7 8.5 7 L 10 7 L 10 5.5 C 10 4.674419 9.325581 4 8.5 4 z M 12.501953 4 C 11.676372 4 11.001953 4.6732269 11.001953 5.4980469 L 11.001953 9.5019531 C 11.001953 10.326773 11.676372 11 12.501953 11 C 13.327536 11 14.001953 10.326773 14.001953 9.5019531 L 14.001953 8.234375 A 3 3 0 0 1 13 6 A 3 3 0 0 1 13.482422 4.3730469 C 13.218674 4.1434874 12.877544 4 12.501953 4 z M 4.4980469 8 C 3.6732269 8 3 8.6744185 3 9.5 C 3 10.325581 3.6732269 11 4.4980469 11 L 8.5019531 11 C 9.3267731 11 10 10.325581 10 9.5 C 10 8.6744185 9.3267731 8 8.5019531 8 L 4.4980469 8 z M 17.626953 8.5195312 A 3 3 0 0 1 16 9 A 3 3 0 0 1 15.144531 8.8730469 C 15.055417 9.0645773 15.001953 9.2756396 15.001953 9.5 L 15.001953 11 L 16.501953 11 C 17.327533 11 18.001953 10.325581 18.001953 9.5 C 18.001953 9.1241258 17.857164 8.783357 17.626953 8.5195312 z M 4.5 12 C 3.674419 12 3 12.674419 3 13.5 C 3 14.325582 3.674419 15 4.5 15 C 5.325582 15 6 14.325582 6 13.5 L 6 12 L 4.5 12 z M 8.5 12 C 7.674419 12 7 12.673227 7 13.498047 L 7 17.501953 C 7 18.326773 7.674419 19 8.5 19 C 9.325581 19 10 18.326773 10 17.501953 L 10 13.498047 C 10 12.673227 9.325581 12 8.5 12 z M 12.498047 12 C 11.673226 12 11 12.674419 11 13.5 C 11 14.325581 11.673227 15 12.498047 15 L 16.501953 15 C 17.326772 15 18 14.325581 18 13.5 C 18 12.674419 17.326772 12 16.501953 12 L 12.498047 12 z M 11 16 L 11 17.5 C 11 18.325581 11.674419 19 12.5 19 C 13.325582 19 14 18.325581 14 17.5 C 14 16.674419 13.325582 16 12.5 16 L 11 16 z"/>
</svg>
