<svg xmlns="http://www.w3.org/2000/svg" width="16" height="16" version="1.1">
 <defs>
   <style id="current-color-scheme" type="text/css">
   .ColorScheme-Text { color: #00cce5; } .ColorScheme-Highlight { color: #1AD6AB; }
  </style>
  <linearGradient id="arrongin" x1="0%" x2="0%" y1="0%" y2="100%">
   <stop offset="0%"    stop-color= "#dd9b44" stop-opacity="1"/>
   <stop offset="100%"  stop-color= "#ad6c16" stop-opacity="1"/>
  </linearGradient>
  <linearGradient id="aurora" x1="0%" x2="0%" y1="0%" y2="100%">
   <stop offset="0%"    stop-color= "#09D4DF" stop-opacity="1"/>
   <stop offset="100%"  stop-color= "#9269F4" stop-opacity="1"/>
  </linearGradient> 
  <linearGradient id="cyberblue" x1="0%" x2="0%" y1="0%" y2="100%">
   <stop offset="0%"    stop-color= "#07B3FF" stop-opacity="1"/>
   <stop offset="100%"  stop-color= "#007DE8" stop-opacity="1"/>
  </linearGradient>
  <linearGradient id="cyberneon" x1="0%" x2="0%" y1="0%" y2="100%">
    <stop offset="0%"   stop-color= "#0abdc6" stop-opacity="1"/>
    <stop offset="100%" stop-color= "#ea00d9" stop-opacity="1"/>
  </linearGradient>
  <linearGradient id="fitdance" x1="0%" x2="0%" y1="0%" y2="100%">
   <stop offset="0%"    stop-color= "#1AD6AB" stop-opacity="1"/>
   <stop offset="100%"  stop-color= "#329DB6" stop-opacity="1"/>
  </linearGradient>
  <linearGradient id="oomox" x1="0%" x2="0%" y1="0%" y2="100%">
   <stop offset="0%"    stop-color= "#005aa5" stop-opacity="1"/>
   <stop offset="100%"  stop-color= "#8e59ff" stop-opacity="1"/>
  </linearGradient>
  <linearGradient id="rainblue" x1="0%" x2="0%" y1="0%" y2="100%">
   <stop offset="0%"    stop-color= "#00F260" stop-opacity="1"/>
   <stop offset="100%"  stop-color= "#0575E6" stop-opacity="1"/>
  </linearGradient>
  <linearGradient id="redcarbon" x1="0%" x2="0%" y1="0%" y2="100%">
   <stop offset="0%"    stop-color= "#FF6D57" stop-opacity="1"/>
   <stop offset="50%"   stop-color= "#FF5160" stop-opacity="1"/>
   <stop offset="100%"  stop-color= "#F50F22" stop-opacity="1"/>
  </linearGradient>
  <linearGradient id="sunrise" x1="0%" x2="0%" y1="0%" y2="100%">
   <stop offset="0%"    stop-color= "#FF8501" stop-opacity="1"/>
   <stop offset="100%"  stop-color= "#FFCB01" stop-opacity="1"/>
  </linearGradient>
  <linearGradient id="telinkrin" x1="0%" x2="0%" y1="0%" y2="100%">
   <stop offset="0%"    stop-color= "#b2ced6" stop-opacity="1"/>
   <stop offset="100%"  stop-color= "#6da5b7" stop-opacity="1"/>
  </linearGradient>
  <linearGradient id="60spsycho" x1="0%" x2="0%" y1="0%" y2="100%">
   <stop offset="0%"    stop-color= "#df5940" stop-opacity="1"/>
   <stop offset="25%"   stop-color= "#d8d15f" stop-opacity="1"/>
   <stop offset="50%"   stop-color= "#e9882a" stop-opacity="1"/>
   <stop offset="100%"  stop-color= "#279362" stop-opacity="1"/>
  </linearGradient>
  <linearGradient id="90ssummer" x1="0%" x2="0%" y1="0%" y2="100%">
   <stop offset="0%"    stop-color= "#f618c7" stop-opacity="1"/>
   <stop offset="20%"   stop-color= "#94ffab" stop-opacity="1"/>
   <stop offset="50%"   stop-color= "#fbfd54" stop-opacity="1"/>
   <stop offset="100%"  stop-color= "#0f83ae" stop-opacity="1"/>
  </linearGradient>
 </defs>
 <path fill="url(#oomox)" class="ColorScheme-Text" d="M 8 1 C 4.1459 1 1 4.1458 1 8 C 1 11.854 4.1459 15 8 15 C 11.854 15 15 11.854 15 8 C 15 4.1458 11.854 1 8 1 z M 11.535156 4.4667969 C 11.574216 4.5084699 11.612781 4.550763 11.650391 4.59375 C 11.787391 4.74055 11.915203 4.8957937 12.033203 5.0585938 C 12.102183 5.1519778 12.168155 5.247745 12.230469 5.3457031 C 12.339469 5.5188031 12.435484 5.7000187 12.521484 5.8867188 C 12.560164 5.9638897 12.596219 6.0420238 12.630859 6.1210938 L 12.638672 6.1445312 C 12.725672 6.3634312 12.793609 6.5912187 12.849609 6.8242188 C 12.876069 6.9244024 12.899732 7.0253188 12.919922 7.1269531 C 12.948172 7.2911833 12.968749 7.456817 12.980469 7.6230469 C 12.989469 7.7335389 12.994444 7.8442313 12.996094 7.9550781 C 12.996094 7.9706781 13 7.9843 13 8 C 13 8.0107 12.998047 8.02065 12.998047 8.03125 C 12.995947 8.110767 12.992228 8.1902048 12.986328 8.2695312 C 12.981328 8.3635313 12.97775 8.4563281 12.96875 8.5488281 C 12.96775 8.5520281 12.96875 8.5553936 12.96875 8.5585938 L 12.966797 8.5722656 C 12.963797 8.6012656 12.957125 8.6294031 12.953125 8.6582031 L 12.953125 8.6601562 C 12.936125 8.7872563 12.914672 8.9112563 12.888672 9.0351562 C 12.879772 9.0703904 12.871048 9.105594 12.861328 9.140625 C 12.808328 9.371125 12.736344 9.5938469 12.652344 9.8105469 C 12.645444 9.8307919 12.637989 9.8509388 12.630859 9.8710938 C 12.615859 9.9067938 12.604844 9.9432156 12.589844 9.9785156 C 12.571314 10.015919 12.552663 10.052917 12.533203 10.089844 C 12.448203 10.275844 12.351141 10.453953 12.244141 10.626953 C 12.221321 10.665603 12.197678 10.704167 12.173828 10.742188 C 12.156828 10.767188 12.143953 10.795313 12.126953 10.820312 C 12.100113 10.856682 12.072742 10.892104 12.044922 10.927734 C 11.914922 11.106734 11.777 11.279453 11.625 11.439453 C 11.59609 11.471833 11.566859 11.503536 11.537109 11.535156 C 11.496079 11.573526 11.454409 11.611477 11.412109 11.648438 C 11.260109 11.791437 11.098686 11.922922 10.929688 12.044922 C 10.894697 12.071382 10.859889 12.097517 10.824219 12.123047 C 10.811219 12.132047 10.797203 12.143344 10.783203 12.152344 C 10.737973 12.180404 10.692584 12.207775 10.646484 12.234375 C 10.474484 12.342375 10.294422 12.439391 10.107422 12.525391 C 10.075912 12.540721 10.043539 12.555643 10.011719 12.570312 C 9.9784185 12.585313 9.9474625 12.605141 9.9140625 12.619141 C 9.9003825 12.623841 9.8867669 12.628214 9.8730469 12.632812 C 9.6270469 12.731814 9.3714219 12.810141 9.1074219 12.869141 L 9.0761719 12.876953 C 9.0333719 12.885953 8.9924188 12.89825 8.9492188 12.90625 C 8.8953317 12.91585 8.8412814 12.923861 8.7871094 12.931641 C 8.6785094 12.948641 8.5697844 12.965564 8.4589844 12.976562 C 8.3744584 12.982363 8.289791 12.986781 8.2050781 12.988281 C 8.1366781 12.991281 8.069 13 8 13 C 7.993 13 7.9875687 12.998047 7.9804688 12.998047 C 7.7073487 12.995003 7.434984 12.969413 7.1660156 12.921875 C 7.1454156 12.917875 7.1240156 12.916109 7.1035156 12.912109 C 7.0078587 12.892895 6.9127284 12.87048 6.8183594 12.845703 C 6.5885594 12.789703 6.3623844 12.723672 6.1464844 12.638672 L 6.1445312 12.638672 C 6.0508283 12.599172 5.9583079 12.556859 5.8671875 12.511719 C 5.6914875 12.428719 5.5210219 12.338328 5.3574219 12.236328 C 5.2519935 12.170521 5.1490615 12.100822 5.0488281 12.027344 C 4.8819281 11.905344 4.7223656 11.773812 4.5722656 11.632812 C 4.5359589 11.60067 4.5001999 11.568342 4.4648438 11.535156 L 11.535156 4.4667969 z"/>
</svg>
