<svg xmlns="http://www.w3.org/2000/svg" width="22" height="22" version="1.1">
 <defs>
  <style id="current-color-scheme" type="text/css">
   .ColorScheme-Text { color: #00cce5; } .ColorScheme-Highlight { color: #1AD6AB; }
  </style>
  <linearGradient id="arrongin" x1="0%" x2="0%" y1="0%" y2="100%">
   <stop offset="0%" style="stop-color:#dd9b44"/>
   <stop offset="100%" style="stop-color:#ad6c16"/>
  </linearGradient>
  <linearGradient id="aurora" x1="0%" x2="0%" y1="0%" y2="100%">
   <stop offset="0%" style="stop-color:#09D4DF"/>
   <stop offset="100%" style="stop-color:#9269F4"/>
  </linearGradient>
  <linearGradient id="cyberneon" x1="0%" x2="0%" y1="0%" y2="100%">
   <stop offset="0" style="stop-color:#0abdc6"/>
   <stop offset="1" style="stop-color:#ea00d9"/>
  </linearGradient>
  <linearGradient id="fitdance" x1="0%" x2="0%" y1="0%" y2="100%">
   <stop offset="0%" style="stop-color:#1AD6AB"/>
   <stop offset="100%" style="stop-color:#329DB6"/>
  </linearGradient>
  <linearGradient id="oomox" x1="0%" x2="0%" y1="0%" y2="100%">
   <stop offset="0%" style="stop-color:#9d72ff"/>
   <stop offset="100%" style="stop-color:#005aa5"/>
  </linearGradient>
  <linearGradient id="rainblue" x1="0%" x2="0%" y1="0%" y2="100%">
   <stop offset="0%" style="stop-color:#00F260"/>
   <stop offset="100%" style="stop-color:#0575E6"/>
  </linearGradient>
  <linearGradient id="sunrise" x1="0%" x2="0%" y1="0%" y2="100%">
   <stop offset="0%" style="stop-color:#FF8501"/>
   <stop offset="100%" style="stop-color:#FFCB01"/>
  </linearGradient>
  <linearGradient id="telinkrin" x1="0%" x2="0%" y1="0%" y2="100%">
   <stop offset="0%" style="stop-color:#b2ced6"/>
   <stop offset="100%" style="stop-color:#6da5b7"/>
  </linearGradient>
  <linearGradient id="60spsycho" x1="0%" x2="0%" y1="0%" y2="100%">
   <stop offset="0%" style="stop-color:#df5940"/>
   <stop offset="25%" style="stop-color:#d8d15f"/>
   <stop offset="50%" style="stop-color:#e9882a"/>
   <stop offset="100%" style="stop-color:#279362"/>
  </linearGradient>
  <linearGradient id="90ssummer" x1="0%" x2="0%" y1="0%" y2="100%">
   <stop offset="0%" style="stop-color:#f618c7"/>
   <stop offset="20%" style="stop-color:#94ffab"/>
   <stop offset="50%" style="stop-color:#fbfd54"/>
   <stop offset="100%" style="stop-color:#0f83ae"/>
  </linearGradient>
 </defs>
 <path fill="url(#oomox)" class="ColorScheme-Text" d="m 10.504661,3.000003 c -0.01002,0.022434 -0.0318,0.014113 -0.04883,0.015644 C 10.217403,3.035864 9.9801579,3.06073 9.7448399,3.103645 8.025308,3.4169279 6.6128896,4.2304677 5.5199057,5.5421687 4.6208367,6.6208853 4.1267988,7.8583019 4.0197906,9.2380859 c -0.051804,0.6687262 -0.002,1.6303401 0.1504026,2.2840381 0.1131786,0.486254 0.2825566,0.956944 0.5098041,1.406013 0.019952,0.03822 0.038283,0.07716 0.058594,0.115375 0.3733396,0.707033 0.8533344,1.337038 1.4551906,1.881202 0.3168343,0.28646 0.6569274,0.544583 1.0235156,0.768516 0.9706644,0.592534 2.020586,1.176252 3.1447725,1.292594 l 0.246113,0.02542 c 0.08179,0.0011 0.393138,0.02134 0.392607,0.101687 -0.0037,0.685707 -0.0021,1.115189 -0.002,1.801026 8.9e-5,0.02661 0.0023,0.05295 0.0039,0.08604 0,0 0.274393,-0.124547 0.507851,-0.234661 1.16359,-0.568634 2.238358,-1.264972 3.209231,-2.113908 0.218117,-0.190663 0.426276,-0.390324 0.627002,-0.598387 0.08595,-0.08898 0.171706,-0.180973 0.257832,-0.269861 0.133051,-0.136837 0.247656,-0.290038 0.373075,-0.434124 0.144852,-0.166182 0.276068,-0.342379 0.404328,-0.520166 0.283572,-0.39293 0.537181,-0.802905 0.750058,-1.235883 0.107678,-0.218898 0.210058,-0.439068 0.300805,-0.664874 0.003,-0.0042 0.0059,-0.0071 0.0078,-0.01173 0.247299,-0.618315 0.405916,-1.258046 0.490273,-1.914447 0.02946,-0.228629 0.04848,-0.460385 0.06056,-0.690295 0.02572,-0.4950446 -0.0068,-1.286555 -0.09962,-1.7736495 C 17.64486,7.2389279 17.052377,6.1037048 16.118306,5.135423 15.724275,4.7266251 15.282023,4.3712382 14.793985,4.0696702 13.885916,3.5079946 12.896236,3.1630098 11.823053,3.0410709 11.692223,3.0261447 11.559415,3.0296129 11.430445,3.0000048 l -0.925852,0 z M 9.6725663,7.9885135 c 0.207936,-2.503e-4 0.3790287,0.2038125 0.312524,0.4028355 0.015902,0.037605 0.013671,0.078066 0.013671,0.1173306 0,0.8560449 7.997e-4,1.7114424 0,2.5675874 -6.001e-4,0.764733 -0.494784,1.47984 -1.2227498,1.773649 -0.018352,0.0076 -0.036773,0.01856 -0.054694,0.02737 -0.0098,0.0025 -0.019141,0.005 -0.029302,0.0078 -0.0056,0.0032 -0.011941,0.0048 -0.017581,0.0078 -0.1521117,0.04175 -0.3040814,0.07753 -0.4609734,0.09973 -0.1196782,0.01706 -0.156765,-0.04943 -0.1582152,-0.166219 -0.0012,-0.08184 -0.0013,-0.162518 -0.002,-0.244438 l 0.0039,-0.43999 c -6.501e-4,-0.03239 -0.002,-0.06555 -0.0019,-0.09778 1.891e-4,-0.112632 0.1135108,-0.159697 0.2578218,-0.191636 0.1830141,-0.04065 0.2325179,-0.09848 0.3750288,-0.226838 0.1709131,-0.154089 0.273321,-0.414366 0.312524,-0.631631 -0.4937379,-0.001 -1.0042541,-0.001 -1.498162,-0.002 -0.053694,-10e-5 -0.1063901,-10e-4 -0.1601683,-0.0019 -0.2016254,-0.0033 -0.33987,-0.401656 -0.33987,-0.598387 2.6e-4,-0.7745448 0.0014,-1.2160648 0.002,-1.9907103 0,-0.00746 -0.0015,-0.016008 -0.002,-0.023466 -0.015541,-0.1449569 0.027432,-0.2636578 0.1601683,-0.34417 0.051564,-0.031474 0.1086553,-0.043022 0.1679818,-0.043022 0.78076,-4.509e-4 1.5611668,-0.00105 2.3419767,-0.00195 z m 4.0003067,0 c 0.207936,-2.503e-4 0.379029,0.2038125 0.312524,0.4028355 0.0159,0.037605 0.01367,0.078066 0.01367,0.1173306 0,0.8560449 8e-4,1.7114424 0,2.5675874 -6e-4,0.764733 -0.496738,1.47984 -1.224704,1.773649 -0.01835,0.0076 -0.03481,0.01856 -0.05273,0.02737 -0.0098,0.0025 -0.01914,0.005 -0.0293,0.0078 -0.0056,0.0032 -0.01198,0.0048 -0.01758,0.0078 -0.152112,0.04175 -0.306034,0.07753 -0.462926,0.09973 -0.119679,0.01706 -0.154762,-0.04943 -0.156262,-0.166219 -0.0013,-0.08184 -0.0013,-0.162518 -0.002,-0.244438 l 0.0039,-0.43999 c -6e-4,-0.03239 -0.0021,-0.06555 -0.002,-0.09778 1.7e-4,-0.11265 0.111528,-0.15967 0.255879,-0.19164 0.183014,-0.04067 0.232558,-0.09853 0.375028,-0.226839 0.170984,-0.154069 0.273261,-0.414285 0.312524,-0.63163 -0.493745,-9.98e-4 -1.002308,-10e-4 -1.496216,-0.002 -0.05369,-10e-5 -0.108348,-10e-4 -0.162122,-0.0019 -0.201625,-0.0032 -0.33987,-0.401657 -0.33987,-0.598388 3e-4,-0.7745446 0.0014,-1.2160647 0.0019,-1.9907101 0,-0.00746 4.5e-4,-0.016008 0,-0.023466 -0.01554,-0.1449569 0.02743,-0.2636578 0.160169,-0.34417 0.05156,-0.031474 0.106704,-0.043022 0.166028,-0.043022 0.78076,-4.506e-4 1.56312,-0.00105 2.34393,-0.00195 z"/>
</svg>
