<svg xmlns="http://www.w3.org/2000/svg" width="22" height="22" version="1.1">
 <defs>
  <style id="current-color-scheme" type="text/css">
   .ColorScheme-Text { color: #00cce5; } .ColorScheme-Highlight { color: #1AD6AB; }
  </style>
  <linearGradient id="arrongin" x1="0%" x2="0%" y1="0%" y2="100%">
   <stop offset="0%" style="stop-color:#dd9b44"/>
   <stop offset="100%" style="stop-color:#ad6c16"/>
  </linearGradient>
  <linearGradient id="aurora" x1="0%" x2="0%" y1="0%" y2="100%">
   <stop offset="0%" style="stop-color:#09D4DF"/>
   <stop offset="100%" style="stop-color:#9269F4"/>
  </linearGradient>
  <linearGradient id="cyberneon" x1="0%" x2="0%" y1="0%" y2="100%">
   <stop offset="0" style="stop-color:#0abdc6"/>
   <stop offset="1" style="stop-color:#ea00d9"/>
  </linearGradient>
  <linearGradient id="fitdance" x1="0%" x2="0%" y1="0%" y2="100%">
   <stop offset="0%" style="stop-color:#1AD6AB"/>
   <stop offset="100%" style="stop-color:#329DB6"/>
  </linearGradient>
  <linearGradient id="oomox" x1="0%" x2="0%" y1="0%" y2="100%">
   <stop offset="0%" style="stop-color:#9d72ff"/>
   <stop offset="100%" style="stop-color:#005aa5"/>
  </linearGradient>
  <linearGradient id="rainblue" x1="0%" x2="0%" y1="0%" y2="100%">
   <stop offset="0%" style="stop-color:#00F260"/>
   <stop offset="100%" style="stop-color:#0575E6"/>
  </linearGradient>
  <linearGradient id="sunrise" x1="0%" x2="0%" y1="0%" y2="100%">
   <stop offset="0%" style="stop-color:#FF8501"/>
   <stop offset="100%" style="stop-color:#FFCB01"/>
  </linearGradient>
  <linearGradient id="telinkrin" x1="0%" x2="0%" y1="0%" y2="100%">
   <stop offset="0%" style="stop-color:#b2ced6"/>
   <stop offset="100%" style="stop-color:#6da5b7"/>
  </linearGradient>
  <linearGradient id="60spsycho" x1="0%" x2="0%" y1="0%" y2="100%">
   <stop offset="0%" style="stop-color:#df5940"/>
   <stop offset="25%" style="stop-color:#d8d15f"/>
   <stop offset="50%" style="stop-color:#e9882a"/>
   <stop offset="100%" style="stop-color:#279362"/>
  </linearGradient>
  <linearGradient id="90ssummer" x1="0%" x2="0%" y1="0%" y2="100%">
   <stop offset="0%" style="stop-color:#f618c7"/>
   <stop offset="20%" style="stop-color:#94ffab"/>
   <stop offset="50%" style="stop-color:#fbfd54"/>
   <stop offset="100%" style="stop-color:#0f83ae"/>
  </linearGradient>
 </defs>
 <path fill="url(#oomox)" class="ColorScheme-Text" d="M 8,3 A 5,5 0 0 0 3,8 5,5 0 0 0 3.305,9.687 3,3 0 0 1 6,8 3,3 0 0 1 6.006,8 V 5.404 c 0,0 -0.023,-0.266 0.185,-0.371 0.203,-0.101 0.397,0.061 0.397,0.061 l 1.969,1.17 A 3,3 0 0 1 11,5 3,3 0 0 1 12.152,5.232 5,5 0 0 0 8,3 Z m 5.24,3.008 A 3,3 0 0 1 14,8 3,3 0 0 1 13.691,9.318 l 2.026,1.205 c 0,0 0.283,0.14 0.283,0.473 0,0.334 -0.287,0.443 -0.287,0.443 l -2.035,1.209 A 3,3 0 0 1 14,14 3,3 0 0 1 13.242,15.988 5,5 0 0 0 18,11 5,5 0 0 0 13.24,6.008 Z M 3.303,12.303 A 5,5 0 0 0 3,14 5,5 0 0 0 8,19 5,5 0 0 0 12.158,16.768 3,3 0 0 1 11,17 3,3 0 0 1 8.535,15.705 l -2.06,1.225 c 0,0 -0.14,0.122 -0.319,0.043 C 5.953,16.882 6.006,16.65 6.006,16.65 V 14 A 3,3 0 0 1 6,14 3,3 0 0 1 3.303,12.303 Z"/>
 <path fill="url(#oomox)" class="ColorScheme-Text" opacity="0.3" d="M 11,5 A 3,3 0 0 0 8.557,6.266 l 2.672,1.587 2.464,1.467 A 3,3 0 0 0 14,8 3,3 0 0 0 11,5 Z M 6,8 a 3,3 0 0 0 -3,3 3,3 0 0 0 3,3 3,3 0 0 0 0.006,0 V 10.982 8 A 3,3 0 0 0 6,8 Z m 7.676,4.65 -2.457,1.459 -2.686,1.596 A 3,3 0 0 0 11,17 3,3 0 0 0 14,14 3,3 0 0 0 13.676,12.65 Z"/>
</svg>
