<svg xmlns="http://www.w3.org/2000/svg" width="22" height="22" version="1.1">
 <defs>
  <style id="current-color-scheme" type="text/css">
   .ColorScheme-Text { color: #00cce5; } .ColorScheme-Highlight { color: #1AD6AB; }
  </style>
  <linearGradient id="arrongin" x1="0%" x2="0%" y1="0%" y2="100%">
   <stop offset="0%" style="stop-color:#dd9b44"/>
   <stop offset="100%" style="stop-color:#ad6c16"/>
  </linearGradient>
  <linearGradient id="aurora" x1="0%" x2="0%" y1="0%" y2="100%">
   <stop offset="0%" style="stop-color:#09D4DF"/>
   <stop offset="100%" style="stop-color:#9269F4"/>
  </linearGradient>
  <linearGradient id="cyberneon" x1="0%" x2="0%" y1="0%" y2="100%">
   <stop offset="0" style="stop-color:#0abdc6"/>
   <stop offset="1" style="stop-color:#ea00d9"/>
  </linearGradient>
  <linearGradient id="fitdance" x1="0%" x2="0%" y1="0%" y2="100%">
   <stop offset="0%" style="stop-color:#1AD6AB"/>
   <stop offset="100%" style="stop-color:#329DB6"/>
  </linearGradient>
  <linearGradient id="oomox" x1="0%" x2="0%" y1="0%" y2="100%">
   <stop offset="0%" style="stop-color:#9d72ff"/>
   <stop offset="100%" style="stop-color:#005aa5"/>
  </linearGradient>
  <linearGradient id="rainblue" x1="0%" x2="0%" y1="0%" y2="100%">
   <stop offset="0%" style="stop-color:#00F260"/>
   <stop offset="100%" style="stop-color:#0575E6"/>
  </linearGradient>
  <linearGradient id="sunrise" x1="0%" x2="0%" y1="0%" y2="100%">
   <stop offset="0%" style="stop-color:#FF8501"/>
   <stop offset="100%" style="stop-color:#FFCB01"/>
  </linearGradient>
  <linearGradient id="telinkrin" x1="0%" x2="0%" y1="0%" y2="100%">
   <stop offset="0%" style="stop-color:#b2ced6"/>
   <stop offset="100%" style="stop-color:#6da5b7"/>
  </linearGradient>
  <linearGradient id="60spsycho" x1="0%" x2="0%" y1="0%" y2="100%">
   <stop offset="0%" style="stop-color:#df5940"/>
   <stop offset="25%" style="stop-color:#d8d15f"/>
   <stop offset="50%" style="stop-color:#e9882a"/>
   <stop offset="100%" style="stop-color:#279362"/>
  </linearGradient>
  <linearGradient id="90ssummer" x1="0%" x2="0%" y1="0%" y2="100%">
   <stop offset="0%" style="stop-color:#f618c7"/>
   <stop offset="20%" style="stop-color:#94ffab"/>
   <stop offset="50%" style="stop-color:#fbfd54"/>
   <stop offset="100%" style="stop-color:#0f83ae"/>
  </linearGradient>
 </defs>
 <path fill="url(#oomox)" class="ColorScheme-Text" d="m9.0273 5.002c-0.3917 0.0111-0.7898 0.0839-1.1855 0.2187-1.6926 0.5749-2.9693 2.2417-3.3477 4.3125-1.111 0.268-2.0486 1.2488-2.3769 2.6558-0.4654 2 0.5036 4.062 2.1582 4.623 0.027 0.008 0.0345 0.025 0.0625 0.032 0.2282 0.099 0.4927 0.156 0.75 0.156h11.98c0.43 0 0.823-0.147 1.159-0.406 1.341-0.774 2.072-2.618 1.656-4.405-0.307-1.32-1.168-2.2896-2.19-2.6245-0.009-0.044 0.01-0.0811 0-0.125-0.465-1.9998-2.193-3.1557-3.847-2.5938-0.318 0.108-0.609 0.2548-0.875 0.4688-0.912-1.4803-2.395-2.3528-3.9417-2.3125h-0.002zm-0.6855 3.998h1.3418c0.1826 0 0.3164 0.2168 0.3164 0.4688v5.0622c0 0.252-0.1338 0.469-0.3164 0.469h-1.3418c-0.1826 0-0.3418-0.217-0.3418-0.469v-5.0622c0-0.252 0.1592-0.4688 0.3418-0.4688zm3.0002 0h1.342c0.182 0 0.316 0.2168 0.316 0.4688v5.0622c0 0.252-0.134 0.469-0.316 0.469h-1.342c-0.183 0-0.342-0.217-0.342-0.469v-5.0622c0-0.252 0.159-0.4688 0.342-0.4688z"/>
</svg>
