<svg xmlns="http://www.w3.org/2000/svg" width="16" height="16" version="1.1">
 <defs>
   <style id="current-color-scheme" type="text/css">
   .ColorScheme-Text { color: #00cce5; } .ColorScheme-Highlight { color:#5294e2; }
  </style>
  <linearGradient id="arrongin" x1="0%" x2="0%" y1="0%" y2="100%">
   <stop offset="0%" style="stop-color:#dd9b44; stop-opacity:1"/>
   <stop offset="100%" style="stop-color:#ad6c16; stop-opacity:1"/>
  </linearGradient>
  <linearGradient id="aurora" x1="0%" x2="0%" y1="0%" y2="100%">
   <stop offset="0%" style="stop-color:#09D4DF; stop-opacity:1"/>
   <stop offset="100%" style="stop-color:#9269F4; stop-opacity:1"/>
  </linearGradient>
  <linearGradient id="cyberneon" x1="0%" x2="0%" y1="0%" y2="100%">
    <stop offset="0" style="stop-color:#0abdc6; stop-opacity:1"/>
    <stop offset="1" style="stop-color:#ea00d9; stop-opacity:1"/>
  </linearGradient>
  <linearGradient id="fitdance" x1="0%" x2="0%" y1="0%" y2="100%">
   <stop offset="0%" style="stop-color:#1AD6AB; stop-opacity:1"/>
   <stop offset="100%" style="stop-color:#329DB6; stop-opacity:1"/>
  </linearGradient>
  <linearGradient id="oomox" x1="0%" x2="0%" y1="0%" y2="100%">
   <stop offset="0%" style="stop-color:#9d72ff; stop-opacity:1"/>
   <stop offset="100%" style="stop-color:#005aa5; stop-opacity:1"/>
  </linearGradient>
  <linearGradient id="rainblue" x1="0%" x2="0%" y1="0%" y2="100%">
   <stop offset="0%" style="stop-color:#00F260; stop-opacity:1"/>
   <stop offset="100%" style="stop-color:#0575E6; stop-opacity:1"/>
  </linearGradient>
  <linearGradient id="sunrise" x1="0%" x2="0%" y1="0%" y2="100%">
   <stop offset="0%" style="stop-color: #FF8501; stop-opacity:1"/>
   <stop offset="100%" style="stop-color: #FFCB01; stop-opacity:1"/>
  </linearGradient>
  <linearGradient id="telinkrin" x1="0%" x2="0%" y1="0%" y2="100%">
   <stop offset="0%" style="stop-color: #b2ced6; stop-opacity:1"/>
   <stop offset="100%" style="stop-color: #6da5b7; stop-opacity:1"/>
  </linearGradient>
  <linearGradient id="60spsycho" x1="0%" x2="0%" y1="0%" y2="100%">
   <stop offset="0%" style="stop-color: #df5940; stop-opacity:1"/>
   <stop offset="25%" style="stop-color: #d8d15f; stop-opacity:1"/>
   <stop offset="50%" style="stop-color: #e9882a; stop-opacity:1"/>
   <stop offset="100%" style="stop-color: #279362; stop-opacity:1"/>
  </linearGradient>
  <linearGradient id="90ssummer" x1="0%" x2="0%" y1="0%" y2="100%">
   <stop offset="0%" style="stop-color: #f618c7; stop-opacity:1"/>
   <stop offset="20%" style="stop-color: #94ffab; stop-opacity:1"/>
   <stop offset="50%" style="stop-color: #fbfd54; stop-opacity:1"/>
   <stop offset="100%" style="stop-color: #0f83ae; stop-opacity:1"/>
  </linearGradient>
 </defs>
 <path fill="url(#oomox)" class="ColorScheme-Text" fill-rule="evenodd" d="M 4.82 2.285 C 4.467 2.285 3.865 2.497 3.309 3.354 C 2.753 4.21 2.307 5.618 2.307 7.216 C 2.307 8.815 2.753 10.222 3.309 11.079 C 3.632 11.577 4.045 11.852 4.309 12 C 5.055 11.897 5.94 11.811 6.857 11.769 L 6.857 4.663 C 6.689 4.152 6.444 3.705 6.216 3.354 C 5.66 2.497 5.173 2.285 4.82 2.285 L 4.82 2.285 L 4.82 2.285 Z M 2.052 12.949 C 0.807 11.67 0 9.544 0 7.143 C 0 3.2 2.176 0 4.857 0 C 6.055 0 7.152 0.639 8 1.696 C 8.848 0.639 9.945 0 11.143 0 C 13.824 0 16 3.2 16 7.143 C 16 9.544 15.193 11.67 13.948 12.949 C 14.092 12.98 14.235 13.013 14.377 13.047 C 14.571 13.092 14.766 13.141 14.957 13.195 C 15.323 13.298 15.631 13.541 15.817 13.872 C 16.003 14.204 16.049 14.592 15.946 14.958 C 15.843 15.324 15.6 15.632 15.271 15.818 C 14.94 16.004 14.549 16.049 14.186 15.947 C 14.031 15.904 13.877 15.864 13.723 15.827 C 13.28 15.721 12.831 15.629 12.383 15.549 C 10.937 15.284 9.469 15.149 8 15.144 C 6.531 15.149 5.063 15.284 3.617 15.549 C 3.169 15.629 2.72 15.721 2.277 15.827 C 2.123 15.864 1.969 15.904 1.814 15.947 C 1.451 16.049 1.06 16.004 0.729 15.818 C 0.4 15.632 0.157 15.324 0.054 14.958 C -0.049 14.592 -0.003 14.204 0.183 13.872 C 0.369 13.541 0.677 13.298 1.043 13.195 C 1.234 13.141 1.429 13.092 1.623 13.047 C 1.765 13.013 1.908 12.98 2.052 12.949 L 2.052 12.949 L 2.052 12.949 Z M 11.217 2.285 C 10.865 2.285 10.377 2.497 9.821 3.354 C 9.593 3.705 9.311 4.152 9.143 4.663 L 9.143 11.769 C 10.06 11.811 10.982 11.897 11.728 12 C 11.992 11.852 12.405 11.577 12.728 11.079 C 13.284 10.222 13.731 8.815 13.731 7.216 C 13.731 5.618 13.284 4.21 12.728 3.354 C 12.172 2.497 11.57 2.285 11.217 2.285 Z"/>
</svg>
