<svg xmlns="http://www.w3.org/2000/svg" width="16" height="16" version="1.1">
 <defs>
   <style id="current-color-scheme" type="text/css">
   .ColorScheme-Text { color: #00cce5; } .ColorScheme-Highlight { color:#5294e2; }
  </style>
  <linearGradient id="arrongin" x1="0%" x2="0%" y1="0%" y2="100%">
   <stop offset="0%" style="stop-color:#dd9b44; stop-opacity:1"/>
   <stop offset="100%" style="stop-color:#ad6c16; stop-opacity:1"/>
  </linearGradient>
  <linearGradient id="aurora" x1="0%" x2="0%" y1="0%" y2="100%">
   <stop offset="0%" style="stop-color:#09D4DF; stop-opacity:1"/>
   <stop offset="100%" style="stop-color:#9269F4; stop-opacity:1"/>
  </linearGradient>
  <linearGradient id="cyberneon" x1="0%" x2="0%" y1="0%" y2="100%">
    <stop offset="0" style="stop-color:#0abdc6; stop-opacity:1"/>
    <stop offset="1" style="stop-color:#ea00d9; stop-opacity:1"/>
  </linearGradient>
  <linearGradient id="fitdance" x1="0%" x2="0%" y1="0%" y2="100%">
   <stop offset="0%" style="stop-color:#1AD6AB; stop-opacity:1"/>
   <stop offset="100%" style="stop-color:#329DB6; stop-opacity:1"/>
  </linearGradient>
  <linearGradient id="oomox" x1="0%" x2="0%" y1="0%" y2="100%">
   <stop offset="0%" style="stop-color:#9d72ff; stop-opacity:1"/>
   <stop offset="100%" style="stop-color:#005aa5; stop-opacity:1"/>
  </linearGradient>
  <linearGradient id="rainblue" x1="0%" x2="0%" y1="0%" y2="100%">
   <stop offset="0%" style="stop-color:#00F260; stop-opacity:1"/>
   <stop offset="100%" style="stop-color:#0575E6; stop-opacity:1"/>
  </linearGradient>
  <linearGradient id="sunrise" x1="0%" x2="0%" y1="0%" y2="100%">
   <stop offset="0%" style="stop-color: #FF8501; stop-opacity:1"/>
   <stop offset="100%" style="stop-color: #FFCB01; stop-opacity:1"/>
  </linearGradient>
  <linearGradient id="telinkrin" x1="0%" x2="0%" y1="0%" y2="100%">
   <stop offset="0%" style="stop-color: #b2ced6; stop-opacity:1"/>
   <stop offset="100%" style="stop-color: #6da5b7; stop-opacity:1"/>
  </linearGradient>
  <linearGradient id="60spsycho" x1="0%" x2="0%" y1="0%" y2="100%">
   <stop offset="0%" style="stop-color: #df5940; stop-opacity:1"/>
   <stop offset="25%" style="stop-color: #d8d15f; stop-opacity:1"/>
   <stop offset="50%" style="stop-color: #e9882a; stop-opacity:1"/>
   <stop offset="100%" style="stop-color: #279362; stop-opacity:1"/>
  </linearGradient>
  <linearGradient id="90ssummer" x1="0%" x2="0%" y1="0%" y2="100%">
   <stop offset="0%" style="stop-color: #f618c7; stop-opacity:1"/>
   <stop offset="20%" style="stop-color: #94ffab; stop-opacity:1"/>
   <stop offset="50%" style="stop-color: #fbfd54; stop-opacity:1"/>
   <stop offset="100%" style="stop-color: #0f83ae; stop-opacity:1"/>
  </linearGradient>
 </defs>
 <path fill="url(#oomox)" class="ColorScheme-Text" d="M 2.032 5.877 L 13.957 8.408 L 13.957 10.189 L 13.481 10.792 C 13.481 10.792 10.147 10.315 10.077 10.315 L 9.517 11.745 L 2.608 11.745 L 1.975 10.792 L 2.032 5.877 Z"/>
 <path fill="url(#oomox)" class="ColorScheme-Text" d="M 2.31 2.213 L 1.362 3.166 L 1.362 10.791 L 2.31 11.745 L 8.511 11.745 L 8.511 10.723 L 2.383 10.723 L 2.383 3.234 L 13.656 3.234 L 13.656 4.119 L 13.852 4.119 L 14.638 4.875 L 14.638 3.166 L 13.69 2.213 L 2.31 2.213 Z M 9.816 4.596 L 8.851 5.579 L 8.851 12.463 L 9.816 13.447 L 13.673 13.447 L 14.638 12.463 L 14.638 5.579 L 13.673 4.596 L 9.816 4.596 Z M 9.872 5.617 L 13.617 5.617 L 13.617 10.043 L 9.872 10.043 L 9.872 5.617 Z M 9.872 11.064 L 13.617 11.064 L 13.617 12.425 L 9.872 12.425 L 9.872 11.064 Z M 11.234 11.404 L 11.234 12.085 L 12.255 12.085 L 12.255 11.404 L 11.234 11.404 Z M 0 12.425 L 0.941 13.447 L 9.217 13.447 L 8.471 12.637 L 8.471 12.425 L 0 12.425 Z M 15.059 12.425 L 15.059 12.637 L 14.312 13.447 L 15.059 13.447 L 16 12.425 L 15.059 12.425 Z"/>
</svg>
