<svg xmlns="http://www.w3.org/2000/svg" width="16" height="16" version="1.1">
 <defs>
   <style id="current-color-scheme" type="text/css">
   .ColorScheme-Text { color: #00cce5; } .ColorScheme-Highlight { color:#5294e2; }
  </style>
  <linearGradient id="arrongin" x1="0%" x2="0%" y1="0%" y2="100%">
   <stop offset="0%" style="stop-color:#dd9b44; stop-opacity:1"/>
   <stop offset="100%" style="stop-color:#ad6c16; stop-opacity:1"/>
  </linearGradient>
  <linearGradient id="aurora" x1="0%" x2="0%" y1="0%" y2="100%">
   <stop offset="0%" style="stop-color:#09D4DF; stop-opacity:1"/>
   <stop offset="100%" style="stop-color:#9269F4; stop-opacity:1"/>
  </linearGradient>
  <linearGradient id="cyberneon" x1="0%" x2="0%" y1="0%" y2="100%">
    <stop offset="0" style="stop-color:#0abdc6; stop-opacity:1"/>
    <stop offset="1" style="stop-color:#ea00d9; stop-opacity:1"/>
  </linearGradient>
  <linearGradient id="fitdance" x1="0%" x2="0%" y1="0%" y2="100%">
   <stop offset="0%" style="stop-color:#1AD6AB; stop-opacity:1"/>
   <stop offset="100%" style="stop-color:#329DB6; stop-opacity:1"/>
  </linearGradient>
  <linearGradient id="oomox" x1="0%" x2="0%" y1="0%" y2="100%">
   <stop offset="0%" style="stop-color:#9d72ff; stop-opacity:1"/>
   <stop offset="100%" style="stop-color:#005aa5; stop-opacity:1"/>
  </linearGradient>
  <linearGradient id="rainblue" x1="0%" x2="0%" y1="0%" y2="100%">
   <stop offset="0%" style="stop-color:#00F260; stop-opacity:1"/>
   <stop offset="100%" style="stop-color:#0575E6; stop-opacity:1"/>
  </linearGradient>
  <linearGradient id="sunrise" x1="0%" x2="0%" y1="0%" y2="100%">
   <stop offset="0%" style="stop-color: #FF8501; stop-opacity:1"/>
   <stop offset="100%" style="stop-color: #FFCB01; stop-opacity:1"/>
  </linearGradient>
  <linearGradient id="telinkrin" x1="0%" x2="0%" y1="0%" y2="100%">
   <stop offset="0%" style="stop-color: #b2ced6; stop-opacity:1"/>
   <stop offset="100%" style="stop-color: #6da5b7; stop-opacity:1"/>
  </linearGradient>
  <linearGradient id="60spsycho" x1="0%" x2="0%" y1="0%" y2="100%">
   <stop offset="0%" style="stop-color: #df5940; stop-opacity:1"/>
   <stop offset="25%" style="stop-color: #d8d15f; stop-opacity:1"/>
   <stop offset="50%" style="stop-color: #e9882a; stop-opacity:1"/>
   <stop offset="100%" style="stop-color: #279362; stop-opacity:1"/>
  </linearGradient>
  <linearGradient id="90ssummer" x1="0%" x2="0%" y1="0%" y2="100%">
   <stop offset="0%" style="stop-color: #f618c7; stop-opacity:1"/>
   <stop offset="20%" style="stop-color: #94ffab; stop-opacity:1"/>
   <stop offset="50%" style="stop-color: #fbfd54; stop-opacity:1"/>
   <stop offset="100%" style="stop-color: #0f83ae; stop-opacity:1"/>
  </linearGradient>
 </defs>
 <path fill="url(#oomox)" class="ColorScheme-Text" d="M 6.108 1.834 L 6.108 13.398 L 8.61 14.166 L 8.61 4.513 C 8.61 4.258 8.641 4.07 8.748 3.962 C 8.853 3.814 8.952 3.799 9.102 3.864 C 9.464 3.969 9.634 4.297 9.634 4.829 L 9.634 8.709 C 10.444 9.094 11.17 9.133 11.702 8.729 C 12.256 8.345 12.55 7.663 12.55 6.641 C 12.55 5.575 12.35 4.752 11.879 4.218 C 11.453 3.644 10.703 3.184 9.594 2.799 C 8.211 2.352 7.046 2.032 6.108 1.834 Z M 5.339 8.828 L 4.847 8.985 L 1.754 10.088 L 1.222 10.305 C 0.412 10.645 -0.021 11.009 0.001 11.329 C 0.043 11.797 0.578 12.137 1.538 12.393 C 2.784 12.728 4.046 12.804 5.339 12.61 L 5.339 11.29 L 4.847 11.467 L 4.295 11.684 L 3.409 11.861 L 2.562 11.763 C 2.392 11.654 2.335 11.534 2.443 11.428 C 2.581 11.343 2.726 11.27 2.877 11.211 L 3.448 11.014 L 5.339 10.344 L 5.339 8.828 Z M 12.51 9.438 C 12.278 9.428 12.045 9.448 11.821 9.457 C 10.993 9.475 10.144 9.611 9.26 9.891 L 9.26 11.447 L 11.013 10.837 L 11.919 10.521 L 12.51 10.364 C 12.892 10.263 13.298 10.404 13.298 10.404 C 13.532 10.423 13.65 10.512 13.692 10.62 C 13.734 10.748 13.578 10.847 13.259 10.955 L 12.471 11.27 L 9.26 12.412 L 9.26 13.929 L 10.757 13.397 L 14.362 12.116 L 14.795 11.92 C 15.65 11.599 16.039 11.262 15.997 10.836 C 15.974 10.43 15.49 10.11 14.637 9.832 C 13.95 9.6 13.234 9.467 12.51 9.438 L 12.51 9.438 Z"/>
</svg>
