<svg xmlns="http://www.w3.org/2000/svg" width="16" height="16" version="1.1">
 <defs>
   <style id="current-color-scheme" type="text/css">
   .ColorScheme-Text { color: #00cce5; } .ColorScheme-Highlight { color:#5294e2; }
  </style>
  <linearGradient id="arrongin" x1="0%" x2="0%" y1="0%" y2="100%">
   <stop offset="0%" style="stop-color:#dd9b44; stop-opacity:1"/>
   <stop offset="100%" style="stop-color:#ad6c16; stop-opacity:1"/>
  </linearGradient>
  <linearGradient id="aurora" x1="0%" x2="0%" y1="0%" y2="100%">
   <stop offset="0%" style="stop-color:#09D4DF; stop-opacity:1"/>
   <stop offset="100%" style="stop-color:#9269F4; stop-opacity:1"/>
  </linearGradient>
  <linearGradient id="cyberneon" x1="0%" x2="0%" y1="0%" y2="100%">
    <stop offset="0" style="stop-color:#0abdc6; stop-opacity:1"/>
    <stop offset="1" style="stop-color:#ea00d9; stop-opacity:1"/>
  </linearGradient>
  <linearGradient id="fitdance" x1="0%" x2="0%" y1="0%" y2="100%">
   <stop offset="0%" style="stop-color:#1AD6AB; stop-opacity:1"/>
   <stop offset="100%" style="stop-color:#329DB6; stop-opacity:1"/>
  </linearGradient>
  <linearGradient id="oomox" x1="0%" x2="0%" y1="0%" y2="100%">
   <stop offset="0%" style="stop-color:#9d72ff; stop-opacity:1"/>
   <stop offset="100%" style="stop-color:#005aa5; stop-opacity:1"/>
  </linearGradient>
  <linearGradient id="rainblue" x1="0%" x2="0%" y1="0%" y2="100%">
   <stop offset="0%" style="stop-color:#00F260; stop-opacity:1"/>
   <stop offset="100%" style="stop-color:#0575E6; stop-opacity:1"/>
  </linearGradient>
  <linearGradient id="sunrise" x1="0%" x2="0%" y1="0%" y2="100%">
   <stop offset="0%" style="stop-color: #FF8501; stop-opacity:1"/>
   <stop offset="100%" style="stop-color: #FFCB01; stop-opacity:1"/>
  </linearGradient>
  <linearGradient id="telinkrin" x1="0%" x2="0%" y1="0%" y2="100%">
   <stop offset="0%" style="stop-color: #b2ced6; stop-opacity:1"/>
   <stop offset="100%" style="stop-color: #6da5b7; stop-opacity:1"/>
  </linearGradient>
  <linearGradient id="60spsycho" x1="0%" x2="0%" y1="0%" y2="100%">
   <stop offset="0%" style="stop-color: #df5940; stop-opacity:1"/>
   <stop offset="25%" style="stop-color: #d8d15f; stop-opacity:1"/>
   <stop offset="50%" style="stop-color: #e9882a; stop-opacity:1"/>
   <stop offset="100%" style="stop-color: #279362; stop-opacity:1"/>
  </linearGradient>
  <linearGradient id="90ssummer" x1="0%" x2="0%" y1="0%" y2="100%">
   <stop offset="0%" style="stop-color: #f618c7; stop-opacity:1"/>
   <stop offset="20%" style="stop-color: #94ffab; stop-opacity:1"/>
   <stop offset="50%" style="stop-color: #fbfd54; stop-opacity:1"/>
   <stop offset="100%" style="stop-color: #0f83ae; stop-opacity:1"/>
  </linearGradient>
 </defs>
 <path fill="url(#oomox)" class="ColorScheme-Text" fill-rule="evenodd" d="M 15.03 9.479 L 15.03 2.91 L 15.03 2.91 C 15.03 2.79 14.98 2.67 14.9 2.59 C 14.81 2.5 14.7 2.45 14.58 2.45 L 1.51 2.45 C 1.38 2.46 1.27 2.52 1.19 2.62 C 1.1 2.69 1.04 2.81 1.03 2.93 L 1.03 8.453 C 1.041 8.455 1.052 8.455 1.061 8.45 C 1.067 8.447 1.085 8.439 1.09 8.433 C 1.098 8.425 1.176 8.432 1.192 8.416 C 1.2 8.408 1.232 8.422 1.243 8.416 L 1.336 8.37 C 1.365 8.355 1.414 8.38 1.446 8.37 C 1.458 8.366 1.459 8.356 1.467 8.348 C 1.477 8.338 1.5 8.34 1.514 8.336 C 1.539 8.327 1.555 8.305 1.577 8.293 C 1.611 8.276 1.598 8.323 1.624 8.31 C 1.633 8.306 1.673 8.26 1.674 8.26 C 1.677 8.26 1.674 8.265 1.674 8.268 C 1.674 8.287 1.7 8.308 1.721 8.298 C 1.725 8.296 1.726 8.285 1.734 8.281 C 1.745 8.275 1.764 8.285 1.776 8.281 C 1.794 8.275 1.811 8.264 1.827 8.255 C 1.833 8.252 1.902 8.243 1.915 8.238 C 1.961 8.223 2.026 8.255 2.068 8.234 C 2.096 8.22 2.132 8.186 2.165 8.175 C 2.174 8.172 2.178 8.158 2.187 8.154 C 2.192 8.151 2.205 8.154 2.212 8.154 C 2.27 8.154 2.229 8.154 2.271 8.196 C 2.273 8.198 2.303 8.197 2.305 8.196 C 2.31 8.194 2.306 8.183 2.313 8.179 C 2.328 8.172 2.35 8.174 2.364 8.166 C 2.369 8.164 2.367 8.155 2.373 8.158 C 2.389 8.166 2.394 8.211 2.423 8.196 C 2.453 8.181 2.424 8.126 2.428 8.124 C 2.449 8.113 2.495 8.101 2.521 8.09 C 2.548 8.08 2.592 8.074 2.61 8.056 C 2.611 8.055 2.619 8.037 2.619 8.028 C 2.628 8.039 2.656 8.065 2.673 8.048 C 2.678 8.044 2.672 8.022 2.677 8.014 C 2.683 8.005 2.702 8.007 2.707 8.002 C 2.716 7.992 2.734 7.973 2.745 7.968 C 2.775 7.953 2.821 7.987 2.851 7.972 C 2.893 7.951 2.788 7.92 2.8 7.908 C 2.812 7.896 2.874 7.894 2.893 7.887 C 2.898 7.886 2.905 7.87 2.914 7.875 C 2.924 7.879 2.953 7.942 2.965 7.929 C 2.973 7.922 2.972 7.902 2.978 7.896 C 2.99 7.883 3.01 7.856 3.024 7.849 C 3.04 7.841 3.062 7.833 3.075 7.82 C 3.09 7.805 3.138 7.828 3.151 7.815 C 3.156 7.811 3.158 7.792 3.164 7.786 C 3.184 7.766 3.219 7.784 3.24 7.773 C 3.261 7.762 3.287 7.739 3.3 7.726 C 3.317 7.709 3.349 7.706 3.367 7.688 C 3.406 7.65 3.481 7.689 3.49 7.68 C 3.506 7.664 3.5 7.636 3.52 7.616 C 3.538 7.598 3.549 7.633 3.575 7.621 C 3.587 7.614 3.601 7.61 3.613 7.604 C 3.618 7.601 3.618 7.592 3.621 7.591 C 3.635 7.584 3.683 7.627 3.701 7.608 C 3.713 7.596 3.699 7.556 3.723 7.544 C 3.743 7.534 3.788 7.539 3.803 7.532 C 3.835 7.516 3.869 7.497 3.9 7.481 C 3.908 7.477 3.919 7.478 3.933 7.483 C 3.956 7.422 4.198 6.781 4.306 6.542 C 4.306 6.542 4.486 6.187 4.492 6.139 C 4.492 6.139 4.576 5.864 4.63 5.804 C 4.63 5.804 4.732 5.642 4.756 5.612 C 4.756 5.612 4.929 5.439 4.971 5.379 C 4.971 5.379 5.139 5.223 5.139 5.194 C 5.139 5.194 5.222 5.08 5.276 5.05 C 5.276 5.05 5.402 4.936 5.468 4.936 C 5.468 4.936 5.641 4.906 5.641 4.906 L 5.711 4.93 L 5.801 4.941 L 5.893 4.978 C 5.893 4.978 5.961 4.98 5.982 5.005 C 5.982 5.005 6.024 5.073 6.024 5.073 C 6.024 5.073 6.088 5.056 6.084 5.082 C 6.084 5.082 6.118 5.17 6.147 5.175 C 6.147 5.175 6.194 5.204 6.211 5.225 C 6.211 5.225 6.236 5.272 6.257 5.289 C 6.257 5.289 6.308 5.31 6.338 5.344 C 6.338 5.344 6.465 5.454 6.494 5.488 C 6.494 5.488 6.613 5.602 6.655 5.674 C 6.655 5.674 6.829 5.953 6.85 6.008 C 6.85 6.008 6.909 6.203 6.909 6.203 C 6.909 6.203 6.926 6.178 6.943 6.203 C 6.943 6.203 7.057 6.376 7.074 6.436 C 7.074 6.436 7.154 6.664 7.176 6.707 C 7.176 6.707 7.231 6.842 7.231 6.859 C 7.231 6.859 7.205 6.889 7.214 6.922 C 7.214 6.922 7.248 7.133 7.248 7.133 L 7.26 7.129 L 7.26 7.129 C 7.256 7.114 7.256 7.1 7.269 7.087 C 7.279 7.077 7.317 7.073 7.324 7.066 C 7.331 7.059 7.342 7.046 7.358 7.041 C 7.366 7.038 7.386 7.051 7.392 7.045 C 7.397 7.04 7.397 7.032 7.404 7.024 C 7.428 7.001 7.444 7.025 7.464 7.015 C 7.48 7.007 7.485 6.984 7.498 6.977 C 7.502 6.975 7.514 6.982 7.523 6.982 C 7.534 6.982 7.538 6.975 7.544 6.969 C 7.555 6.958 7.58 6.979 7.591 6.973 C 7.598 6.97 7.614 6.916 7.629 6.901 C 7.647 6.883 7.705 6.876 7.718 6.863 C 7.723 6.857 7.744 6.863 7.751 6.859 C 7.805 6.823 7.761 6.811 7.764 6.808 C 7.769 6.803 7.83 6.798 7.836 6.804 C 7.849 6.816 7.824 6.838 7.857 6.838 C 7.886 6.838 7.936 6.831 7.955 6.812 C 7.955 6.812 7.947 6.786 7.967 6.766 C 7.97 6.763 8.004 6.757 8.014 6.757 C 8.017 6.757 8.024 6.764 8.027 6.761 C 8.038 6.75 8.047 6.732 8.056 6.723 C 8.067 6.712 8.087 6.709 8.099 6.698 C 8.104 6.693 8.082 6.69 8.082 6.685 C 8.082 6.681 8.155 6.694 8.166 6.694 C 8.18 6.694 8.214 6.7 8.226 6.694 C 8.25 6.682 8.275 6.629 8.285 6.609 C 8.278 6.596 8.307 6.641 8.31 6.63 C 8.313 6.623 8.3 6.602 8.306 6.596 C 8.322 6.58 8.407 6.613 8.416 6.596 C 8.427 6.575 8.414 6.548 8.437 6.524 C 8.439 6.523 8.44 6.519 8.441 6.52 C 8.445 6.524 8.453 6.521 8.458 6.524 C 8.465 6.529 8.468 6.538 8.475 6.542 C 8.489 6.548 8.487 6.532 8.496 6.529 C 8.52 6.521 8.557 6.512 8.581 6.512 C 8.606 6.512 8.609 6.515 8.623 6.529 C 8.623 6.529 8.677 6.531 8.678 6.529 C 8.698 6.489 8.69 6.477 8.737 6.461 C 8.74 6.46 8.755 6.453 8.759 6.457 C 8.771 6.469 8.779 6.487 8.814 6.474 C 8.828 6.468 8.842 6.451 8.856 6.444 C 8.861 6.442 8.867 6.465 8.877 6.465 C 8.889 6.465 8.934 6.459 8.941 6.465 C 8.952 6.477 8.955 6.514 8.962 6.52 C 8.964 6.522 8.967 6.52 8.97 6.52 C 9.015 6.52 8.984 6.467 8.991 6.453 C 8.995 6.446 9.006 6.447 9.013 6.444 C 9.034 6.433 9.032 6.46 9.042 6.465 C 9.052 6.47 9.084 6.444 9.093 6.448 C 9.111 6.457 9.13 6.484 9.144 6.512 C 9.144 6.513 9.145 6.513 9.146 6.513 C 9.172 6.495 9.187 6.483 9.187 6.483 C 9.211 6.459 9.259 6.459 9.259 6.459 C 9.277 6.447 9.295 6.396 9.295 6.396 C 9.313 6.382 9.337 6.394 9.337 6.394 C 9.355 6.394 9.382 6.349 9.382 6.349 L 9.516 6.203 C 9.501 6.208 9.433 6.191 9.44 6.178 C 9.451 6.156 9.48 6.128 9.499 6.118 C 9.506 6.115 9.527 6.124 9.533 6.118 C 9.56 6.091 9.499 6.097 9.491 6.093 C 9.444 6.07 9.5 6.035 9.52 6.025 C 9.538 6.017 9.614 6.037 9.618 6.034 C 9.635 6.016 9.585 5.994 9.596 5.983 C 9.6 5.98 9.66 5.979 9.664 5.983 C 9.669 5.988 9.665 5.996 9.677 6 C 9.693 6.005 9.79 6.009 9.808 6 C 9.814 5.997 9.814 5.99 9.816 5.987 C 9.842 5.962 9.877 6.036 9.901 6.013 C 9.916 5.998 10.03 5.948 10.066 5.966 L 10.117 5.991 C 10.16 6.013 10.23 5.956 10.265 6.008 C 10.273 6.02 10.246 6.036 10.24 6.042 C 10.236 6.045 10.236 6.052 10.235 6.058 L 10.235 6.058 L 10.278 6.057 L 10.278 6.057 C 10.288 6.041 10.292 6.022 10.295 6.025 C 10.3 6.031 10.37 6.005 10.388 5.987 C 10.392 5.983 10.39 5.975 10.392 5.97 C 10.401 5.952 10.428 5.923 10.443 5.915 C 10.448 5.913 10.481 5.913 10.485 5.915 C 10.486 5.915 10.489 5.927 10.489 5.928 C 10.506 5.944 10.556 5.914 10.574 5.924 C 10.597 5.935 10.597 5.959 10.608 5.97 C 10.618 5.981 10.676 5.966 10.68 5.962 C 10.731 5.978 10.843 5.988 10.9 5.979 C 10.912 5.977 10.942 5.966 10.951 5.97 C 10.967 5.979 10.981 5.992 10.989 6 C 10.993 6.004 11.02 6.005 11.031 6.008 C 11.05 6.015 11.098 6.004 11.107 6.008 C 11.118 6.014 11.115 6.042 11.124 6.051 C 11.132 6.058 11.179 6.051 11.188 6.046 C 11.192 6.044 11.191 6.034 11.196 6.034 C 11.2 6.034 11.196 6.042 11.196 6.046 C 11.196 6.055 11.201 6.066 11.205 6.072 C 11.216 6.089 11.234 6.08 11.251 6.089 C 11.261 6.093 11.279 6.087 11.289 6.089 C 11.308 6.091 11.316 6.095 11.327 6.106 C 11.336 6.114 11.337 6.17 11.357 6.19 C 11.368 6.202 11.402 6.217 11.42 6.207 C 11.423 6.206 11.429 6.199 11.433 6.203 C 11.44 6.21 11.45 6.265 11.454 6.275 C 11.461 6.289 11.488 6.296 11.497 6.305 C 11.512 6.32 11.568 6.289 11.581 6.296 C 11.585 6.298 11.584 6.311 11.585 6.313 C 11.603 6.331 11.617 6.349 11.636 6.368 C 11.641 6.373 11.658 6.358 11.679 6.368 C 11.696 6.377 11.691 6.397 11.7 6.41 C 11.714 6.432 11.747 6.428 11.763 6.444 C 11.782 6.462 11.806 6.499 11.818 6.508 C 11.845 6.525 11.924 6.566 11.924 6.567 C 11.924 6.57 11.938 6.582 11.941 6.588 C 11.957 6.62 12.003 6.621 12.034 6.652 C 12.048 6.665 12.065 6.684 12.081 6.694 C 12.106 6.711 12.144 6.731 12.157 6.745 C 12.163 6.751 12.175 6.746 12.182 6.753 C 12.21 6.781 12.198 6.801 12.212 6.829 C 12.232 6.87 12.247 6.86 12.267 6.88 C 12.268 6.881 12.273 6.928 12.288 6.944 C 12.298 6.953 12.315 6.942 12.326 6.948 C 12.337 6.953 12.333 6.971 12.339 6.982 C 12.347 6.998 12.372 7.013 12.385 7.02 C 12.404 7.024 12.463 7.047 12.47 7.058 C 12.481 7.075 12.482 7.117 12.5 7.126 C 12.505 7.128 12.511 7.124 12.517 7.126 C 12.547 7.136 12.58 7.138 12.576 7.138 C 12.57 7.138 12.575 7.167 12.593 7.176 C 12.606 7.183 12.63 7.17 12.643 7.176 C 12.679 7.194 12.734 7.212 12.758 7.236 C 12.766 7.243 12.783 7.24 12.792 7.248 C 12.799 7.256 12.83 7.24 12.838 7.248 C 12.845 7.255 12.851 7.269 12.859 7.278 C 12.865 7.284 12.901 7.278 12.91 7.282 C 12.925 7.29 12.92 7.325 12.927 7.329 C 12.936 7.333 12.952 7.333 12.961 7.337 C 13.001 7.357 13.046 7.389 13.062 7.422 C 13.067 7.43 13.077 7.431 13.084 7.434 C 13.093 7.439 13.122 7.451 13.139 7.443 C 13.153 7.436 13.139 7.439 13.156 7.439 C 13.158 7.439 13.153 7.433 13.151 7.434 C 13.145 7.441 13.171 7.484 13.181 7.489 C 13.207 7.502 13.252 7.489 13.249 7.489 C 13.246 7.489 13.249 7.495 13.249 7.498 C 13.249 7.516 13.212 7.518 13.228 7.549 C 13.229 7.551 13.253 7.548 13.257 7.549 C 13.275 7.553 13.26 7.556 13.278 7.574 C 13.29 7.585 13.335 7.563 13.346 7.574 C 13.354 7.582 13.328 7.607 13.338 7.616 L 13.363 7.642 C 13.378 7.657 13.403 7.645 13.414 7.667 C 13.422 7.685 13.401 7.734 13.414 7.748 C 13.429 7.762 13.454 7.708 13.477 7.731 C 13.498 7.751 13.514 7.784 13.536 7.807 C 13.55 7.82 13.582 7.834 13.587 7.849 C 13.599 7.883 13.585 7.915 13.608 7.938 C 13.613 7.943 13.61 7.957 13.617 7.963 C 13.623 7.969 13.675 7.983 13.676 7.985 C 13.682 7.997 13.674 8.018 13.68 8.031 C 13.687 8.045 13.699 8.033 13.706 8.04 C 13.715 8.049 13.692 8.076 13.71 8.086 C 13.709 8.086 13.71 8.086 13.71 8.086 C 13.71 8.086 13.71 8.086 13.711 8.086 C 13.732 8.097 13.771 8.111 13.767 8.147 C 13.848 8.234 13.896 8.285 13.896 8.285 C 13.98 8.353 14.349 8.734 14.349 8.734 C 14.425 8.814 14.573 9.102 14.573 9.102 C 14.618 9.186 14.701 9.433 14.737 9.543 L 14.918 9.543 L 14.936 9.479 L 15.03 9.479 Z M 15.03 10.299 L 15.03 13.09 C 15.03 13.21 14.98 13.33 14.9 13.41 C 14.81 13.5 14.7 13.55 14.58 13.55 L 1.49 13.55 C 1.37 13.55 1.25 13.5 1.16 13.41 C 1.08 13.33 1.03 13.21 1.03 13.09 L 1.03 9.93 L 5.457 10.096 L 13.553 10.406 L 14.844 10.384 L 14.833 10.293 L 14.833 10.293 L 15.03 10.299 L 15.03 10.299 Z M 16.031 2.909 L 16.031 13.091 C 16.031 13.818 15.304 14.545 14.577 14.545 L 1.486 14.545 C 0.686 14.545 0.031 13.891 0.031 13.091 L 0.031 2.909 C 0.031 2.182 0.759 1.455 1.486 1.455 L 14.577 1.455 C 15.304 1.455 16.031 2.182 16.031 2.909 L 16.031 2.909 Z M 2.618 8.028 C 2.618 8.025 2.617 8.023 2.614 8.023 C 2.614 8.023 2.616 8.025 2.618 8.028 L 2.618 8.028 L 2.618 8.028 L 2.618 8.028 L 2.618 8.028 L 2.618 8.028 L 2.618 8.028 Z"/>
</svg>
