<svg xmlns="http://www.w3.org/2000/svg" width="16" height="16" version="1.1">
 <defs>
   <style id="current-color-scheme" type="text/css">
   .ColorScheme-Text { color: #00cce5; } .ColorScheme-Highlight { color:#5294e2; }
  </style>
  <linearGradient id="arrongin" x1="0%" x2="0%" y1="0%" y2="100%">
   <stop offset="0%" style="stop-color:#dd9b44; stop-opacity:1"/>
   <stop offset="100%" style="stop-color:#ad6c16; stop-opacity:1"/>
  </linearGradient>
  <linearGradient id="aurora" x1="0%" x2="0%" y1="0%" y2="100%">
   <stop offset="0%" style="stop-color:#09D4DF; stop-opacity:1"/>
   <stop offset="100%" style="stop-color:#9269F4; stop-opacity:1"/>
  </linearGradient>
  <linearGradient id="cyberneon" x1="0%" x2="0%" y1="0%" y2="100%">
    <stop offset="0" style="stop-color:#0abdc6; stop-opacity:1"/>
    <stop offset="1" style="stop-color:#ea00d9; stop-opacity:1"/>
  </linearGradient>
  <linearGradient id="fitdance" x1="0%" x2="0%" y1="0%" y2="100%">
   <stop offset="0%" style="stop-color:#1AD6AB; stop-opacity:1"/>
   <stop offset="100%" style="stop-color:#329DB6; stop-opacity:1"/>
  </linearGradient>
  <linearGradient id="oomox" x1="0%" x2="0%" y1="0%" y2="100%">
   <stop offset="0%" style="stop-color:#9d72ff; stop-opacity:1"/>
   <stop offset="100%" style="stop-color:#005aa5; stop-opacity:1"/>
  </linearGradient>
  <linearGradient id="rainblue" x1="0%" x2="0%" y1="0%" y2="100%">
   <stop offset="0%" style="stop-color:#00F260; stop-opacity:1"/>
   <stop offset="100%" style="stop-color:#0575E6; stop-opacity:1"/>
  </linearGradient>
  <linearGradient id="sunrise" x1="0%" x2="0%" y1="0%" y2="100%">
   <stop offset="0%" style="stop-color: #FF8501; stop-opacity:1"/>
   <stop offset="100%" style="stop-color: #FFCB01; stop-opacity:1"/>
  </linearGradient>
  <linearGradient id="telinkrin" x1="0%" x2="0%" y1="0%" y2="100%">
   <stop offset="0%" style="stop-color: #b2ced6; stop-opacity:1"/>
   <stop offset="100%" style="stop-color: #6da5b7; stop-opacity:1"/>
  </linearGradient>
  <linearGradient id="60spsycho" x1="0%" x2="0%" y1="0%" y2="100%">
   <stop offset="0%" style="stop-color: #df5940; stop-opacity:1"/>
   <stop offset="25%" style="stop-color: #d8d15f; stop-opacity:1"/>
   <stop offset="50%" style="stop-color: #e9882a; stop-opacity:1"/>
   <stop offset="100%" style="stop-color: #279362; stop-opacity:1"/>
  </linearGradient>
  <linearGradient id="90ssummer" x1="0%" x2="0%" y1="0%" y2="100%">
   <stop offset="0%" style="stop-color: #f618c7; stop-opacity:1"/>
   <stop offset="20%" style="stop-color: #94ffab; stop-opacity:1"/>
   <stop offset="50%" style="stop-color: #fbfd54; stop-opacity:1"/>
   <stop offset="100%" style="stop-color: #0f83ae; stop-opacity:1"/>
  </linearGradient>
 </defs>
 <path fill="url(#oomox)" class="ColorScheme-Text" d="M 7.857 0 C 5.017 0 2.714 2.328 2.714 5.2 C 2.714 5.372 2.723 5.543 2.74 5.714 L 2.714 5.714 L 1.857 5.714 C 1.382 5.714 1 6.082 1 6.54 L 1 12.317 C 1 12.775 1.382 13.143 1.857 13.143 L 2.714 13.143 L 2.714 15.2 C 2.714 15.643 3.067 16 3.506 16 L 6.275 16 L 7.462 14.286 L 8.253 14.286 L 9.44 16 L 12.209 16 C 12.647 16 13 15.643 13 15.2 L 13 13.143 L 13.857 13.143 C 14.332 13.143 14.714 12.775 14.714 12.317 L 14.714 6.54 C 14.714 6.082 14.332 5.714 13.857 5.714 L 13 5.714 L 12.973 5.714 C 12.99 5.543 12.999 5.372 13 5.2 C 13 2.328 10.697 0 7.857 0 L 7.857 0 Z M 7.857 1.714 C 9.751 1.714 11.286 3.183 11.286 4.994 C 11.285 5.085 11.28 5.441 11.271 5.714 L 4.444 5.714 C 4.435 5.441 4.43 5.085 4.428 4.994 C 4.428 3.183 5.964 1.714 7.857 1.714 L 7.857 1.714 Z M 6.428 3.143 C 5.955 3.143 5.571 3.527 5.572 4 C 5.571 4.473 5.955 4.857 6.428 4.857 C 6.656 4.857 6.874 4.767 7.035 4.606 C 7.195 4.445 7.286 4.227 7.286 4 C 7.286 3.773 7.195 3.555 7.035 3.394 C 6.874 3.233 6.656 3.143 6.428 3.143 L 6.428 3.143 Z M 9.286 3.143 C 9.058 3.143 8.84 3.233 8.68 3.394 C 8.519 3.555 8.428 3.773 8.428 4 C 8.428 4.227 8.519 4.445 8.68 4.606 C 8.84 4.767 9.058 4.857 9.286 4.857 C 9.513 4.857 9.731 4.767 9.892 4.606 C 10.053 4.445 10.143 4.227 10.143 4 C 10.143 3.773 10.053 3.555 9.892 3.394 C 9.731 3.233 9.513 3.143 9.286 3.143 L 9.286 3.143 Z M 7.866 7.707 C 8.35 7.707 8.742 8.099 8.742 8.583 L 8.742 8.933 L 9.034 8.933 C 9.146 8.918 9.241 9.038 9.262 9.16 C 9.266 9.178 9.267 9.196 9.267 9.213 L 9.267 10.196 L 9.267 10.784 C 9.267 10.923 9.163 11.034 9.034 11.034 L 6.699 11.034 C 6.57 11.034 6.465 10.923 6.465 10.784 L 6.465 10.205 L 6.465 9.213 C 6.465 9.074 6.57 8.933 6.699 8.933 L 6.991 8.933 L 6.991 8.583 C 6.991 8.099 7.383 7.707 7.866 7.707 L 7.866 7.707 Z M 7.866 8.057 C 7.594 8.057 7.371 8.264 7.344 8.529 C 7.342 8.547 7.341 8.565 7.341 8.583 L 7.341 8.933 L 8.376 8.933 C 8.377 8.932 8.392 8.926 8.392 8.926 L 8.392 8.583 C 8.392 8.293 8.156 8.057 7.866 8.057 L 7.866 8.057 Z"/>
</svg>
