<svg xmlns="http://www.w3.org/2000/svg" width="16" height="16" version="1.1">
 <defs>
   <style id="current-color-scheme" type="text/css">
   .ColorScheme-Text { color: #00cce5; } .ColorScheme-Highlight { color:#5294e2; }
  </style>
  <linearGradient id="arrongin" x1="0%" x2="0%" y1="0%" y2="100%">
   <stop offset="0%" style="stop-color:#dd9b44; stop-opacity:1"/>
   <stop offset="100%" style="stop-color:#ad6c16; stop-opacity:1"/>
  </linearGradient>
  <linearGradient id="aurora" x1="0%" x2="0%" y1="0%" y2="100%">
   <stop offset="0%" style="stop-color:#09D4DF; stop-opacity:1"/>
   <stop offset="100%" style="stop-color:#9269F4; stop-opacity:1"/>
  </linearGradient>
  <linearGradient id="cyberneon" x1="0%" x2="0%" y1="0%" y2="100%">
    <stop offset="0" style="stop-color:#0abdc6; stop-opacity:1"/>
    <stop offset="1" style="stop-color:#ea00d9; stop-opacity:1"/>
  </linearGradient>
  <linearGradient id="fitdance" x1="0%" x2="0%" y1="0%" y2="100%">
   <stop offset="0%" style="stop-color:#1AD6AB; stop-opacity:1"/>
   <stop offset="100%" style="stop-color:#329DB6; stop-opacity:1"/>
  </linearGradient>
  <linearGradient id="oomox" x1="0%" x2="0%" y1="0%" y2="100%">
   <stop offset="0%" style="stop-color:#9d72ff; stop-opacity:1"/>
   <stop offset="100%" style="stop-color:#005aa5; stop-opacity:1"/>
  </linearGradient>
  <linearGradient id="rainblue" x1="0%" x2="0%" y1="0%" y2="100%">
   <stop offset="0%" style="stop-color:#00F260; stop-opacity:1"/>
   <stop offset="100%" style="stop-color:#0575E6; stop-opacity:1"/>
  </linearGradient>
  <linearGradient id="sunrise" x1="0%" x2="0%" y1="0%" y2="100%">
   <stop offset="0%" style="stop-color: #FF8501; stop-opacity:1"/>
   <stop offset="100%" style="stop-color: #FFCB01; stop-opacity:1"/>
  </linearGradient>
  <linearGradient id="telinkrin" x1="0%" x2="0%" y1="0%" y2="100%">
   <stop offset="0%" style="stop-color: #b2ced6; stop-opacity:1"/>
   <stop offset="100%" style="stop-color: #6da5b7; stop-opacity:1"/>
  </linearGradient>
  <linearGradient id="60spsycho" x1="0%" x2="0%" y1="0%" y2="100%">
   <stop offset="0%" style="stop-color: #df5940; stop-opacity:1"/>
   <stop offset="25%" style="stop-color: #d8d15f; stop-opacity:1"/>
   <stop offset="50%" style="stop-color: #e9882a; stop-opacity:1"/>
   <stop offset="100%" style="stop-color: #279362; stop-opacity:1"/>
  </linearGradient>
  <linearGradient id="90ssummer" x1="0%" x2="0%" y1="0%" y2="100%">
   <stop offset="0%" style="stop-color: #f618c7; stop-opacity:1"/>
   <stop offset="20%" style="stop-color: #94ffab; stop-opacity:1"/>
   <stop offset="50%" style="stop-color: #fbfd54; stop-opacity:1"/>
   <stop offset="100%" style="stop-color: #0f83ae; stop-opacity:1"/>
  </linearGradient>
 </defs>
 <path fill="url(#oomox)" class="ColorScheme-Text" fill-rule="evenodd" d="M 2.512 9.206 C 1.004 9.206 1.004 8.45 1.004 8.202 C 1.004 7.953 1.004 7.197 2.512 7.197 C 4.019 7.197 4.019 7.953 4.019 8.202 C 4.019 8.45 4.019 9.206 2.512 9.206 L 2.512 9.206 Z M 9.935 7.075 C 9.692 7.788 9.349 8.462 8.915 9.077 C 8.776 9.279 8.649 9.471 8.527 9.698 C 10.798 9.424 12.484 9.206 12.484 9.206 C 15.085 8.717 16 6.193 16 6.193 L 9.935 7.075 L 9.935 7.075 Z M 5.023 8.202 C 5.023 6.944 4.083 6.193 2.512 6.193 C 0.938 6.193 0 6.944 0 8.202 C 0 9.828 1.336 10.47 4.048 10.211 C 4.353 10.182 4.613 10.127 5.001 10.085 C 5.11 9.615 5.231 9.106 5.357 8.582 C 5 8.62 5.023 8.37 5.023 8.202 L 5.023 8.202 Z M 6.707 8.716 C 6.885 8.716 7.049 8.811 7.138 8.966 C 7.227 9.12 7.227 9.31 7.137 9.464 C 7.048 9.618 6.884 9.713 6.706 9.713 C 6.43 9.712 6.208 9.489 6.208 9.214 C 6.208 8.939 6.432 8.716 6.707 8.716 L 6.707 8.716 L 6.707 8.716 Z M 8.195 13.443 C 8.018 14.939 7.268 14.849 7.021 14.821 C 6.774 14.792 6.023 14.703 6.201 13.206 C 6.378 11.71 7.129 11.8 7.376 11.828 C 7.622 11.857 8.373 11.946 8.195 13.443 L 8.195 13.443 Z M 7.494 10.83 C 7.316 10.809 7.029 10.695 7.167 10.283 C 7.705 8.674 8.483 8.797 9.176 6.508 L 10.783 0.166 C 10.783 0.166 8.169 0.777 7.376 3.302 C 7.376 3.302 5.921 9.093 5.385 11.56 C 4.807 14.222 5.287 15.626 6.902 15.817 C 8.151 15.966 9.008 15.122 9.194 13.561 C 9.378 11.999 8.743 10.978 7.494 10.83 L 7.494 10.83 Z"/>
</svg>
