<svg xmlns="http://www.w3.org/2000/svg" width="16" height="16" version="1.1">
 <defs>
   <style id="current-color-scheme" type="text/css">
   .ColorScheme-Text { color: #00cce5; } .ColorScheme-Highlight { color:#5294e2; }
  </style>
  <linearGradient id="arrongin" x1="0%" x2="0%" y1="0%" y2="100%">
   <stop offset="0%" style="stop-color:#dd9b44; stop-opacity:1"/>
   <stop offset="100%" style="stop-color:#ad6c16; stop-opacity:1"/>
  </linearGradient>
  <linearGradient id="aurora" x1="0%" x2="0%" y1="0%" y2="100%">
   <stop offset="0%" style="stop-color:#09D4DF; stop-opacity:1"/>
   <stop offset="100%" style="stop-color:#9269F4; stop-opacity:1"/>
  </linearGradient>
  <linearGradient id="cyberneon" x1="0%" x2="0%" y1="0%" y2="100%">
    <stop offset="0" style="stop-color:#0abdc6; stop-opacity:1"/>
    <stop offset="1" style="stop-color:#ea00d9; stop-opacity:1"/>
  </linearGradient>
  <linearGradient id="fitdance" x1="0%" x2="0%" y1="0%" y2="100%">
   <stop offset="0%" style="stop-color:#1AD6AB; stop-opacity:1"/>
   <stop offset="100%" style="stop-color:#329DB6; stop-opacity:1"/>
  </linearGradient>
  <linearGradient id="oomox" x1="0%" x2="0%" y1="0%" y2="100%">
   <stop offset="0%" style="stop-color:#9d72ff; stop-opacity:1"/>
   <stop offset="100%" style="stop-color:#005aa5; stop-opacity:1"/>
  </linearGradient>
  <linearGradient id="rainblue" x1="0%" x2="0%" y1="0%" y2="100%">
   <stop offset="0%" style="stop-color:#00F260; stop-opacity:1"/>
   <stop offset="100%" style="stop-color:#0575E6; stop-opacity:1"/>
  </linearGradient>
  <linearGradient id="sunrise" x1="0%" x2="0%" y1="0%" y2="100%">
   <stop offset="0%" style="stop-color: #FF8501; stop-opacity:1"/>
   <stop offset="100%" style="stop-color: #FFCB01; stop-opacity:1"/>
  </linearGradient>
  <linearGradient id="telinkrin" x1="0%" x2="0%" y1="0%" y2="100%">
   <stop offset="0%" style="stop-color: #b2ced6; stop-opacity:1"/>
   <stop offset="100%" style="stop-color: #6da5b7; stop-opacity:1"/>
  </linearGradient>
  <linearGradient id="60spsycho" x1="0%" x2="0%" y1="0%" y2="100%">
   <stop offset="0%" style="stop-color: #df5940; stop-opacity:1"/>
   <stop offset="25%" style="stop-color: #d8d15f; stop-opacity:1"/>
   <stop offset="50%" style="stop-color: #e9882a; stop-opacity:1"/>
   <stop offset="100%" style="stop-color: #279362; stop-opacity:1"/>
  </linearGradient>
  <linearGradient id="90ssummer" x1="0%" x2="0%" y1="0%" y2="100%">
   <stop offset="0%" style="stop-color: #f618c7; stop-opacity:1"/>
   <stop offset="20%" style="stop-color: #94ffab; stop-opacity:1"/>
   <stop offset="50%" style="stop-color: #fbfd54; stop-opacity:1"/>
   <stop offset="100%" style="stop-color: #0f83ae; stop-opacity:1"/>
  </linearGradient>
 </defs>
 <path fill="url(#oomox)" class="ColorScheme-Text" d="m 7.6472095,11.113062 c 1.7731525,0 3.2105715,-1.4303269 3.2105715,-3.2105712 0,0 0.02131,-0.3015818 -0.07099,-0.6421085 H 5.8562773 C 5.9893839,6.8885685 6.2281282,6.5549858 6.5523125,6.3323224 7.2981675,5.7434716 8.4277435,5.9575972 9.063081,6.6182659 H 10.58936 C 10.093723,5.484865 8.9633485,4.691919 7.6471795,4.691919 c -1.7731523,0 -3.2105709,1.4374189 -3.2105709,3.2105718 0,0 0,0.3299596 0.063858,0.6421085 H 9.433072 C 9.155513,9.246178 8.4927125,9.8147068 7.7224285,9.8213113 c -0.03854,0.00213 -0.07694,0.00213 -0.115369,0.00142 C 7.0907055,9.8122624 6.5896735,9.5674007 6.241306,9.1868944 H 4.7049992 c 0.4956496,1.1334016 1.6260242,1.9263476 2.9421833,1.9263476 z m 0.694291,4.886918 0.03578,-2.311101 C 10.767243,13.391007 12.707988,11.647244 13.296562,9.3604769 h -1.512088 c -0.620115,1.6506211 -2.262038,2.9379521 -4.0564435,2.9259441 -0.04349,0.0014 -0.08756,0.0021 -0.13099,0.0014 -0.651486,-0.0036 -1.2918633,-0.16563 -1.8723199,-0.455609 C 4.6791814,11.361587 3.9028541,10.431462 3.5234971,9.3604893 H 2.0000118 C 2.5885999,11.647263 4.5293403,13.391019 6.9193005,13.688885 V 16 Z M 13.29654,6.4445047 C 12.707967,4.1577316 10.76722,2.4139746 8.3772605,2.1161023 V 0 H 6.9192745 V 2.1161023 C 4.5293216,2.4139746 2.5885735,4.1577316 2,6.4445047 H 3.5021246 C 4.0915272,4.7057661 5.9132415,3.4553963 7.7550585,3.5199858 9.548314,3.5108958 11.175073,4.7919707 11.781609,6.4445047 Z"/>
</svg>
