<svg xmlns="http://www.w3.org/2000/svg" width="16" height="16" version="1.1">
 <defs>
   <style id="current-color-scheme" type="text/css">
   .ColorScheme-Text { color: #00cce5; } .ColorScheme-Highlight { color: #1AD6AB; }
  </style>
  <linearGradient id="arrongin" x1="0%" x2="0%" y1="0%" y2="100%">
   <stop offset="0%" style="stop-color: #dd9b44; stop-opacity: 1"/>
   <stop offset="100%" style="stop-color: #ad6c16; stop-opacity: 1"/>
  </linearGradient>
  <linearGradient id="aurora" x1="0%" x2="0%" y1="0%" y2="100%">
   <stop offset="0%" style="stop-color: #09D4DF; stop-opacity: 1"/>
   <stop offset="100%" style="stop-color: #9269F4; stop-opacity: 1"/>
  </linearGradient>
  <linearGradient id="cyberneon" x1="0%" x2="0%" y1="0%" y2="100%">
    <stop offset="0" style="stop-color: #0abdc6; stop-opacity: 1"/>
    <stop offset="1" style="stop-color: #ea00d9; stop-opacity: 1"/>
  </linearGradient>
  <linearGradient id="fitdance" x1="0%" x2="0%" y1="0%" y2="100%">
   <stop offset="0%" style="stop-color: #1AD6AB; stop-opacity: 1"/>
   <stop offset="100%" style="stop-color: #329DB6; stop-opacity: 1"/>
  </linearGradient>
  <linearGradient id="oomox" x1="0%" x2="0%" y1="0%" y2="100%">
   <stop offset="0%" style="stop-color: #005aa5; stop-opacity: 1"/>
   <stop offset="100%" style="stop-color: #8e59ff; stop-opacity: 1"/>
  </linearGradient>
  <linearGradient id="rainblue" x1="0%" x2="0%" y1="0%" y2="100%">
   <stop offset="0%" style="stop-color: #00F260; stop-opacity: 1"/>
   <stop offset="100%" style="stop-color: #0575E6; stop-opacity: 1"/>
  </linearGradient>
  <linearGradient id="sunrise" x1="0%" x2="0%" y1="0%" y2="100%">
   <stop offset="0%" style="stop-color: #FF8501; stop-opacity: 1"/>
   <stop offset="100%" style="stop-color: #FFCB01; stop-opacity: 1"/>
  </linearGradient>
  <linearGradient id="telinkrin" x1="0%" x2="0%" y1="0%" y2="100%">
   <stop offset="0%" style="stop-color: #b2ced6; stop-opacity: 1"/>
   <stop offset="100%" style="stop-color: #6da5b7; stop-opacity: 1"/>
  </linearGradient>
  <linearGradient id="60spsycho" x1="0%" x2="0%" y1="0%" y2="100%">
   <stop offset="0%" style="stop-color: #df5940; stop-opacity: 1"/>
   <stop offset="25%" style="stop-color: #d8d15f; stop-opacity: 1"/>
   <stop offset="50%" style="stop-color: #e9882a; stop-opacity: 1"/>
   <stop offset="100%" style="stop-color: #279362; stop-opacity: 1"/>
  </linearGradient>
  <linearGradient id="90ssummer" x1="0%" x2="0%" y1="0%" y2="100%">
   <stop offset="0%" style="stop-color: #f618c7; stop-opacity: 1"/>
   <stop offset="20%" style="stop-color: #94ffab; stop-opacity: 1"/>
   <stop offset="50%" style="stop-color: #fbfd54; stop-opacity: 1"/>
   <stop offset="100%" style="stop-color: #0f83ae; stop-opacity: 1"/>
  </linearGradient>
 </defs>
 <path fill="url(#oomox)" class="ColorScheme-Text" d="M 8,1 C 7.86,1 7.7226,1.0124 7.5844,1.0205 7.1723,2.1963 6.7532,3.877 6.3474,5.0259 6.9213,5.0473 7.8084,5.1334 8.2083,5.6514 8.3964,5.8954 8.3806,6.2771 8.2704,6.5742 7.7506,8.0307 7.2178,9.5553 6.7012,11.011 6.2448,11.018 5.7904,11.008 5.334,11.011 5.2701,11.01 5.2091,11.022 5.1477,10.998 5.7292,9.4005 6.2988,7.7158 6.8704,6.1127 6.5983,6.1088 6.3287,6.1178 6.0553,6.1127 6.0139,6.2004 5.9791,6.2981 5.9476,6.3896 5.4209,7.8671 4.8892,9.4092 4.365,10.889 4.34,10.926 4.3472,11.011 4.2881,11.011 3.852,11.013 3.4157,11.009 2.9808,11.011 2.9017,11.01 2.8264,11.019 2.75,10.996 3.7891,8.1178 4.8344,4.3109 5.8757,1.3285 3.0428,2.2239 1,4.8634 1,7.9996 1,11.219 3.1528,13.909 6.1013,14.733 7.2432,11.558 8.5591,8.2404 9.6695,5.1271 9.6809,5.1034 9.6896,5.0452 9.7001,5.0211 V 5.0194 C 10.432,5.0271 11.183,5.0335 11.915,5.0348 12.154,5.04 12.389,5.0081 12.623,5.0809 12.891,5.1537 13.14,5.3629 13.221,5.6364 13.282,5.85 13.236,6.0749 13.159,6.2806 12.693,7.6419 12.212,9.021 11.731,10.376 11.61,10.729 11.062,10.947 10.7,10.96 10.129,10.972 9.5619,10.964 8.9914,10.975 8.5171,12.296 7.8224,13.591 7.3079,14.966 7.5354,14.988 7.7664,15 8,15 11.878,15 15,11.878 15,8.0005 15,4.1223 11.878,1.0005 8,1.0005 Z M 6.1014,14.732 C 6.2962,14.787 6.493,14.836 6.6944,14.874 6.4939,14.835 6.2958,14.787 6.1014,14.732 Z M 5.8758,1.3281 C 6.1472,1.2423 6.4261,1.1742 6.7114,1.123 6.4267,1.1757 6.1471,1.2424 5.8758,1.3281 Z M 6.7114,1.123 C 6.9957,1.0721 7.286,1.0378 7.5809,1.0205 7.286,1.0378 6.9953,1.0706 6.7114,1.123 Z M 11.076,5.8784 C 11.053,5.8758 11.03,5.8749 11.007,5.8818 V 5.88 C 10.992,5.8839 10.973,5.8982 10.962,5.9108 10.463,7.3073 9.9696,8.7375 9.47,10.131 9.7448,10.132 10.026,10.149 10.3,10.131 10.784,8.7244 11.286,7.2843 11.776,5.8817 11.566,5.8765 11.358,5.8855 11.146,5.8817 11.124,5.8849 11.099,5.8808 11.076,5.8783 Z M 6.7487,14.883 C 6.9312,14.916 7.1151,14.947 7.3027,14.965 7.1148,14.947 6.9311,14.918 6.7487,14.883 Z"/>
</svg>
