<svg xmlns="http://www.w3.org/2000/svg" width="22" height="22" version="1.1">
 <defs>
   <style id="current-color-scheme" type="text/css">
   .ColorScheme-Text { color: #00cce5; } .ColorScheme-Highlight { color: #1AD6AB; }
  </style>
  <linearGradient id="arrongin" x1="0%" x2="0%" y1="0%" y2="100%">
   <stop offset="0%"    stop-color= "#dd9b44" stop-opacity="1"/>
   <stop offset="100%"  stop-color= "#ad6c16" stop-opacity="1"/>
  </linearGradient>
  <linearGradient id="aurora" x1="0%" x2="0%" y1="0%" y2="100%">
   <stop offset="0%"    stop-color= "#09D4DF" stop-opacity="1"/>
   <stop offset="100%"  stop-color= "#9269F4" stop-opacity="1"/>
  </linearGradient> 
  <linearGradient id="cyberblue" x1="0%" x2="0%" y1="0%" y2="100%">
   <stop offset="0%"    stop-color= "#07B3FF" stop-opacity="1"/>
   <stop offset="100%"  stop-color= "#007DE8" stop-opacity="1"/>
  </linearGradient>
  <linearGradient id="cyberneon" x1="0%" x2="0%" y1="0%" y2="100%">
    <stop offset="0%"   stop-color= "#0abdc6" stop-opacity="1"/>
    <stop offset="100%" stop-color= "#ea00d9" stop-opacity="1"/>
  </linearGradient>
  <linearGradient id="fitdance" x1="0%" x2="0%" y1="0%" y2="100%">
   <stop offset="0%"    stop-color= "#1AD6AB" stop-opacity="1"/>
   <stop offset="100%"  stop-color= "#329DB6" stop-opacity="1"/>
  </linearGradient>
  <linearGradient id="oomox" x1="0%" x2="0%" y1="0%" y2="100%">
   <stop offset="0%"    stop-color= "#9d72ff" stop-opacity="1"/>
   <stop offset="100%"  stop-color= "#005aa5" stop-opacity="1"/>
  </linearGradient>
  <linearGradient id="rainblue" x1="0%" x2="0%" y1="0%" y2="100%">
   <stop offset="0%"    stop-color= "#00F260" stop-opacity="1"/>
   <stop offset="100%"  stop-color= "#0575E6" stop-opacity="1"/>
  </linearGradient>
  <linearGradient id="redcarbon" x1="0%" x2="0%" y1="0%" y2="100%">
   <stop offset="0%"    stop-color= "#FF6D57" stop-opacity="1"/>
   <stop offset="50%"   stop-color= "#FF5160" stop-opacity="1"/>
   <stop offset="100%"  stop-color= "#F50F22" stop-opacity="1"/>
  </linearGradient>
  <linearGradient id="sunrise" x1="0%" x2="0%" y1="0%" y2="100%">
   <stop offset="0%"    stop-color= "#FF8501" stop-opacity="1"/>
   <stop offset="100%"  stop-color= "#FFCB01" stop-opacity="1"/>
  </linearGradient>
  <linearGradient id="telinkrin" x1="0%" x2="0%" y1="0%" y2="100%">
   <stop offset="0%"    stop-color= "#b2ced6" stop-opacity="1"/>
   <stop offset="100%"  stop-color= "#6da5b7" stop-opacity="1"/>
  </linearGradient>
  <linearGradient id="60spsycho" x1="0%" x2="0%" y1="0%" y2="100%">
   <stop offset="0%"    stop-color= "#df5940" stop-opacity="1"/>
   <stop offset="25%"   stop-color= "#d8d15f" stop-opacity="1"/>
   <stop offset="50%"   stop-color= "#e9882a" stop-opacity="1"/>
   <stop offset="100%"  stop-color= "#279362" stop-opacity="1"/>
  </linearGradient>
  <linearGradient id="90ssummer" x1="0%" x2="0%" y1="0%" y2="100%">
   <stop offset="0%"    stop-color= "#f618c7" stop-opacity="1"/>
   <stop offset="20%"   stop-color= "#94ffab" stop-opacity="1"/>
   <stop offset="50%"   stop-color= "#fbfd54" stop-opacity="1"/>
   <stop offset="100%"  stop-color= "#0f83ae" stop-opacity="1"/>
  </linearGradient>
 </defs>
 <path fill="url(#oomox)" class="ColorScheme-Text" d="m 7.0411047,2.9998864 c -0.156583,-0.00115 -0.3184733,0.019308 -0.4882812,0.060547 -1.0559102,0.2564375 -1.5487418,1.3389415 -1.5527344,3.4121093 -0.00124,0.6429238 0.00975,0.8181628 0.078125,1.1855468 0.2804588,1.506875 0.7550596,2.8590886 1.1757812,3.3515626 0.088656,0.103776 0.1823723,0.189453 0.2070313,0.189453 0.024662,0 0.4905378,-0.111532 1.0351563,-0.248047 0.5446185,-0.136515 1.1117121,-0.277065 1.2617187,-0.3125 0.1629501,-0.03849 0.3065309,-0.09585 0.3554687,-0.142578 0.1449759,-0.13843 0.3128468,-0.7879856 0.4218748,-1.6328126 0.06902,-0.534799 0.07954,-1.747678 0.01953,-2.1738279 C 9.3609399,5.3128887 8.9211908,4.2183926 8.3125891,3.5955895 7.9256703,3.1996408 7.5108538,3.0033368 7.0411047,2.9998864 Z m 6.8496093,4.001953 c -0.369169,0.01257 -0.424755,0.02519 -0.630859,0.128906 -0.655125,0.329675 -1.150755,1.030737 -1.492188,2.113282 -0.364223,1.1547906 -0.450914,2.2242066 -0.294922,3.6015616 0.08663,0.764879 0.2616,1.461191 0.408203,1.617188 0.05848,0.06222 0.307388,0.137064 1.169922,0.351562 0.602241,0.149767 1.173942,0.294806 1.269531,0.322266 0.09559,0.02746 0.178947,0.05093 0.185547,0.05273 0.05027,0.01345 0.237397,-0.185454 0.373047,-0.396484 0.519879,-0.808766 1.062665,-2.786592 1.115235,-4.058594 0.02084,-0.50439 -0.02558,-1.2335046 -0.111329,-1.7402296 -0.145283,-0.858507 -0.528258,-1.539692 -1.007812,-1.791016 -0.326325,-0.171016 -0.541641,-0.2162499 -0.984375,-0.201172 z M 9.216886,11.119027 8.8340735,11.24598 c -0.2104221,0.06987 -0.7682359,0.242949 -1.2382813,0.384765 -0.4700444,0.141817 -0.8728615,0.277481 -0.8964843,0.300782 -0.087426,0.08621 0.1065712,1.117181 0.3085937,1.638671 0.2653231,0.684894 0.7442689,1.228607 1.2246094,1.388672 0.089078,0.02969 0.2670051,0.04602 0.4453125,0.04102 0.2443734,-0.0068 0.3310854,-0.02784 0.4960937,-0.111328 C 9.8924001,14.525056 10.182687,13.537181 9.8829021,12.474495 9.7803501,12.110967 9.4640192,11.42405 9.3145422,11.24012 Z m 2.578125,4.007812 c -0.08246,0.0063 -0.136281,0.099 -0.308594,0.425781 -0.323938,0.614325 -0.486328,1.193719 -0.486328,1.734375 0,0.827087 0.416324,1.49377 1.041016,1.667969 0.81939,0.228491 1.626297,-0.423687 2.021484,-1.632812 0.143495,-0.439043 0.296371,-1.316887 0.244141,-1.404297 -0.01831,-0.03064 -1.484804,-0.500256 -2.414063,-0.773438 -0.03931,-0.01156 -0.07017,-0.01968 -0.09766,-0.01758 z"/>
</svg>
