<svg xmlns="http://www.w3.org/2000/svg" width="16" height="16" version="1.1">
 <defs>
   <style id="current-color-scheme" type="text/css">
   .ColorScheme-Text { color: #00cce5; } .ColorScheme-Highlight { color:#5294e2; }
  </style>
  <linearGradient id="arrongin" x1="0%" x2="0%" y1="0%" y2="100%">
   <stop offset="0%" style="stop-color:#dd9b44; stop-opacity:1"/>
   <stop offset="100%" style="stop-color:#ad6c16; stop-opacity:1"/>
  </linearGradient>
  <linearGradient id="aurora" x1="0%" x2="0%" y1="0%" y2="100%">
   <stop offset="0%" style="stop-color:#09D4DF; stop-opacity:1"/>
   <stop offset="100%" style="stop-color:#9269F4; stop-opacity:1"/>
  </linearGradient>
  <linearGradient id="cyberneon" x1="0%" x2="0%" y1="0%" y2="100%">
    <stop offset="0" style="stop-color:#0abdc6; stop-opacity:1"/>
    <stop offset="1" style="stop-color:#ea00d9; stop-opacity:1"/>
  </linearGradient>
  <linearGradient id="fitdance" x1="0%" x2="0%" y1="0%" y2="100%">
   <stop offset="0%" style="stop-color:#1AD6AB; stop-opacity:1"/>
   <stop offset="100%" style="stop-color:#329DB6; stop-opacity:1"/>
  </linearGradient>
  <linearGradient id="oomox" x1="0%" x2="0%" y1="0%" y2="100%">
   <stop offset="0%" style="stop-color:#9d72ff; stop-opacity:1"/>
   <stop offset="100%" style="stop-color:#005aa5; stop-opacity:1"/>
  </linearGradient>
  <linearGradient id="rainblue" x1="0%" x2="0%" y1="0%" y2="100%">
   <stop offset="0%" style="stop-color:#00F260; stop-opacity:1"/>
   <stop offset="100%" style="stop-color:#0575E6; stop-opacity:1"/>
  </linearGradient>
  <linearGradient id="sunrise" x1="0%" x2="0%" y1="0%" y2="100%">
   <stop offset="0%" style="stop-color: #FF8501; stop-opacity:1"/>
   <stop offset="100%" style="stop-color: #FFCB01; stop-opacity:1"/>
  </linearGradient>
  <linearGradient id="telinkrin" x1="0%" x2="0%" y1="0%" y2="100%">
   <stop offset="0%" style="stop-color: #b2ced6; stop-opacity:1"/>
   <stop offset="100%" style="stop-color: #6da5b7; stop-opacity:1"/>
  </linearGradient>
  <linearGradient id="60spsycho" x1="0%" x2="0%" y1="0%" y2="100%">
   <stop offset="0%" style="stop-color: #df5940; stop-opacity:1"/>
   <stop offset="25%" style="stop-color: #d8d15f; stop-opacity:1"/>
   <stop offset="50%" style="stop-color: #e9882a; stop-opacity:1"/>
   <stop offset="100%" style="stop-color: #279362; stop-opacity:1"/>
  </linearGradient>
  <linearGradient id="90ssummer" x1="0%" x2="0%" y1="0%" y2="100%">
   <stop offset="0%" style="stop-color: #f618c7; stop-opacity:1"/>
   <stop offset="20%" style="stop-color: #94ffab; stop-opacity:1"/>
   <stop offset="50%" style="stop-color: #fbfd54; stop-opacity:1"/>
   <stop offset="100%" style="stop-color: #0f83ae; stop-opacity:1"/>
  </linearGradient>
 </defs>
 <path fill="url(#oomox)" class="ColorScheme-Text" fill-rule="evenodd" d="M 8.552 11.317 L 9.916 11.317 C 9.952 11.317 9.987 11.317 10.023 11.32 C 10.087 11.326 10.15 11.328 10.217 11.326 C 10.432 11.328 10.65 11.312 10.865 11.281 C 11.094 11.251 11.321 11.188 11.536 11.097 C 11.641 11.055 11.732 10.989 11.806 10.903 C 11.818 10.884 11.829 10.865 11.837 10.843 C 11.856 10.774 11.867 10.702 11.864 10.63 C 11.867 10.47 11.848 10.313 11.809 10.161 C 11.784 10.078 11.751 10.001 11.707 9.929 C 11.622 9.799 11.503 9.697 11.362 9.625 C 11.161 9.523 10.942 9.454 10.716 9.418 C 10.523 9.382 10.327 9.366 10.131 9.366 C 10.095 9.366 10.059 9.369 10.023 9.371 C 9.99 9.371 9.957 9.374 9.927 9.374 L 8.552 9.385 L 8.552 11.317 Z M 7.172 11.317 L 4.177 11.317 C 3.774 11.317 3.387 11.477 3.103 11.762 C 2.819 12.046 2.659 12.433 2.659 12.836 C 2.659 13.239 2.819 13.625 3.103 13.909 C 3.387 14.194 3.774 14.354 4.177 14.354 L 7.172 14.354 L 7.172 15.311 C 7.172 15.691 7.481 16 7.862 16 C 8.243 16 8.552 15.691 8.552 15.311 L 8.552 14.354 L 9.869 14.354 C 9.987 14.362 10.109 14.365 10.228 14.362 C 10.581 14.362 10.934 14.337 11.282 14.288 C 11.771 14.221 12.251 14.092 12.706 13.898 C 13.294 13.655 13.81 13.263 14.205 12.764 C 14.437 12.463 14.611 12.126 14.727 11.767 C 14.846 11.4 14.904 11.014 14.901 10.627 C 14.904 10.205 14.851 9.783 14.741 9.374 C 14.636 8.988 14.473 8.618 14.258 8.281 C 13.879 7.699 13.352 7.229 12.731 6.915 C 12.256 6.675 11.746 6.509 11.219 6.423 C 10.865 6.363 10.506 6.332 10.145 6.329 C 10.051 6.329 9.957 6.332 9.863 6.338 L 8.552 6.346 L 8.552 4.417 L 11.726 4.417 C 12.129 4.417 12.516 4.256 12.8 3.972 C 13.084 3.688 13.245 3.301 13.245 2.898 C 13.245 2.495 13.084 2.109 12.8 1.825 C 12.516 1.54 12.129 1.38 11.726 1.38 L 8.552 1.38 L 8.552 0.699 C 8.555 0.513 8.482 0.333 8.35 0.202 C 8.218 0.07 8.038 -0.003 7.852 0 L 7.852 0 C 7.471 0.006 7.166 0.319 7.172 0.699 L 7.172 1.38 L 6.115 1.38 C 6.054 1.377 5.996 1.377 5.935 1.377 C 5.601 1.377 5.267 1.402 4.936 1.452 C 4.423 1.521 3.917 1.662 3.44 1.863 C 3.147 1.99 2.869 2.148 2.609 2.335 C 2.317 2.545 2.057 2.799 1.839 3.083 C 1.596 3.401 1.411 3.76 1.287 4.141 C 1.16 4.541 1.096 4.96 1.099 5.383 C 1.096 5.808 1.16 6.23 1.29 6.633 C 1.414 7.017 1.604 7.376 1.847 7.696 C 2.071 7.983 2.33 8.234 2.626 8.447 C 2.885 8.632 3.167 8.789 3.459 8.916 C 3.939 9.117 4.445 9.255 4.961 9.327 C 5.289 9.374 5.621 9.399 5.952 9.399 C 6.007 9.399 6.062 9.399 6.117 9.396 L 7.172 9.39 L 7.172 11.317 Z M 6.073 6.36 C 6.057 6.36 6.037 6.36 6.018 6.363 C 6.002 6.363 5.982 6.363 5.966 6.363 C 5.77 6.363 5.576 6.349 5.383 6.318 C 5.129 6.285 4.884 6.219 4.649 6.12 C 4.558 6.081 4.472 6.034 4.395 5.976 C 4.343 5.94 4.296 5.896 4.254 5.844 C 4.224 5.802 4.196 5.753 4.18 5.703 C 4.149 5.598 4.133 5.49 4.135 5.383 C 4.133 5.275 4.147 5.167 4.18 5.065 C 4.196 5.016 4.221 4.969 4.252 4.927 C 4.29 4.878 4.337 4.833 4.387 4.797 C 4.464 4.74 4.547 4.693 4.635 4.657 C 4.867 4.557 5.11 4.491 5.361 4.458 C 5.557 4.428 5.753 4.414 5.949 4.414 C 5.971 4.414 5.993 4.414 6.013 4.414 C 6.037 4.417 6.059 4.417 6.084 4.417 L 7.172 4.417 L 7.172 6.349 L 6.073 6.36 Z"/>
</svg>
