<svg xmlns="http://www.w3.org/2000/svg" width="16" height="16" version="1.1">
 <defs>
   <style id="current-color-scheme" type="text/css">
   .ColorScheme-Text { color: #00cce5; } .ColorScheme-Highlight { color:#5294e2; }
  </style>
  <linearGradient id="arrongin" x1="0%" x2="0%" y1="0%" y2="100%">
   <stop offset="0%" style="stop-color:#dd9b44; stop-opacity:1"/>
   <stop offset="100%" style="stop-color:#ad6c16; stop-opacity:1"/>
  </linearGradient>
  <linearGradient id="aurora" x1="0%" x2="0%" y1="0%" y2="100%">
   <stop offset="0%" style="stop-color:#09D4DF; stop-opacity:1"/>
   <stop offset="100%" style="stop-color:#9269F4; stop-opacity:1"/>
  </linearGradient>
  <linearGradient id="cyberneon" x1="0%" x2="0%" y1="0%" y2="100%">
    <stop offset="0" style="stop-color:#0abdc6; stop-opacity:1"/>
    <stop offset="1" style="stop-color:#ea00d9; stop-opacity:1"/>
  </linearGradient>
  <linearGradient id="fitdance" x1="0%" x2="0%" y1="0%" y2="100%">
   <stop offset="0%" style="stop-color:#1AD6AB; stop-opacity:1"/>
   <stop offset="100%" style="stop-color:#329DB6; stop-opacity:1"/>
  </linearGradient>
  <linearGradient id="oomox" x1="0%" x2="0%" y1="0%" y2="100%">
   <stop offset="0%" style="stop-color:#9d72ff; stop-opacity:1"/>
   <stop offset="100%" style="stop-color:#005aa5; stop-opacity:1"/>
  </linearGradient>
  <linearGradient id="rainblue" x1="0%" x2="0%" y1="0%" y2="100%">
   <stop offset="0%" style="stop-color:#00F260; stop-opacity:1"/>
   <stop offset="100%" style="stop-color:#0575E6; stop-opacity:1"/>
  </linearGradient>
  <linearGradient id="sunrise" x1="0%" x2="0%" y1="0%" y2="100%">
   <stop offset="0%" style="stop-color: #FF8501; stop-opacity:1"/>
   <stop offset="100%" style="stop-color: #FFCB01; stop-opacity:1"/>
  </linearGradient>
  <linearGradient id="telinkrin" x1="0%" x2="0%" y1="0%" y2="100%">
   <stop offset="0%" style="stop-color: #b2ced6; stop-opacity:1"/>
   <stop offset="100%" style="stop-color: #6da5b7; stop-opacity:1"/>
  </linearGradient>
  <linearGradient id="60spsycho" x1="0%" x2="0%" y1="0%" y2="100%">
   <stop offset="0%" style="stop-color: #df5940; stop-opacity:1"/>
   <stop offset="25%" style="stop-color: #d8d15f; stop-opacity:1"/>
   <stop offset="50%" style="stop-color: #e9882a; stop-opacity:1"/>
   <stop offset="100%" style="stop-color: #279362; stop-opacity:1"/>
  </linearGradient>
  <linearGradient id="90ssummer" x1="0%" x2="0%" y1="0%" y2="100%">
   <stop offset="0%" style="stop-color: #f618c7; stop-opacity:1"/>
   <stop offset="20%" style="stop-color: #94ffab; stop-opacity:1"/>
   <stop offset="50%" style="stop-color: #fbfd54; stop-opacity:1"/>
   <stop offset="100%" style="stop-color: #0f83ae; stop-opacity:1"/>
  </linearGradient>
 </defs>
 <path fill="url(#oomox)" class="ColorScheme-Text" fill-rule="evenodd" d="M 1.607 0.111 L 0.795 0.924 L 1.201 1.326 L 2.009 2.134 L 2.41 2.54 L 3.223 1.729 L 2.817 1.326 L 2.009 0.518 L 1.607 0.111 L 1.607 0.111 Z M 14.393 0.111 L 13.991 0.518 L 12.782 1.727 L 13.59 2.54 L 13.991 2.134 L 15.201 0.924 L 14.393 0.111 L 14.393 0.111 Z M 8 2.174 C 9.902 2.174 11.429 3.701 11.429 5.603 C 11.429 6.879 10.977 7.397 10.393 8.193 C 9.888 8.893 9.387 9.879 9.25 11.317 L 6.75 11.317 C 6.613 9.879 6.112 8.893 5.607 8.193 C 5.023 7.397 4.571 6.879 4.571 5.603 C 4.571 3.701 6.098 2.174 8 2.174 L 8 2.174 Z M 0 5.603 L 0 6.746 L 2.286 6.746 L 2.286 5.603 L 0 5.603 L 0 5.603 Z M 13.714 5.603 L 13.714 6.746 L 16 6.746 L 16 5.603 L 13.714 5.603 L 13.714 5.603 Z M 2.411 9.809 L 2.009 10.214 L 1.201 11.022 L 0.794 11.425 L 1.607 12.233 L 2.817 11.022 L 3.223 10.621 L 2.411 9.809 L 2.411 9.809 Z M 13.589 9.809 L 12.782 10.62 L 14.393 12.231 L 15.201 11.425 L 13.991 10.214 L 13.589 9.809 L 13.589 9.809 Z M 6.857 12.46 L 9.143 12.46 L 9.143 13.031 C 9.143 13.353 8.893 13.603 8.571 13.603 L 7.429 13.603 C 7.276 13.605 7.13 13.545 7.022 13.438 C 6.915 13.33 6.855 13.184 6.857 13.031 L 6.857 12.46 L 6.857 12.46 Z M 8 1.031 C 5.482 1.031 3.429 3.085 3.429 5.603 C 3.429 7.183 4.12 8.094 4.679 8.871 C 5.241 9.643 5.714 10.3 5.714 11.889 L 5.714 13.031 C 5.72 13.757 6.181 14.4 6.866 14.638 C 6.861 14.674 6.858 14.71 6.857 14.746 C 6.857 15.374 7.371 15.889 8 15.889 C 8.629 15.889 9.143 15.374 9.143 14.746 C 9.143 14.71 9.143 14.674 9.138 14.638 C 9.822 14.399 10.281 13.756 10.286 13.031 L 10.286 11.889 C 10.286 10.3 10.759 9.643 11.321 8.871 C 11.88 8.094 12.571 7.182 12.571 5.603 C 12.571 3.085 10.518 1.031 8 1.031 L 8 1.031 Z M 8.275 3.406 L 6.277 6.603 L 7.475 6.603 L 7.475 9 L 9.473 5.804 L 8.275 5.804 L 8.275 3.406 Z"/>
</svg>
