<svg xmlns="http://www.w3.org/2000/svg" width="16" height="16" version="1.1">
 <defs>
   <style id="current-color-scheme" type="text/css">
   .ColorScheme-Text { color: #00cce5; } .ColorScheme-Highlight { color:#5294e2; }
  </style>
  <linearGradient id="arrongin" x1="0%" x2="0%" y1="0%" y2="100%">
   <stop offset="0%" style="stop-color:#dd9b44; stop-opacity:1"/>
   <stop offset="100%" style="stop-color:#ad6c16; stop-opacity:1"/>
  </linearGradient>
  <linearGradient id="aurora" x1="0%" x2="0%" y1="0%" y2="100%">
   <stop offset="0%" style="stop-color:#09D4DF; stop-opacity:1"/>
   <stop offset="100%" style="stop-color:#9269F4; stop-opacity:1"/>
  </linearGradient>
  <linearGradient id="cyberneon" x1="0%" x2="0%" y1="0%" y2="100%">
    <stop offset="0" style="stop-color:#0abdc6; stop-opacity:1"/>
    <stop offset="1" style="stop-color:#ea00d9; stop-opacity:1"/>
  </linearGradient>
  <linearGradient id="fitdance" x1="0%" x2="0%" y1="0%" y2="100%">
   <stop offset="0%" style="stop-color:#1AD6AB; stop-opacity:1"/>
   <stop offset="100%" style="stop-color:#329DB6; stop-opacity:1"/>
  </linearGradient>
  <linearGradient id="oomox" x1="0%" x2="0%" y1="0%" y2="100%">
   <stop offset="0%" style="stop-color:#9d72ff; stop-opacity:1"/>
   <stop offset="100%" style="stop-color:#005aa5; stop-opacity:1"/>
  </linearGradient>
  <linearGradient id="rainblue" x1="0%" x2="0%" y1="0%" y2="100%">
   <stop offset="0%" style="stop-color:#00F260; stop-opacity:1"/>
   <stop offset="100%" style="stop-color:#0575E6; stop-opacity:1"/>
  </linearGradient>
  <linearGradient id="sunrise" x1="0%" x2="0%" y1="0%" y2="100%">
   <stop offset="0%" style="stop-color: #FF8501; stop-opacity:1"/>
   <stop offset="100%" style="stop-color: #FFCB01; stop-opacity:1"/>
  </linearGradient>
  <linearGradient id="telinkrin" x1="0%" x2="0%" y1="0%" y2="100%">
   <stop offset="0%" style="stop-color: #b2ced6; stop-opacity:1"/>
   <stop offset="100%" style="stop-color: #6da5b7; stop-opacity:1"/>
  </linearGradient>
  <linearGradient id="60spsycho" x1="0%" x2="0%" y1="0%" y2="100%">
   <stop offset="0%" style="stop-color: #df5940; stop-opacity:1"/>
   <stop offset="25%" style="stop-color: #d8d15f; stop-opacity:1"/>
   <stop offset="50%" style="stop-color: #e9882a; stop-opacity:1"/>
   <stop offset="100%" style="stop-color: #279362; stop-opacity:1"/>
  </linearGradient>
  <linearGradient id="90ssummer" x1="0%" x2="0%" y1="0%" y2="100%">
   <stop offset="0%" style="stop-color: #f618c7; stop-opacity:1"/>
   <stop offset="20%" style="stop-color: #94ffab; stop-opacity:1"/>
   <stop offset="50%" style="stop-color: #fbfd54; stop-opacity:1"/>
   <stop offset="100%" style="stop-color: #0f83ae; stop-opacity:1"/>
  </linearGradient>
 </defs>
 <path fill="url(#oomox)" class="ColorScheme-Text" d="M 10.055 0 C 10.055 0 9.736 0.223 9.362 0.569 C 9.097 0.817 8.846 1.212 8.62 1.608 C 7.95 1.898 6.901 2.334 5.974 3.339 C 5.044 4.344 4.308 5.904 4.095 8.235 C 3.869 8.136 3.624 8.086 3.377 8.087 C 2.218 8.087 0.484 8.677 0.484 11.549 C 0.484 14.006 2.568 16 4.837 16 C 6.961 16 9.189 14.006 9.189 11.549 C 9.189 8.659 7.062 8.087 6.296 8.087 C 6.055 8.087 5.854 8.142 5.678 8.21 C 5.881 6.254 6.472 5.119 7.136 4.402 C 7.421 4.096 7.724 3.877 8.027 3.684 C 7.853 6.275 9 8.325 9.609 9.546 C 9.841 10.084 9.98 10.745 9.98 11.549 C 9.98 12.866 9.465 14.037 8.67 14.936 C 9.869 16.025 11.622 16.353 13.245 15.555 C 15.084 14.652 16.131 12.071 15.124 10.016 C 13.937 7.602 11.897 8.012 11.242 8.334 C 11.096 8.405 10.973 8.492 10.871 8.581 C 10.104 7.042 9.112 5.052 9.857 2.473 C 9.897 2.337 10.147 1.988 10.426 1.731 C 10.704 1.475 10.945 1.311 10.945 1.311 L 10.055 0 Z M 10.772 2.597 C 10.772 2.597 10.005 4.139 10.822 5.861 C 11.684 6.65 13.133 6.556 13.937 6.331 C 13.937 6.331 13.616 4.572 12.651 3.759 C 11.644 2.912 10.772 2.597 10.772 2.597 Z"/>
</svg>
