<svg xmlns="http://www.w3.org/2000/svg" width="16" height="16" version="1.1">
 <defs>
   <style id="current-color-scheme" type="text/css">
   .ColorScheme-Text { color: #00cce5; } .ColorScheme-Highlight { color:#5294e2; }
  </style>
  <linearGradient id="arrongin" x1="0%" x2="0%" y1="0%" y2="100%">
   <stop offset="0%" style="stop-color:#dd9b44; stop-opacity:1"/>
   <stop offset="100%" style="stop-color:#ad6c16; stop-opacity:1"/>
  </linearGradient>
  <linearGradient id="aurora" x1="0%" x2="0%" y1="0%" y2="100%">
   <stop offset="0%" style="stop-color:#09D4DF; stop-opacity:1"/>
   <stop offset="100%" style="stop-color:#9269F4; stop-opacity:1"/>
  </linearGradient>
  <linearGradient id="cyberneon" x1="0%" x2="0%" y1="0%" y2="100%">
    <stop offset="0" style="stop-color:#0abdc6; stop-opacity:1"/>
    <stop offset="1" style="stop-color:#ea00d9; stop-opacity:1"/>
  </linearGradient>
  <linearGradient id="fitdance" x1="0%" x2="0%" y1="0%" y2="100%">
   <stop offset="0%" style="stop-color:#1AD6AB; stop-opacity:1"/>
   <stop offset="100%" style="stop-color:#329DB6; stop-opacity:1"/>
  </linearGradient>
  <linearGradient id="oomox" x1="0%" x2="0%" y1="0%" y2="100%">
   <stop offset="0%" style="stop-color:#9d72ff; stop-opacity:1"/>
   <stop offset="100%" style="stop-color:#005aa5; stop-opacity:1"/>
  </linearGradient>
  <linearGradient id="rainblue" x1="0%" x2="0%" y1="0%" y2="100%">
   <stop offset="0%" style="stop-color:#00F260; stop-opacity:1"/>
   <stop offset="100%" style="stop-color:#0575E6; stop-opacity:1"/>
  </linearGradient>
  <linearGradient id="sunrise" x1="0%" x2="0%" y1="0%" y2="100%">
   <stop offset="0%" style="stop-color: #FF8501; stop-opacity:1"/>
   <stop offset="100%" style="stop-color: #FFCB01; stop-opacity:1"/>
  </linearGradient>
  <linearGradient id="telinkrin" x1="0%" x2="0%" y1="0%" y2="100%">
   <stop offset="0%" style="stop-color: #b2ced6; stop-opacity:1"/>
   <stop offset="100%" style="stop-color: #6da5b7; stop-opacity:1"/>
  </linearGradient>
  <linearGradient id="60spsycho" x1="0%" x2="0%" y1="0%" y2="100%">
   <stop offset="0%" style="stop-color: #df5940; stop-opacity:1"/>
   <stop offset="25%" style="stop-color: #d8d15f; stop-opacity:1"/>
   <stop offset="50%" style="stop-color: #e9882a; stop-opacity:1"/>
   <stop offset="100%" style="stop-color: #279362; stop-opacity:1"/>
  </linearGradient>
  <linearGradient id="90ssummer" x1="0%" x2="0%" y1="0%" y2="100%">
   <stop offset="0%" style="stop-color: #f618c7; stop-opacity:1"/>
   <stop offset="20%" style="stop-color: #94ffab; stop-opacity:1"/>
   <stop offset="50%" style="stop-color: #fbfd54; stop-opacity:1"/>
   <stop offset="100%" style="stop-color: #0f83ae; stop-opacity:1"/>
  </linearGradient>
 </defs>
 <path fill="url(#oomox)" class="ColorScheme-Text" fill-rule="evenodd" d="M 5.714 0 C 5.457 0.003 5.201 0.017 4.945 0.045 C 9.019 0.47 12.114 3.904 12.114 8 C 12.11 12.118 8.982 15.56 4.883 15.955 C 5.159 15.985 5.437 16 5.714 16 C 10.133 16 13.714 12.418 13.714 8 C 13.714 3.582 10.133 0 5.714 0 L 5.714 0 Z M 5.733 3.429 C 5.472 3.429 5.213 3.451 4.956 3.495 C 7.161 3.86 8.778 5.765 8.78 8 C 8.781 10.225 7.179 12.127 4.986 12.505 C 5.233 12.548 5.483 12.57 5.733 12.571 C 8.257 12.571 10.304 10.525 10.304 8 C 10.304 5.475 8.257 3.429 5.733 3.429 L 5.733 3.429 L 5.733 3.429 Z M 3.948 9.328 C 3.948 9.257 3.958 9.197 3.979 9.148 C 3.999 9.098 4.028 9.059 4.064 9.029 C 4.1 8.998 4.143 8.976 4.192 8.963 C 4.241 8.949 4.294 8.942 4.35 8.942 C 4.403 8.942 4.453 8.949 4.501 8.963 C 4.549 8.976 4.591 8.998 4.627 9.029 C 4.663 9.059 4.692 9.098 4.713 9.148 C 4.734 9.197 4.745 9.257 4.745 9.328 C 4.745 9.396 4.734 9.455 4.713 9.503 C 4.692 9.551 4.663 9.592 4.627 9.624 C 4.591 9.655 4.549 9.678 4.501 9.693 C 4.453 9.707 4.403 9.714 4.35 9.714 C 4.294 9.714 4.241 9.707 4.192 9.693 C 4.143 9.678 4.1 9.655 4.064 9.624 C 4.028 9.592 3.999 9.551 3.979 9.503 C 3.959 9.455 3.948 9.397 3.948 9.328 L 3.948 9.328 L 3.948 9.328 L 3.948 9.328 L 3.948 9.328 Z M 4.023 8.571 L 4.023 8.384 C 4.023 8.307 4.031 8.237 4.047 8.174 C 4.063 8.111 4.087 8.051 4.12 7.994 C 4.152 7.938 4.194 7.882 4.246 7.829 C 4.297 7.775 4.359 7.719 4.432 7.662 C 4.496 7.612 4.549 7.567 4.593 7.528 C 4.637 7.488 4.672 7.449 4.7 7.411 C 4.727 7.372 4.747 7.332 4.759 7.289 C 4.771 7.247 4.777 7.198 4.777 7.142 C 4.777 7.056 4.748 6.984 4.689 6.928 C 4.631 6.872 4.542 6.844 4.423 6.844 C 4.318 6.844 4.206 6.866 4.085 6.91 C 3.965 6.954 3.841 7.008 3.712 7.071 L 3.481 6.57 C 3.545 6.532 3.616 6.496 3.693 6.462 C 3.769 6.428 3.849 6.397 3.931 6.371 C 4.014 6.344 4.097 6.324 4.182 6.308 C 4.267 6.293 4.35 6.286 4.432 6.286 C 4.586 6.286 4.725 6.304 4.849 6.341 C 4.974 6.378 5.079 6.433 5.165 6.504 C 5.252 6.575 5.318 6.661 5.364 6.763 C 5.41 6.864 5.433 6.98 5.433 7.11 C 5.433 7.205 5.423 7.29 5.401 7.365 C 5.38 7.44 5.349 7.51 5.307 7.574 C 5.265 7.639 5.213 7.701 5.151 7.76 C 5.088 7.82 5.015 7.883 4.931 7.95 C 4.868 8 4.816 8.044 4.776 8.081 C 4.736 8.118 4.704 8.153 4.682 8.186 C 4.659 8.22 4.643 8.254 4.635 8.29 C 4.627 8.325 4.623 8.367 4.623 8.415 L 4.623 8.571 L 4.023 8.571 L 4.023 8.571 L 4.023 8.571 Z M 2.286 8 C 2.286 6.738 3.31 5.714 4.571 5.714 C 5.833 5.714 6.857 6.738 6.857 8 C 6.857 9.262 5.833 10.286 4.571 10.286 C 3.31 10.286 2.286 9.262 2.286 8 L 2.286 8 L 2.286 8 L 2.286 8 Z"/>
</svg>
