<svg xmlns="http://www.w3.org/2000/svg" width="16" height="16" version="1.1">
 <defs>
   <style id="current-color-scheme" type="text/css">
   .ColorScheme-Text { color: #00cce5; } .ColorScheme-Highlight { color:#5294e2; }
  </style>
  <linearGradient id="arrongin" x1="0%" x2="0%" y1="0%" y2="100%">
   <stop offset="0%" style="stop-color:#dd9b44; stop-opacity:1"/>
   <stop offset="100%" style="stop-color:#ad6c16; stop-opacity:1"/>
  </linearGradient>
  <linearGradient id="aurora" x1="0%" x2="0%" y1="0%" y2="100%">
   <stop offset="0%" style="stop-color:#09D4DF; stop-opacity:1"/>
   <stop offset="100%" style="stop-color:#9269F4; stop-opacity:1"/>
  </linearGradient>
  <linearGradient id="cyberneon" x1="0%" x2="0%" y1="0%" y2="100%">
    <stop offset="0" style="stop-color:#0abdc6; stop-opacity:1"/>
    <stop offset="1" style="stop-color:#ea00d9; stop-opacity:1"/>
  </linearGradient>
  <linearGradient id="fitdance" x1="0%" x2="0%" y1="0%" y2="100%">
   <stop offset="0%" style="stop-color:#1AD6AB; stop-opacity:1"/>
   <stop offset="100%" style="stop-color:#329DB6; stop-opacity:1"/>
  </linearGradient>
  <linearGradient id="oomox" x1="0%" x2="0%" y1="0%" y2="100%">
   <stop offset="0%" style="stop-color:#9d72ff; stop-opacity:1"/>
   <stop offset="100%" style="stop-color:#005aa5; stop-opacity:1"/>
  </linearGradient>
  <linearGradient id="rainblue" x1="0%" x2="0%" y1="0%" y2="100%">
   <stop offset="0%" style="stop-color:#00F260; stop-opacity:1"/>
   <stop offset="100%" style="stop-color:#0575E6; stop-opacity:1"/>
  </linearGradient>
  <linearGradient id="sunrise" x1="0%" x2="0%" y1="0%" y2="100%">
   <stop offset="0%" style="stop-color: #FF8501; stop-opacity:1"/>
   <stop offset="100%" style="stop-color: #FFCB01; stop-opacity:1"/>
  </linearGradient>
  <linearGradient id="telinkrin" x1="0%" x2="0%" y1="0%" y2="100%">
   <stop offset="0%" style="stop-color: #b2ced6; stop-opacity:1"/>
   <stop offset="100%" style="stop-color: #6da5b7; stop-opacity:1"/>
  </linearGradient>
  <linearGradient id="60spsycho" x1="0%" x2="0%" y1="0%" y2="100%">
   <stop offset="0%" style="stop-color: #df5940; stop-opacity:1"/>
   <stop offset="25%" style="stop-color: #d8d15f; stop-opacity:1"/>
   <stop offset="50%" style="stop-color: #e9882a; stop-opacity:1"/>
   <stop offset="100%" style="stop-color: #279362; stop-opacity:1"/>
  </linearGradient>
  <linearGradient id="90ssummer" x1="0%" x2="0%" y1="0%" y2="100%">
   <stop offset="0%" style="stop-color: #f618c7; stop-opacity:1"/>
   <stop offset="20%" style="stop-color: #94ffab; stop-opacity:1"/>
   <stop offset="50%" style="stop-color: #fbfd54; stop-opacity:1"/>
   <stop offset="100%" style="stop-color: #0f83ae; stop-opacity:1"/>
  </linearGradient>
 </defs>
 <path fill="url(#oomox)" class="ColorScheme-Text" d="M 11.562 0 C 11.473 -0.005 11.331 0.052 11.071 0.165 C 10.762 0.3 10.061 0.41 9.512 0.41 C 7.568 0.45 6.013 1.116 4.753 2.37 C 3.043 4.084 2.504 6.241 3.284 8.243 C 3.465 8.706 3.574 9.176 3.527 9.288 C 3.481 9.401 3.152 9.712 2.798 9.981 C 2.03 10.565 1.499 11.507 1.366 12.519 C 1.286 13.127 1.341 13.417 1.68 14.141 C 2.408 15.694 4.059 16.36 5.819 15.809 C 6.838 15.49 7.857 14.358 8.673 12.641 C 9.378 11.158 9.408 11.121 10.165 10.854 C 11.44 10.404 12.244 9.907 13.043 9.073 C 14.459 7.595 14.985 5.679 14.477 3.849 C 14.249 3.027 14.057 2.743 13.024 1.697 C 12.37 1.033 11.79 0.362 11.734 0.205 C 11.687 0.073 11.651 0.006 11.562 0 Z M 8.125 1.778 C 8.73 1.781 9.198 1.963 9.326 2.327 C 9.368 2.446 9.191 3.008 8.932 3.575 C 8.265 5.033 8.052 5.834 7.649 8.405 C 7.149 11.594 6.603 12.971 5.508 13.799 C 4.818 14.321 3.971 14.365 3.519 13.905 C 3.127 13.506 3.014 13.007 3.196 12.485 C 3.34 12.07 3.479 12.004 4.531 11.849 C 5.263 11.741 5.778 11.235 5.778 10.571 C 5.778 10.154 5.61 9.914 5.041 9.313 C 4.162 8.383 3.778 7.49 3.774 6.363 C 3.768 4.601 4.63 3.102 6.104 2.315 C 6.778 1.955 7.519 1.776 8.125 1.778 Z M 10.376 2.669 C 10.558 2.642 10.788 2.854 11.114 3.297 C 12.402 5.048 12.27 7.698 10.819 9.221 C 10.201 9.87 10.055 9.909 9.626 9.559 C 9.378 9.357 9.331 9.174 9.333 8.434 C 9.336 7.301 9.673 4.527 9.935 3.472 C 10.063 2.962 10.195 2.696 10.376 2.669 Z"/>
</svg>
