<svg xmlns="http://www.w3.org/2000/svg" width="16" height="16" version="1.1">
 <defs>
   <style id="current-color-scheme" type="text/css">
   .ColorScheme-Text { color: #00cce5; } .ColorScheme-Highlight { color:#5294e2; }
  </style>
  <linearGradient id="arrongin" x1="0%" x2="0%" y1="0%" y2="100%">
   <stop offset="0%" style="stop-color:#dd9b44; stop-opacity:1"/>
   <stop offset="100%" style="stop-color:#ad6c16; stop-opacity:1"/>
  </linearGradient>
  <linearGradient id="aurora" x1="0%" x2="0%" y1="0%" y2="100%">
   <stop offset="0%" style="stop-color:#09D4DF; stop-opacity:1"/>
   <stop offset="100%" style="stop-color:#9269F4; stop-opacity:1"/>
  </linearGradient>
  <linearGradient id="cyberneon" x1="0%" x2="0%" y1="0%" y2="100%">
    <stop offset="0" style="stop-color:#0abdc6; stop-opacity:1"/>
    <stop offset="1" style="stop-color:#ea00d9; stop-opacity:1"/>
  </linearGradient>
  <linearGradient id="fitdance" x1="0%" x2="0%" y1="0%" y2="100%">
   <stop offset="0%" style="stop-color:#1AD6AB; stop-opacity:1"/>
   <stop offset="100%" style="stop-color:#329DB6; stop-opacity:1"/>
  </linearGradient>
  <linearGradient id="oomox" x1="0%" x2="0%" y1="0%" y2="100%">
   <stop offset="0%" style="stop-color:#9d72ff; stop-opacity:1"/>
   <stop offset="100%" style="stop-color:#005aa5; stop-opacity:1"/>
  </linearGradient>
  <linearGradient id="rainblue" x1="0%" x2="0%" y1="0%" y2="100%">
   <stop offset="0%" style="stop-color:#00F260; stop-opacity:1"/>
   <stop offset="100%" style="stop-color:#0575E6; stop-opacity:1"/>
  </linearGradient>
  <linearGradient id="sunrise" x1="0%" x2="0%" y1="0%" y2="100%">
   <stop offset="0%" style="stop-color: #FF8501; stop-opacity:1"/>
   <stop offset="100%" style="stop-color: #FFCB01; stop-opacity:1"/>
  </linearGradient>
  <linearGradient id="telinkrin" x1="0%" x2="0%" y1="0%" y2="100%">
   <stop offset="0%" style="stop-color: #b2ced6; stop-opacity:1"/>
   <stop offset="100%" style="stop-color: #6da5b7; stop-opacity:1"/>
  </linearGradient>
  <linearGradient id="60spsycho" x1="0%" x2="0%" y1="0%" y2="100%">
   <stop offset="0%" style="stop-color: #df5940; stop-opacity:1"/>
   <stop offset="25%" style="stop-color: #d8d15f; stop-opacity:1"/>
   <stop offset="50%" style="stop-color: #e9882a; stop-opacity:1"/>
   <stop offset="100%" style="stop-color: #279362; stop-opacity:1"/>
  </linearGradient>
  <linearGradient id="90ssummer" x1="0%" x2="0%" y1="0%" y2="100%">
   <stop offset="0%" style="stop-color: #f618c7; stop-opacity:1"/>
   <stop offset="20%" style="stop-color: #94ffab; stop-opacity:1"/>
   <stop offset="50%" style="stop-color: #fbfd54; stop-opacity:1"/>
   <stop offset="100%" style="stop-color: #0f83ae; stop-opacity:1"/>
  </linearGradient>
 </defs>
 <path fill="url(#oomox)" class="ColorScheme-Text" fill-rule="evenodd" d="M 2.182 1.455 C 1.577 1.455 1.091 1.941 1.091 2.545 L 1.091 13.455 C 1.091 14.059 1.577 14.545 2.182 14.545 C 2.786 14.545 3.273 14.059 3.273 13.455 L 3.273 2.545 C 3.273 1.941 2.786 1.455 2.182 1.455 L 2.182 1.455 Z M 13.818 1.455 C 13.214 1.455 12.727 1.941 12.727 2.545 L 12.727 13.455 C 12.727 14.059 13.214 14.545 13.818 14.545 C 14.423 14.545 14.909 14.059 14.909 13.455 L 14.909 2.545 C 14.909 1.941 14.423 1.455 13.818 1.455 L 13.818 1.455 Z M 8 1.455 C 7.396 1.455 6.909 1.941 6.909 2.545 L 6.909 13.455 C 6.909 14.059 7.396 14.545 8 14.545 C 8.604 14.545 9.091 14.059 9.091 13.455 L 9.091 2.545 C 9.091 1.941 8.604 1.455 8 1.455 Z"/>
 <path fill="url(#oomox)" class="ColorScheme-Text" d="M 16 7.273 C 16 8.478 15.023 9.455 13.818 9.455 C 12.613 9.455 11.636 8.478 11.636 7.273 C 11.636 6.068 12.613 5.091 13.818 5.091 C 15.023 5.091 16 6.068 16 7.273 Z"/>
 <path fill="url(#oomox)" class="ColorScheme-Text" fill-rule="evenodd" d="M 13.818 8.071 C 13.214 8.071 12.727 8.558 12.727 9.162 L 12.727 13.455 C 12.727 14.059 13.214 14.545 13.818 14.545 C 14.423 14.545 14.909 14.059 14.909 13.455 L 14.909 9.162 C 14.909 8.558 14.423 8.071 13.818 8.071 Z M 1.091 6.994 L 1.091 13.455 C 1.091 14.059 1.577 14.545 2.182 14.545 C 2.786 14.545 3.273 14.059 3.273 13.455 L 3.273 7.03 C 3.942 6.657 4.395 5.943 4.395 5.122 C 4.395 3.917 3.418 2.94 2.213 2.94 C 1.008 2.94 0.031 3.917 0.031 5.122 C 0.031 5.917 0.456 6.612 1.091 6.994 L 1.091 6.994 Z M 6.909 12.072 L 6.909 13.455 C 6.909 14.059 7.396 14.545 8 14.545 C 8.604 14.545 9.091 14.059 9.091 13.455 L 9.091 12.072 C 9.743 11.695 10.182 10.989 10.182 10.182 C 10.182 8.977 9.205 8 8 8 C 6.795 8 5.818 8.977 5.818 10.182 C 5.818 10.989 6.257 11.695 6.909 12.072 L 6.909 12.072 Z"/>
</svg>
