<svg xmlns="http://www.w3.org/2000/svg" width="16" height="16" version="1.1">
 <defs>
   <style id="current-color-scheme" type="text/css">
   .ColorScheme-Text { color: #00cce5; } .ColorScheme-Highlight { color:#5294e2; }
  </style>
  <linearGradient id="arrongin" x1="0%" x2="0%" y1="0%" y2="100%">
   <stop offset="0%" style="stop-color:#dd9b44; stop-opacity:1"/>
   <stop offset="100%" style="stop-color:#ad6c16; stop-opacity:1"/>
  </linearGradient>
  <linearGradient id="aurora" x1="0%" x2="0%" y1="0%" y2="100%">
   <stop offset="0%" style="stop-color:#09D4DF; stop-opacity:1"/>
   <stop offset="100%" style="stop-color:#9269F4; stop-opacity:1"/>
  </linearGradient>
  <linearGradient id="cyberneon" x1="0%" x2="0%" y1="0%" y2="100%">
    <stop offset="0" style="stop-color:#0abdc6; stop-opacity:1"/>
    <stop offset="1" style="stop-color:#ea00d9; stop-opacity:1"/>
  </linearGradient>
  <linearGradient id="fitdance" x1="0%" x2="0%" y1="0%" y2="100%">
   <stop offset="0%" style="stop-color:#1AD6AB; stop-opacity:1"/>
   <stop offset="100%" style="stop-color:#329DB6; stop-opacity:1"/>
  </linearGradient>
  <linearGradient id="oomox" x1="0%" x2="0%" y1="0%" y2="100%">
   <stop offset="0%" style="stop-color:#9d72ff; stop-opacity:1"/>
   <stop offset="100%" style="stop-color:#005aa5; stop-opacity:1"/>
  </linearGradient>
  <linearGradient id="rainblue" x1="0%" x2="0%" y1="0%" y2="100%">
   <stop offset="0%" style="stop-color:#00F260; stop-opacity:1"/>
   <stop offset="100%" style="stop-color:#0575E6; stop-opacity:1"/>
  </linearGradient>
  <linearGradient id="sunrise" x1="0%" x2="0%" y1="0%" y2="100%">
   <stop offset="0%" style="stop-color: #FF8501; stop-opacity:1"/>
   <stop offset="100%" style="stop-color: #FFCB01; stop-opacity:1"/>
  </linearGradient>
  <linearGradient id="telinkrin" x1="0%" x2="0%" y1="0%" y2="100%">
   <stop offset="0%" style="stop-color: #b2ced6; stop-opacity:1"/>
   <stop offset="100%" style="stop-color: #6da5b7; stop-opacity:1"/>
  </linearGradient>
  <linearGradient id="60spsycho" x1="0%" x2="0%" y1="0%" y2="100%">
   <stop offset="0%" style="stop-color: #df5940; stop-opacity:1"/>
   <stop offset="25%" style="stop-color: #d8d15f; stop-opacity:1"/>
   <stop offset="50%" style="stop-color: #e9882a; stop-opacity:1"/>
   <stop offset="100%" style="stop-color: #279362; stop-opacity:1"/>
  </linearGradient>
  <linearGradient id="90ssummer" x1="0%" x2="0%" y1="0%" y2="100%">
   <stop offset="0%" style="stop-color: #f618c7; stop-opacity:1"/>
   <stop offset="20%" style="stop-color: #94ffab; stop-opacity:1"/>
   <stop offset="50%" style="stop-color: #fbfd54; stop-opacity:1"/>
   <stop offset="100%" style="stop-color: #0f83ae; stop-opacity:1"/>
  </linearGradient>
 </defs>
 <path fill="url(#oomox)" class="ColorScheme-Text" fill-rule="evenodd" d="M 4.484 5.595 L 4.484 9.186 L 4.484 9.186 Q 4.484 9.52 4.386 9.792 L 4.386 9.792 L 4.386 9.792 Q 4.288 10.064 4.038 10.257 L 4.038 10.257 L 4.038 10.257 Q 3.788 10.449 3.352 10.558 L 3.352 10.558 L 3.352 10.558 Q 2.917 10.667 2.242 10.667 L 2.242 10.667 L 2.242 10.667 Q 1.567 10.667 1.132 10.558 L 1.132 10.558 L 1.132 10.558 Q 0.697 10.449 0.446 10.257 L 0.446 10.257 L 0.446 10.257 Q 0.196 10.064 0.098 9.792 L 0.098 9.792 L 0.098 9.792 Q 0 9.52 0 9.186 L 0 9.186 L 0 5.595 L 0 5.595 Q 0 5.457 0.062 5.395 L 0.062 5.395 L 0.062 5.395 Q 0.123 5.333 0.261 5.333 L 0.261 5.333 L 1.4 5.333 L 1.4 5.333 Q 1.538 5.333 1.6 5.395 L 1.6 5.395 L 1.6 5.395 Q 1.662 5.457 1.662 5.595 L 1.662 5.595 L 1.662 8.903 L 1.662 8.903 Q 1.662 9.049 1.771 9.146 L 1.771 9.146 L 1.771 9.146 Q 1.879 9.244 2.257 9.244 L 2.257 9.244 L 2.257 9.244 Q 2.641 9.244 2.75 9.146 L 2.75 9.146 L 2.75 9.146 Q 2.859 9.049 2.859 8.903 L 2.859 8.903 L 2.859 5.595 L 2.859 5.595 Q 2.859 5.457 2.921 5.395 L 2.921 5.395 L 2.921 5.395 Q 2.982 5.333 3.12 5.333 L 3.12 5.333 L 4.223 5.333 L 4.223 5.333 Q 4.361 5.333 4.423 5.395 L 4.423 5.395 L 4.423 5.395 Q 4.484 5.457 4.484 5.595 L 4.484 5.595 Z M 7.634 6.639 L 7.089 6.639 L 7.089 7.568 L 7.634 7.568 L 7.634 7.568 Q 7.822 7.568 7.888 7.47 L 7.888 7.47 L 7.888 7.47 Q 7.953 7.372 7.953 7.227 L 7.953 7.227 L 7.953 6.98 L 7.953 6.98 Q 7.953 6.835 7.888 6.737 L 7.888 6.737 L 7.888 6.737 Q 7.822 6.639 7.634 6.639 L 7.634 6.639 Z M 6.828 10.558 L 6.828 10.558 L 5.711 10.558 L 5.711 10.558 Q 5.573 10.558 5.511 10.496 L 5.511 10.496 L 5.511 10.496 Q 5.449 10.434 5.449 10.297 L 5.449 10.297 L 5.449 5.595 L 5.449 5.595 Q 5.449 5.457 5.511 5.395 L 5.511 5.395 L 5.511 5.395 Q 5.573 5.333 5.711 5.333 L 5.711 5.333 L 8.127 5.333 L 8.127 5.333 Q 8.94 5.333 9.248 5.671 L 9.248 5.671 L 9.248 5.671 Q 9.556 6.008 9.556 6.545 L 9.556 6.545 L 9.556 6.879 L 9.556 6.879 Q 9.556 7.184 9.466 7.398 L 9.466 7.398 L 9.466 7.398 Q 9.375 7.612 9.15 7.706 L 9.15 7.706 L 9.15 7.706 Q 9.542 7.75 9.785 8.025 L 9.785 8.025 L 9.785 8.025 Q 10.028 8.301 10.028 8.758 L 10.028 8.758 L 10.028 10.297 L 10.028 10.297 Q 10.028 10.434 9.966 10.496 L 9.966 10.496 L 9.966 10.496 Q 9.905 10.558 9.767 10.558 L 9.767 10.558 L 8.642 10.558 L 8.642 10.558 Q 8.504 10.558 8.443 10.496 L 8.443 10.496 L 8.443 10.496 Q 8.381 10.434 8.381 10.297 L 8.381 10.297 L 8.381 9.186 L 8.381 9.186 Q 8.381 9.027 8.319 8.951 L 8.319 8.951 L 8.319 8.951 Q 8.258 8.874 8.105 8.874 L 8.105 8.874 L 7.089 8.874 L 7.089 10.297 L 7.089 10.297 Q 7.089 10.434 7.028 10.496 L 7.028 10.496 L 7.028 10.496 Q 6.966 10.558 6.828 10.558 Z M 12.183 10.558 L 12.183 10.558 L 11.102 10.558 L 11.102 10.558 Q 10.964 10.558 10.902 10.496 L 10.902 10.496 L 10.902 10.496 Q 10.841 10.434 10.841 10.297 L 10.841 10.297 L 10.841 5.595 L 10.841 5.595 Q 10.841 5.457 10.902 5.395 L 10.902 5.395 L 10.902 5.395 Q 10.964 5.333 11.102 5.333 L 11.102 5.333 L 12.27 5.333 L 12.27 5.333 Q 12.386 5.333 12.463 5.384 L 12.463 5.384 L 12.463 5.384 Q 12.539 5.435 12.604 5.551 L 12.604 5.551 L 13.257 6.734 L 13.257 6.734 Q 13.293 6.799 13.319 6.828 L 13.319 6.828 L 13.319 6.828 Q 13.344 6.857 13.388 6.857 L 13.388 6.857 L 13.453 6.857 L 13.453 6.857 Q 13.497 6.857 13.522 6.828 L 13.522 6.828 L 13.522 6.828 Q 13.547 6.799 13.584 6.734 L 13.584 6.734 L 14.229 5.551 L 14.229 5.551 Q 14.295 5.435 14.371 5.384 L 14.371 5.384 L 14.371 5.384 Q 14.447 5.333 14.563 5.333 L 14.563 5.333 L 15.739 5.333 L 15.739 5.333 Q 15.877 5.333 15.938 5.395 L 15.938 5.395 L 15.938 5.395 Q 16 5.457 16 5.595 L 16 5.595 L 16 10.297 L 16 10.297 Q 16 10.434 15.938 10.496 L 15.938 10.496 L 15.938 10.496 Q 15.877 10.558 15.739 10.558 L 15.739 10.558 L 14.621 10.558 L 14.621 10.558 Q 14.483 10.558 14.422 10.496 L 14.422 10.496 L 14.422 10.496 Q 14.36 10.434 14.36 10.297 L 14.36 10.297 L 14.36 7.742 L 13.932 8.533 L 13.932 8.533 Q 13.867 8.657 13.776 8.711 L 13.776 8.711 L 13.776 8.711 Q 13.685 8.766 13.547 8.766 L 13.547 8.766 L 13.257 8.766 L 13.257 8.766 Q 13.119 8.766 13.029 8.711 L 13.029 8.711 L 13.029 8.711 Q 12.938 8.657 12.873 8.533 L 12.873 8.533 L 12.444 7.742 L 12.444 10.297 L 12.444 10.297 Q 12.444 10.434 12.383 10.496 L 12.383 10.496 L 12.383 10.496 Q 12.321 10.558 12.183 10.558 Z"/>
</svg>
