<svg xmlns="http://www.w3.org/2000/svg" width="24" height="24" version="1.1">
 <defs>
  <style id="current-color-scheme" type="text/css">
   .ColorScheme-Text { color: #00cce5; } .ColorScheme-Highlight { color: #1AD6AB; }
  </style>
  <linearGradient id="arrongin" x1="0%" x2="0%" y1="0%" y2="100%">
   <stop offset="0%" style="stop-color:#dd9b44"/>
   <stop offset="100%" style="stop-color:#ad6c16"/>
  </linearGradient>
  <linearGradient id="aurora" x1="0%" x2="0%" y1="0%" y2="100%">
   <stop offset="0%" style="stop-color:#09D4DF"/>
   <stop offset="100%" style="stop-color:#9269F4"/>
  </linearGradient>
  <linearGradient id="cyberneon" x1="0%" x2="0%" y1="0%" y2="100%">
   <stop offset="0" style="stop-color:#0abdc6"/>
   <stop offset="1" style="stop-color:#ea00d9"/>
  </linearGradient>
  <linearGradient id="fitdance" x1="0%" x2="0%" y1="0%" y2="100%">
   <stop offset="0%" style="stop-color:#1AD6AB"/>
   <stop offset="100%" style="stop-color:#329DB6"/>
  </linearGradient>
  <linearGradient id="oomox" x1="0%" x2="0%" y1="0%" y2="100%">
   <stop offset="0%" style="stop-color:#005aa5"/>
   <stop offset="100%" style="stop-color:#8e59ff"/>
  </linearGradient>
  <linearGradient id="rainblue" x1="0%" x2="0%" y1="0%" y2="100%">
   <stop offset="0%" style="stop-color:#00F260"/>
   <stop offset="100%" style="stop-color:#0575E6"/>
  </linearGradient>
  <linearGradient id="sunrise" x1="0%" x2="0%" y1="0%" y2="100%">
   <stop offset="0%" style="stop-color:#FF8501"/>
   <stop offset="100%" style="stop-color:#FFCB01"/>
  </linearGradient>
  <linearGradient id="telinkrin" x1="0%" x2="0%" y1="0%" y2="100%">
   <stop offset="0%" style="stop-color:#b2ced6"/>
   <stop offset="100%" style="stop-color:#6da5b7"/>
  </linearGradient>
  <linearGradient id="60spsycho" x1="0%" x2="0%" y1="0%" y2="100%">
   <stop offset="0%" style="stop-color:#df5940"/>
   <stop offset="25%" style="stop-color:#d8d15f"/>
   <stop offset="50%" style="stop-color:#e9882a"/>
   <stop offset="100%" style="stop-color:#279362"/>
  </linearGradient>
  <linearGradient id="90ssummer" x1="0%" x2="0%" y1="0%" y2="100%">
   <stop offset="0%" style="stop-color:#f618c7"/>
   <stop offset="20%" style="stop-color:#94ffab"/>
   <stop offset="50%" style="stop-color:#fbfd54"/>
   <stop offset="100%" style="stop-color:#0f83ae"/>
  </linearGradient>
 </defs>
 <path fill="url(#oomox)" class="ColorScheme-Text" d="m 11.466483,4.0037948 c -0.668497,0.03465 -1.9618672,0.3406927 -2.6347663,1.4316407 0,0 -0.6211408,-0.2001508 0.1035157,-1.3398438 0,0 -1.9352671,-0.095703 -2.9921875,0.9042969 H 3.9996855 V 15.165905 c 0,0 2.6301792,5.81363 11.1757815,4.689453 0,0 3.86735,-0.584437 3.361328,-4.208985 0,0 1.208391,-1.374352 1.38086,-3.126953 0.159394,-1.618609 0.141687,-2.387603 -0.541016,-4.4853439 -0.04765,-0.146236 -0.250044,-0.13521 -0.28125,0.015625 -0.239303,1.1571795 -0.705748,3.5013699 -2.722656,4.6845629 0,0 1.061817,-1.374641 0.482422,-3.7532604 -0.01857,-0.07629 -0.123961,-0.068314 -0.132813,0.00977 -0.08497,0.754987 -0.387588,1.8036394 -1.417968,2.1321664 0,0 -0.84007,-2.408623 -3.634766,-3.982422 0,0 0.241394,-0.7526635 0.310547,-1.2890625 0.06894,-0.536623 -0.173044,-0.7866144 -0.03516,-1.0371094 0.138102,-0.250501 0.689454,-0.6074218 0.689454,-0.6074219 0,0 -0.499471,-0.2377789 -1.167969,-0.203125 z m 1.46875,7.9980472 c 0.603757,-0.0382 1.100446,0.458669 1.0625,1.0625 -0.0317,0.497666 -0.433741,0.902209 -0.931641,0.933594 -0.603749,0.0382 -1.102693,-0.458671 -1.064453,-1.0625 0.03139,-0.497953 0.435702,-0.902209 0.933594,-0.933594 z m 3.490234,5 c 0.136667,0.0079 0.286952,0.03438 0.410157,0.105469 0.04094,0.02367 0.183378,0.105882 0.162109,0.203125 -0.02021,0.09264 -0.175936,0.146571 -0.234375,0.166015 -0.179349,0.05976 -0.250353,0.0094 -0.484375,0.05664 -0.05708,0.0115 -0.232009,0.04783 -0.382813,0.144531 -0.122798,0.07885 -0.09225,0.10987 -0.205078,0.183594 -0.110958,0.07267 -0.346439,0.177861 -0.513672,0.125 -0.159694,-0.05038 -0.175041,-0.217825 -0.177734,-0.25 -0.01883,-0.229131 0.243373,-0.402298 0.353516,-0.474609 0.113094,-0.07408 0.368941,-0.214288 0.75,-0.25 0.06448,-0.0061 0.185597,-0.01759 0.322265,-0.0098 z"/>
</svg>
