<svg xmlns="http://www.w3.org/2000/svg" width="24" height="24" version="1.1">
 <defs>
  <style id="current-color-scheme" type="text/css">
   .ColorScheme-Text { color: #00cce5; } .ColorScheme-Highlight { color: #1AD6AB; }
  </style>
  <linearGradient id="arrongin" x1="0%" x2="0%" y1="0%" y2="100%">
   <stop offset="0%" style="stop-color:#dd9b44"/>
   <stop offset="100%" style="stop-color:#ad6c16"/>
  </linearGradient>
  <linearGradient id="aurora" x1="0%" x2="0%" y1="0%" y2="100%">
   <stop offset="0%" style="stop-color:#09D4DF"/>
   <stop offset="100%" style="stop-color:#9269F4"/>
  </linearGradient>
  <linearGradient id="cyberneon" x1="0%" x2="0%" y1="0%" y2="100%">
   <stop offset="0" style="stop-color:#0abdc6"/>
   <stop offset="1" style="stop-color:#ea00d9"/>
  </linearGradient>
  <linearGradient id="fitdance" x1="0%" x2="0%" y1="0%" y2="100%">
   <stop offset="0%" style="stop-color:#1AD6AB"/>
   <stop offset="100%" style="stop-color:#329DB6"/>
  </linearGradient>
  <linearGradient id="oomox" x1="0%" x2="0%" y1="0%" y2="100%">
   <stop offset="0%" style="stop-color:#005aa5"/>
   <stop offset="100%" style="stop-color:#8e59ff"/>
  </linearGradient>
  <linearGradient id="rainblue" x1="0%" x2="0%" y1="0%" y2="100%">
   <stop offset="0%" style="stop-color:#00F260"/>
   <stop offset="100%" style="stop-color:#0575E6"/>
  </linearGradient>
  <linearGradient id="sunrise" x1="0%" x2="0%" y1="0%" y2="100%">
   <stop offset="0%" style="stop-color:#FF8501"/>
   <stop offset="100%" style="stop-color:#FFCB01"/>
  </linearGradient>
  <linearGradient id="telinkrin" x1="0%" x2="0%" y1="0%" y2="100%">
   <stop offset="0%" style="stop-color:#b2ced6"/>
   <stop offset="100%" style="stop-color:#6da5b7"/>
  </linearGradient>
  <linearGradient id="60spsycho" x1="0%" x2="0%" y1="0%" y2="100%">
   <stop offset="0%" style="stop-color:#df5940"/>
   <stop offset="25%" style="stop-color:#d8d15f"/>
   <stop offset="50%" style="stop-color:#e9882a"/>
   <stop offset="100%" style="stop-color:#279362"/>
  </linearGradient>
  <linearGradient id="90ssummer" x1="0%" x2="0%" y1="0%" y2="100%">
   <stop offset="0%" style="stop-color:#f618c7"/>
   <stop offset="20%" style="stop-color:#94ffab"/>
   <stop offset="50%" style="stop-color:#fbfd54"/>
   <stop offset="100%" style="stop-color:#0f83ae"/>
  </linearGradient>
 </defs>
 <g>
  <path fill="url(#oomox)" class="ColorScheme-Text" d="m16 5.0718a8 8 0 0 0 -10.928 2.9282 8 8 0 0 0 2.928 10.928 8 8 0 0 0 10.928 -2.928 8 8 0 0 0 -2.928 -10.928zm-1 1.7321a6 6 0 0 1 2.8736 3.9955 1.5 1.5 0 0 1 0.24007 0.11154 1.5 1.5 0 0 1 0.54904 2.049 1.5 1.5 0 0 1 -0.90187 0.6949 6 6 0 0 1 -0.565 1.345 6 6 0 0 1 -2.793 2.49 1.5 1.5 0 0 1 -0.198 0.691 1.5 1.5 0 0 1 -2.049 0.549 1.5 1.5 0 0 1 -0.647 -0.758 6 6 0 0 1 -2.509 -0.776 6 6 0 0 1 -2.9949 -5.195 1.5 1.5 0 0 1 -0.0517 -0.028 1.5 1.5 0 0 1 -0.5491 -2.0489 1.5 1.5 0 0 1 1.3084 -0.7467 6 6 0 0 1 0.0911 -0.1774 6 6 0 0 1 8.1962 -2.1961zm-0.5 0.866a5 5 0 0 0 -6.8301 1.8301 5 5 0 0 0 -0.0108 0.0186 1.5 1.5 0 0 1 0.541 1.1914l3.2736 1.2518a1.5 1.5 0 0 1 1.8923 -0.32831 1.5 1.5 0 0 1 0.57176 0.59172l1.9534-0.29752a1.5 1.5 0 0 1 0.174 -0.467 1.5 1.5 0 0 1 0.786 -0.66 5 5 0 0 0 -2.351 -3.1301zm1.5419 5.2474-1.9534 0.29751a1.5 1.5 0 0 1 -0.17336 0.46824 1.5 1.5 0 0 1 -0.7097 0.62768l0.1093 1.6779a1.5 1.5 0 0 1 0.34143 0.143 1.5 1.5 0 0 1 0.45027 0.39979 5 5 0 0 0 2.2238 -2.0314 5 5 0 0 0 0.41088 -0.9265 1.5 1.5 0 0 1 -0.12737 -0.06453 1.5 1.5 0 0 1 -0.57176 -0.59172zm-4.9226-0.02071-3.2746-1.2501a1.5 1.5 0 0 1 -0.83824 0.49483 5 5 0 0 0 2.4936 4.1888 5 5 0 0 0 1.9805 0.63602 1.5 1.5 0 0 1 0.12652 -0.28554 1.5 1.5 0 0 1 0.7097 -0.62768l-0.1093-1.6779a1.5 1.5 0 0 1 -0.34143 -0.143 1.5 1.5 0 0 1 -0.74675 -1.3355z"/>
 </g>
</svg>
