<svg xmlns="http://www.w3.org/2000/svg" width="24" height="24" version="1.1">
 <defs>
  <style id="current-color-scheme" type="text/css">
   .ColorScheme-Text { color: #00cce5; } .ColorScheme-Highlight { color: #1AD6AB; }
  </style>
  <linearGradient id="arrongin" x1="0%" x2="0%" y1="0%" y2="100%">
   <stop offset="0%" style="stop-color:#dd9b44"/>
   <stop offset="100%" style="stop-color:#ad6c16"/>
  </linearGradient>
  <linearGradient id="aurora" x1="0%" x2="0%" y1="0%" y2="100%">
   <stop offset="0%" style="stop-color:#09D4DF"/>
   <stop offset="100%" style="stop-color:#9269F4"/>
  </linearGradient>
  <linearGradient id="cyberneon" x1="0%" x2="0%" y1="0%" y2="100%">
   <stop offset="0" style="stop-color:#0abdc6"/>
   <stop offset="1" style="stop-color:#ea00d9"/>
  </linearGradient>
  <linearGradient id="fitdance" x1="0%" x2="0%" y1="0%" y2="100%">
   <stop offset="0%" style="stop-color:#1AD6AB"/>
   <stop offset="100%" style="stop-color:#329DB6"/>
  </linearGradient>
  <linearGradient id="oomox" x1="0%" x2="0%" y1="0%" y2="100%">
   <stop offset="0%" style="stop-color:#005aa5"/>
   <stop offset="100%" style="stop-color:#8e59ff"/>
  </linearGradient>
  <linearGradient id="rainblue" x1="0%" x2="0%" y1="0%" y2="100%">
   <stop offset="0%" style="stop-color:#00F260"/>
   <stop offset="100%" style="stop-color:#0575E6"/>
  </linearGradient>
  <linearGradient id="sunrise" x1="0%" x2="0%" y1="0%" y2="100%">
   <stop offset="0%" style="stop-color:#FF8501"/>
   <stop offset="100%" style="stop-color:#FFCB01"/>
  </linearGradient>
  <linearGradient id="telinkrin" x1="0%" x2="0%" y1="0%" y2="100%">
   <stop offset="0%" style="stop-color:#b2ced6"/>
   <stop offset="100%" style="stop-color:#6da5b7"/>
  </linearGradient>
  <linearGradient id="60spsycho" x1="0%" x2="0%" y1="0%" y2="100%">
   <stop offset="0%" style="stop-color:#df5940"/>
   <stop offset="25%" style="stop-color:#d8d15f"/>
   <stop offset="50%" style="stop-color:#e9882a"/>
   <stop offset="100%" style="stop-color:#279362"/>
  </linearGradient>
  <linearGradient id="90ssummer" x1="0%" x2="0%" y1="0%" y2="100%">
   <stop offset="0%" style="stop-color:#f618c7"/>
   <stop offset="20%" style="stop-color:#94ffab"/>
   <stop offset="50%" style="stop-color:#fbfd54"/>
   <stop offset="100%" style="stop-color:#0f83ae"/>
  </linearGradient>
 </defs>
 <path fill="#00cce5" d="M4 6.33312H7.38095C7.88899 6.33312 8.3415 6.65428 8.50919 7.13384L12.8262 19.4805L11.631 15.3892L17.3772 7.85012L19.8595 10.1946L15.2166 5H19.1241C19.5303 5 19.8595 5.3293 19.8595 5.73552V10.1946L12.8262 19.4805H9.42337C8.95567 19.4805 8.5388 19.1856 8.38306 18.7446L4 6.33312Z"/>
 <path fill="url(#paint0_linear)" d="M17.5298 12.0025C17.4201 12.3756 17.2747 12.7387 17.1182 13.0951C16.322 14.8594 15.1071 16.0499 14.97 17.1728C14.9667 17.1895 14.9584 17.2077 14.9555 17.2244L14.9651 17.228C14.9618 17.2666 14.9539 17.3052 14.9531 17.3439C14.9257 18.7371 16.0094 19.8954 17.3737 19.9307C18.7379 19.966 19.8661 18.8649 19.8936 17.4717C19.8943 17.4331 19.8879 17.3941 19.8862 17.3553L19.8959 17.3522C19.8938 17.3355 19.8862 17.3168 19.8834 17.2999C19.7907 16.171 18.6239 14.9189 17.8979 13.1153C17.7556 12.7511 17.6246 12.3809 17.5298 12.0025Z"/>
 <defs>
  <linearGradient id="paint0_linear" x1="17.499" x2="17.325" y1="11.999" y2="19.956" gradientUnits="userSpaceOnUse">
   <stop stop-color="#1ad6ab"/>
   <stop offset="1" stop-color="#329db6"/>
  </linearGradient>
 </defs>
</svg>
