<svg xmlns="http://www.w3.org/2000/svg" width="16" height="16" version="1.1">
 <defs>
   <style id="current-color-scheme" type="text/css">
   .ColorScheme-Text { color: #00cce5; } .ColorScheme-Highlight { color: #1AD6AB; }
  </style>
  <linearGradient id="arrongin" x1="0%" x2="0%" y1="0%" y2="100%">
   <stop offset="0%" style="stop-color: #dd9b44; stop-opacity: 1"/>
   <stop offset="100%" style="stop-color: #ad6c16; stop-opacity: 1"/>
  </linearGradient>
  <linearGradient id="aurora" x1="0%" x2="0%" y1="0%" y2="100%">
   <stop offset="0%" style="stop-color: #09D4DF; stop-opacity: 1"/>
   <stop offset="100%" style="stop-color: #9269F4; stop-opacity: 1"/>
  </linearGradient>
  <linearGradient id="cyberneon" x1="0%" x2="0%" y1="0%" y2="100%">
    <stop offset="0" style="stop-color: #0abdc6; stop-opacity: 1"/>
    <stop offset="1" style="stop-color: #ea00d9; stop-opacity: 1"/>
  </linearGradient>
  <linearGradient id="fitdance" x1="0%" x2="0%" y1="0%" y2="100%">
   <stop offset="0%" style="stop-color: #1AD6AB; stop-opacity: 1"/>
   <stop offset="100%" style="stop-color: #329DB6; stop-opacity: 1"/>
  </linearGradient>
  <linearGradient id="oomox" x1="0%" x2="0%" y1="0%" y2="100%">
   <stop offset="0%" style="stop-color: #005aa5; stop-opacity: 1"/>
   <stop offset="100%" style="stop-color: #8e59ff; stop-opacity: 1"/>
  </linearGradient>
  <linearGradient id="rainblue" x1="0%" x2="0%" y1="0%" y2="100%">
   <stop offset="0%" style="stop-color: #00F260; stop-opacity: 1"/>
   <stop offset="100%" style="stop-color: #0575E6; stop-opacity: 1"/>
  </linearGradient>
  <linearGradient id="sunrise" x1="0%" x2="0%" y1="0%" y2="100%">
   <stop offset="0%" style="stop-color: #FF8501; stop-opacity: 1"/>
   <stop offset="100%" style="stop-color: #FFCB01; stop-opacity: 1"/>
  </linearGradient>
  <linearGradient id="telinkrin" x1="0%" x2="0%" y1="0%" y2="100%">
   <stop offset="0%" style="stop-color: #b2ced6; stop-opacity: 1"/>
   <stop offset="100%" style="stop-color: #6da5b7; stop-opacity: 1"/>
  </linearGradient>
  <linearGradient id="60spsycho" x1="0%" x2="0%" y1="0%" y2="100%">
   <stop offset="0%" style="stop-color: #df5940; stop-opacity: 1"/>
   <stop offset="25%" style="stop-color: #d8d15f; stop-opacity: 1"/>
   <stop offset="50%" style="stop-color: #e9882a; stop-opacity: 1"/>
   <stop offset="100%" style="stop-color: #279362; stop-opacity: 1"/>
  </linearGradient>
  <linearGradient id="90ssummer" x1="0%" x2="0%" y1="0%" y2="100%">
   <stop offset="0%" style="stop-color: #f618c7; stop-opacity: 1"/>
   <stop offset="20%" style="stop-color: #94ffab; stop-opacity: 1"/>
   <stop offset="50%" style="stop-color: #fbfd54; stop-opacity: 1"/>
   <stop offset="100%" style="stop-color: #0f83ae; stop-opacity: 1"/>
  </linearGradient>
 </defs>
  <path fill="url(#oomox)" class="ColorScheme-Text" d="M 8 0.5 C 7.471 0.5 6.968 0.598 6.506 0.795 C 6.046 0.983 5.638 1.258 5.299 1.615 L 5.297 1.619 L 5.295 1.621 C 4.965 1.98 4.709 2.411 4.529 2.901 C 4.344 3.414 4.252 3.956 4.259 4.501 C 4.259 5.081 4.346 5.623 4.529 6.113 C 4.709 6.595 4.965 7.021 5.295 7.379 L 5.297 7.381 L 5.299 7.383 C 5.637 7.739 6.042 8.019 6.5 8.215 L 6.504 8.217 L 6.508 8.219 C 6.97 8.407 7.472 8.5 8 8.5 C 8.528 8.5 9.028 8.407 9.49 8.219 L 9.49 8.217 C 9.941 8.026 10.347 7.742 10.68 7.383 C 11.02 7.025 11.28 6.597 11.46 6.113 C 11.645 5.623 11.732 5.082 11.732 4.5 L 11.74 4.5 C 11.74 3.927 11.653 3.391 11.47 2.902 C 11.301 2.426 11.035 1.989 10.69 1.619 C 10.357 1.26 9.948 0.978 9.494 0.795 C 9.021 0.596 8.513 0.496 8 0.5 Z M 8 1.5 C 8.406 1.5 8.77 1.573 9.102 1.715 L 9.112 1.719 L 9.122 1.721 C 9.452 1.856 9.729 2.047 9.959 2.297 L 9.959 2.307 C 10.199 2.56 10.39 2.871 10.528 3.247 L 10.528 3.252 C 10.658 3.603 10.722 4.005 10.727 4.454 L 10.727 4.5 C 10.727 4.982 10.655 5.4 10.52 5.762 L 10.52 5.764 C 10.395 6.11 10.201 6.427 9.95 6.695 L 9.94 6.699 L 9.94 6.703 C 9.706 6.956 9.426 7.153 9.092 7.297 C 8.745 7.435 8.374 7.504 8 7.5 C 7.59 7.5 7.223 7.428 6.89 7.293 L 6.887 7.293 C 6.562 7.153 6.287 6.956 6.049 6.711 L 5.998 6.641 L 5.99 6.635 C 5.764 6.379 5.586 6.084 5.466 5.764 C 5.322 5.359 5.252 4.93 5.259 4.5 C 5.259 4.029 5.33 3.614 5.466 3.25 L 5.468 3.248 L 5.468 3.244 C 5.606 2.868 5.793 2.56 6.023 2.308 L 6.035 2.298 C 6.275 2.048 6.555 1.855 6.885 1.72 L 6.891 1.716 L 6.899 1.714 C 7.229 1.574 7.594 1.5 8 1.5 L 8 1.5 Z M 15 15.5 L 14 15.5 C 14 14.635 13.93 14.2 13.765 13.667 C 13.6 13.134 13.355 12.763 12.951 12.457 C 12.141 11.847 10.841 11.524 8.029 11.524 C 5.216 11.524 3.864 11.846 3.054 12.457 C 2.649 12.762 2.404 13.133 2.238 13.667 C 2.072 14.201 2.002 14.635 2 15.5 L 1 15.498 C 1.002 14.584 1.069 14.058 1.283 13.37 C 1.497 12.682 1.877 12.093 2.452 11.659 C 3.602 10.792 5.147 10.525 8.029 10.525 C 10.91 10.525 12.405 10.792 13.554 11.66 C 14.128 12.094 14.507 12.684 14.72 13.372 C 14.934 14.06 15 14.585 15 15.5 L 15 15.5 Z"/>
</svg>
