<svg xmlns="http://www.w3.org/2000/svg" width="16" height="16" version="1.1">
 <defs>
   <style id="current-color-scheme" type="text/css">
   .ColorScheme-Text { color: #00cce5; } .ColorScheme-Highlight { color: #1AD6AB; }
  </style>
  <linearGradient id="arrongin" x1="0%" x2="0%" y1="0%" y2="100%">
   <stop offset="0%" style="stop-color: #dd9b44; stop-opacity: 1"/>
   <stop offset="100%" style="stop-color: #ad6c16; stop-opacity: 1"/>
  </linearGradient>
  <linearGradient id="aurora" x1="0%" x2="0%" y1="0%" y2="100%">
   <stop offset="0%" style="stop-color: #09D4DF; stop-opacity: 1"/>
   <stop offset="100%" style="stop-color: #9269F4; stop-opacity: 1"/>
  </linearGradient>
  <linearGradient id="cyberneon" x1="0%" x2="0%" y1="0%" y2="100%">
    <stop offset="0" style="stop-color: #0abdc6; stop-opacity: 1"/>
    <stop offset="1" style="stop-color: #ea00d9; stop-opacity: 1"/>
  </linearGradient>
  <linearGradient id="fitdance" x1="0%" x2="0%" y1="0%" y2="100%">
   <stop offset="0%" style="stop-color: #1AD6AB; stop-opacity: 1"/>
   <stop offset="100%" style="stop-color: #329DB6; stop-opacity: 1"/>
  </linearGradient>
  <linearGradient id="oomox" x1="0%" x2="0%" y1="0%" y2="100%">
   <stop offset="0%" style="stop-color: #9d72ff; stop-opacity: 1"/>
   <stop offset="100%" style="stop-color: #005aa5; stop-opacity: 1"/>
  </linearGradient>
  <linearGradient id="rainblue" x1="0%" x2="0%" y1="0%" y2="100%">
   <stop offset="0%" style="stop-color: #00F260; stop-opacity: 1"/>
   <stop offset="100%" style="stop-color: #0575E6; stop-opacity: 1"/>
  </linearGradient>
  <linearGradient id="sunrise" x1="0%" x2="0%" y1="0%" y2="100%">
   <stop offset="0%" style="stop-color: #FF8501; stop-opacity: 1"/>
   <stop offset="100%" style="stop-color: #FFCB01; stop-opacity: 1"/>
  </linearGradient>
  <linearGradient id="telinkrin" x1="0%" x2="0%" y1="0%" y2="100%">
   <stop offset="0%" style="stop-color: #b2ced6; stop-opacity: 1"/>
   <stop offset="100%" style="stop-color: #6da5b7; stop-opacity: 1"/>
  </linearGradient>
  <linearGradient id="60spsycho" x1="0%" x2="0%" y1="0%" y2="100%">
   <stop offset="0%" style="stop-color: #df5940; stop-opacity: 1"/>
   <stop offset="25%" style="stop-color: #d8d15f; stop-opacity: 1"/>
   <stop offset="50%" style="stop-color: #e9882a; stop-opacity: 1"/>
   <stop offset="100%" style="stop-color: #279362; stop-opacity: 1"/>
  </linearGradient>
  <linearGradient id="90ssummer" x1="0%" x2="0%" y1="0%" y2="100%">
   <stop offset="0%" style="stop-color: #f618c7; stop-opacity: 1"/>
   <stop offset="20%" style="stop-color: #94ffab; stop-opacity: 1"/>
   <stop offset="50%" style="stop-color: #fbfd54; stop-opacity: 1"/>
   <stop offset="100%" style="stop-color: #0f83ae; stop-opacity: 1"/>
  </linearGradient>
 </defs>
 <path fill="url(#oomox)" class="ColorScheme-Text" d="M 10.4375 1 C 10.36389 0.995275 10.248102 1.0472572 10.033203 1.1464844 C 9.7785396 1.2643495 9.2006887 1.359375 8.7480469 1.359375 C 7.1447642 1.3941133 5.8597811 1.9764198 4.8203125 3.0742188 C 3.4094237 4.5742641 2.9658621 6.4621804 3.609375 8.2148438 C 3.757943 8.6191027 3.8491272 9.0309042 3.8105469 9.1289062 C 3.7719666 9.2277835 3.5007057 9.4989948 3.2089844 9.734375 C 2.5752859 10.245387 2.1369931 11.069559 2.0273438 11.955078 C 1.9615203 12.48709 2.0055335 12.740408 2.2851562 13.373047 C 2.8856891 14.731952 4.24755 15.315244 5.6992188 14.833984 C 6.5397789 14.554853 7.3820702 13.562955 8.0546875 12.060547 C 8.6367764 10.762894 8.6627176 10.731677 9.2871094 10.498047 C 10.338761 10.104288 11.001075 9.6692191 11.660156 8.9394531 C 12.828564 7.6452998 13.262549 5.9706007 12.84375 4.3691406 C 12.655079 3.6496124 12.496512 3.4023857 11.644531 2.4863281 C 11.104745 1.9061029 10.625765 1.316803 10.580078 1.1796875 C 10.541159 1.0641849 10.511107 1.0047252 10.4375 1 z M 10.173828 2.8769531 C 10.377797 2.8535901 10.637962 3.0362853 11.003906 3.4179688 C 12.452683 4.9260642 12.303623 7.2078777 10.671875 8.5195312 C 9.9759814 9.0777934 9.8130038 9.1135066 9.3300781 8.8125 C 9.0511211 8.6383712 8.9980002 8.4788109 9 7.8417969 C 9.0029995 6.8661506 9.3827797 4.4763668 9.6777344 3.5683594 C 9.8207124 3.1283123 9.9698595 2.9003161 10.173828 2.8769531 z M 8.0292969 3 C 8.5159863 3.002 8.8916358 3.1494104 8.9941406 3.4414062 C 9.0283088 3.5371549 8.8869109 3.9879493 8.6777344 4.4433594 C 8.1418761 5.6146757 7.9706661 6.2600352 7.6464844 8.3261719 C 7.2447989 10.888635 6.8074422 11.995166 5.9277344 12.660156 C 5.3731253 13.08015 4.6899389 13.114137 4.3261719 12.744141 C 4.0114072 12.424146 3.9220193 12.02351 4.0683594 11.603516 C 4.1843648 11.270188 4.6294033 11.216796 5.4746094 11.091797 C 6.0626368 11.005134 6.4765625 10.597778 6.4765625 10.064453 C 6.4765625 9.7286248 6.3415369 9.5380138 5.8847656 9.0546875 C 5.1781493 8.3071983 4.5345002 7.5911171 4.53125 6.6855469 C 4.5260832 5.2693174 5.2218614 4.0645481 6.40625 3.4316406 C 6.9477752 3.1422281 7.5426075 2.9980001 8.0292969 3 z"/>
</svg>
