<svg xmlns="http://www.w3.org/2000/svg" width="16" height="16" version="1.1">
 <defs>
  <style id="current-color-scheme" type="text/css">
   .ColorScheme-Text { color: #00cce5; } .ColorScheme-Highlight { color: #5294e2; }
  </style>
  <linearGradient id="arrongin" x1="0%" x2="0%" y1="0%" y2="100%">
   <stop id="stop3" offset="0%" style="stop-color:#dd9b44"/>
   <stop id="stop5" offset="100%" style="stop-color:#ad6c16"/>
  </linearGradient>
  <linearGradient id="aurora" x1="0%" x2="0%" y1="0%" y2="100%">
   <stop id="stop8" offset="0%" style="stop-color:#09D4DF"/>
   <stop id="stop10" offset="100%" style="stop-color:#9269F4"/>
  </linearGradient>
  <linearGradient id="cyberneon" x1="0%" x2="0%" y1="0%" y2="100%">
   <stop id="stop13" offset="0" style="stop-color:#0abdc6"/>
   <stop id="stop15" offset="1" style="stop-color:#ea00d9"/>
  </linearGradient>
  <linearGradient id="fitdance" x1="0%" x2="0%" y1="0%" y2="100%">
   <stop id="stop18" offset="0%" style="stop-color:#1AD6AB"/>
   <stop id="stop20" offset="100%" style="stop-color:#329DB6"/>
  </linearGradient>
  <linearGradient id="oomox" x1="0%" x2="0%" y1="0%" y2="100%">
   <stop id="stop23" offset="0%" style="stop-color:#9d72ff"/>
   <stop id="stop25" offset="100%" style="stop-color:#005aa5"/>
  </linearGradient>
  <linearGradient id="rainblue" x1="0%" x2="0%" y1="0%" y2="100%">
   <stop id="stop28" offset="0%" style="stop-color:#00F260"/>
   <stop id="stop30" offset="100%" style="stop-color:#0575E6"/>
  </linearGradient>
  <linearGradient id="sunrise" x1="0%" x2="0%" y1="0%" y2="100%">
   <stop id="stop33" offset="0%" style="stop-color:#FF8501"/>
   <stop id="stop35" offset="100%" style="stop-color:#FFCB01"/>
  </linearGradient>
  <linearGradient id="telinkrin" x1="0%" x2="0%" y1="0%" y2="100%">
   <stop id="stop38" offset="0%" style="stop-color:#b2ced6"/>
   <stop id="stop40" offset="100%" style="stop-color:#6da5b7"/>
  </linearGradient>
  <linearGradient id="60spsycho" x1="0%" x2="0%" y1="0%" y2="100%">
   <stop id="stop43" offset="0%" style="stop-color:#df5940"/>
   <stop id="stop45" offset="25%" style="stop-color:#d8d15f"/>
   <stop id="stop47" offset="50%" style="stop-color:#e9882a"/>
   <stop id="stop49" offset="100%" style="stop-color:#279362"/>
  </linearGradient>
  <linearGradient id="90ssummer" x1="0%" x2="0%" y1="0%" y2="100%">
   <stop id="stop52" offset="0%" style="stop-color:#f618c7"/>
   <stop id="stop54" offset="20%" style="stop-color:#94ffab"/>
   <stop id="stop56" offset="50%" style="stop-color:#fbfd54"/>
   <stop id="stop58" offset="100%" style="stop-color:#0f83ae"/>
  </linearGradient>
 </defs>
 <path fill="url(#oomox)" class="ColorScheme-Text" d="m 0,2.2653411 6.5386928,-0.8877733 0.00284,6.2876604 -6.53557846,0.037795 z m 6.5355785,6.124347 0.00491,6.2931409 L 0.00491339,13.787043 0.00454677,8.3474707 Z M 7.328221,1.2614229 15.997986,5.5e-6 V 7.5852533 L 7.328221,7.6540407 Z M 16,8.4488755 15.998,15.999995 7.3282359,14.780114 7.3161419,8.43474 Z"/>
</svg>
