<svg xmlns="http://www.w3.org/2000/svg" width="16" height="16" version="1.1">
 <defs>
   <style id="current-color-scheme" type="text/css">
   .ColorScheme-Text { color: #00cce5; } .ColorScheme-Highlight { color: #5294e2; }
  </style>
  <linearGradient id="arrongin" x1="0%" x2="0%" y1="0%" y2="100%">
   <stop offset="0%" style="stop-color: #dd9b44; stop-opacity: 1"/>
   <stop offset="100%" style="stop-color: #ad6c16; stop-opacity: 1"/>
  </linearGradient>
  <linearGradient id="aurora" x1="0%" x2="0%" y1="0%" y2="100%">
   <stop offset="0%" style="stop-color: #09D4DF; stop-opacity: 1"/>
   <stop offset="100%" style="stop-color: #9269F4; stop-opacity: 1"/>
  </linearGradient>
  <linearGradient id="cyberneon" x1="0%" x2="0%" y1="0%" y2="100%">
    <stop offset="0" style="stop-color: #0abdc6; stop-opacity: 1"/>
    <stop offset="1" style="stop-color: #ea00d9; stop-opacity: 1"/>
  </linearGradient>
  <linearGradient id="fitdance" x1="0%" x2="0%" y1="0%" y2="100%">
   <stop offset="0%" style="stop-color: #1AD6AB; stop-opacity: 1"/>
   <stop offset="100%" style="stop-color: #329DB6; stop-opacity: 1"/>
  </linearGradient>
  <linearGradient id="oomox" x1="0%" x2="0%" y1="0%" y2="100%">
   <stop offset="0%" style="stop-color: #9d72ff; stop-opacity: 1"/>
   <stop offset="100%" style="stop-color: #005aa5; stop-opacity: 1"/>
  </linearGradient>
  <linearGradient id="rainblue" x1="0%" x2="0%" y1="0%" y2="100%">
   <stop offset="0%" style="stop-color: #00F260; stop-opacity: 1"/>
   <stop offset="100%" style="stop-color: #0575E6; stop-opacity: 1"/>
  </linearGradient>
  <linearGradient id="sunrise" x1="0%" x2="0%" y1="0%" y2="100%">
   <stop offset="0%" style="stop-color: #FF8501; stop-opacity: 1"/>
   <stop offset="100%" style="stop-color: #FFCB01; stop-opacity: 1"/>
  </linearGradient>
  <linearGradient id="telinkrin" x1="0%" x2="0%" y1="0%" y2="100%">
   <stop offset="0%" style="stop-color: #b2ced6; stop-opacity: 1"/>
   <stop offset="100%" style="stop-color: #6da5b7; stop-opacity: 1"/>
  </linearGradient>
  <linearGradient id="60spsycho" x1="0%" x2="0%" y1="0%" y2="100%">
   <stop offset="0%" style="stop-color: #df5940; stop-opacity: 1"/>
   <stop offset="25%" style="stop-color: #d8d15f; stop-opacity: 1"/>
   <stop offset="50%" style="stop-color: #e9882a; stop-opacity: 1"/>
   <stop offset="100%" style="stop-color: #279362; stop-opacity: 1"/>
  </linearGradient>
  <linearGradient id="90ssummer" x1="0%" x2="0%" y1="0%" y2="100%">
   <stop offset="0%" style="stop-color: #f618c7; stop-opacity: 1"/>
   <stop offset="20%" style="stop-color: #94ffab; stop-opacity: 1"/>
   <stop offset="50%" style="stop-color: #fbfd54; stop-opacity: 1"/>
   <stop offset="100%" style="stop-color: #0f83ae; stop-opacity: 1"/>
  </linearGradient>
 </defs>
    <path fill="url(#oomox)" class="ColorScheme-Text" d="M 5.760159 11.519874 L 5.760159 15.999805 L 10.240089 15.999805 L 10.240089 11.519874 L 5.760159 11.519874 Z M 6.400149 12.159864 L 9.600099 12.159864 L 9.600099 15.359815 L 6.400149 15.359815 L 6.400149 12.159864 Z"/>
    <path fill="url(#oomox)" class="ColorScheme-Text" d="M 0.000248 5.759964 L 0.000248 10.239894 L 4.480178 10.239894 L 4.480178 5.759964 L 0.000248 5.759964 Z M 0.640238 6.399954 L 3.840188 6.399954 L 3.840188 9.599904 L 0.640238 9.599904 L 0.640238 6.399954 Z"/>
    <path fill="url(#oomox)" class="ColorScheme-Text" d="M 5.760159 0.000053 L 5.760159 4.479983 L 10.240089 4.479983 L 10.240089 0.000053 L 5.760159 0.000053 Z M 6.400149 0.640043 L 9.600099 0.640043 L 9.600099 3.839993 L 6.400149 3.839993 L 6.400149 0.640043 Z"/>
    <path fill="url(#oomox)" class="ColorScheme-Text" d="M 5.759911 5.759964 L 5.759911 10.240036 L 10.239985 10.240036 L 10.239985 5.759964 L 5.759911 5.759964 Z"/>
    <path fill="url(#oomox)" class="ColorScheme-Text" d="M 11.520069 5.759964 L 11.520069 10.239894 L 16 10.239894 L 16 5.759964 L 11.520069 5.759964 Z M 12.16006 6.399954 L 15.36001 6.399954 L 15.36001 9.599904 L 12.16006 9.599904 L 12.16006 6.399954 Z"/>
    <path fill="url(#oomox)" class="ColorScheme-Text" d="M 11.519821 11.519875 L 11.519821 15.999947 L 15.999896 15.999947 L 15.999896 11.519875 L 11.519821 11.519875 Z"/>
    <path fill="url(#oomox)" class="ColorScheme-Text" d="M 0 11.519875 L 0 15.999947 L 4.480074 15.999947 L 4.480074 11.519875 L 0 11.519875 Z"/>
    <path fill="url(#oomox)" class="ColorScheme-Text" d="M 0 0.000053 L 0 4.480126 L 4.480074 4.480126 L 4.480074 0.000053 L 0 0.000053 Z"/>
</svg>
