<svg xmlns="http://www.w3.org/2000/svg" width="22" height="22" version="1.1">
 <defs>
   <style id="current-color-scheme" type="text/css">
   .ColorScheme-Text { color: #00cce5; } .ColorScheme-Highlight { color: #1AD6AB; }
  </style>
  <linearGradient id="arrongin" x1="0%" x2="0%" y1="0%" y2="100%">
   <stop offset="0%"    stop-color= "#dd9b44" stop-opacity="1"/>
   <stop offset="100%"  stop-color= "#ad6c16" stop-opacity="1"/>
  </linearGradient>
  <linearGradient id="aurora" x1="0%" x2="0%" y1="0%" y2="100%">
   <stop offset="0%"    stop-color= "#09D4DF" stop-opacity="1"/>
   <stop offset="100%"  stop-color= "#9269F4" stop-opacity="1"/>
  </linearGradient> 
  <linearGradient id="cyberblue" x1="0%" x2="0%" y1="0%" y2="100%">
   <stop offset="0%"    stop-color= "#07B3FF" stop-opacity="1"/>
   <stop offset="100%"  stop-color= "#007DE8" stop-opacity="1"/>
  </linearGradient>
  <linearGradient id="cyberneon" x1="0%" x2="0%" y1="0%" y2="100%">
    <stop offset="0%"   stop-color= "#0abdc6" stop-opacity="1"/>
    <stop offset="100%" stop-color= "#ea00d9" stop-opacity="1"/>
  </linearGradient>
  <linearGradient id="fitdance" x1="0%" x2="0%" y1="0%" y2="100%">
   <stop offset="0%"    stop-color= "#1AD6AB" stop-opacity="1"/>
   <stop offset="100%"  stop-color= "#329DB6" stop-opacity="1"/>
  </linearGradient>
  <linearGradient id="oomox" x1="0%" x2="0%" y1="0%" y2="100%">
   <stop offset="0%"    stop-color= "#005aa5" stop-opacity="1"/>
   <stop offset="100%"  stop-color= "#8e59ff" stop-opacity="1"/>
  </linearGradient>
  <linearGradient id="rainblue" x1="0%" x2="0%" y1="0%" y2="100%">
   <stop offset="0%"    stop-color= "#00F260" stop-opacity="1"/>
   <stop offset="100%"  stop-color= "#0575E6" stop-opacity="1"/>
  </linearGradient>
  <linearGradient id="redcarbon" x1="0%" x2="0%" y1="0%" y2="100%">
   <stop offset="0%"    stop-color= "#FF6D57" stop-opacity="1"/>
   <stop offset="50%"   stop-color= "#FF5160" stop-opacity="1"/>
   <stop offset="100%"  stop-color= "#F50F22" stop-opacity="1"/>
  </linearGradient>
  <linearGradient id="sunrise" x1="0%" x2="0%" y1="0%" y2="100%">
   <stop offset="0%"    stop-color= "#FF8501" stop-opacity="1"/>
   <stop offset="100%"  stop-color= "#FFCB01" stop-opacity="1"/>
  </linearGradient>
  <linearGradient id="telinkrin" x1="0%" x2="0%" y1="0%" y2="100%">
   <stop offset="0%"    stop-color= "#b2ced6" stop-opacity="1"/>
   <stop offset="100%"  stop-color= "#6da5b7" stop-opacity="1"/>
  </linearGradient>
  <linearGradient id="60spsycho" x1="0%" x2="0%" y1="0%" y2="100%">
   <stop offset="0%"    stop-color= "#df5940" stop-opacity="1"/>
   <stop offset="25%"   stop-color= "#d8d15f" stop-opacity="1"/>
   <stop offset="50%"   stop-color= "#e9882a" stop-opacity="1"/>
   <stop offset="100%"  stop-color= "#279362" stop-opacity="1"/>
  </linearGradient>
  <linearGradient id="90ssummer" x1="0%" x2="0%" y1="0%" y2="100%">
   <stop offset="0%"    stop-color= "#f618c7" stop-opacity="1"/>
   <stop offset="20%"   stop-color= "#94ffab" stop-opacity="1"/>
   <stop offset="50%"   stop-color= "#fbfd54" stop-opacity="1"/>
   <stop offset="100%"  stop-color= "#0f83ae" stop-opacity="1"/>
  </linearGradient>
 </defs>
 <g id="layer12" transform="translate(-425 119)">
  <g transform="matrix(.86603 .5 -.5 .86603 5.3187 -228.18)">
   <path fill="url(#oomox)" class="ColorScheme-Text" d="m8 1.0039c-0.94916 0-1.7362 0.98426-1.9434 2.3105-1.0841-0.7907-2.3349-0.93267-3.0059-0.26172-0.67095 0.67095-0.53093 1.9237 0.25977 3.0078-1.3263 0.2072-2.3105 0.9942-2.3105 1.9434s0.9842 1.7362 2.3105 1.9434c-0.7907 1.0837-0.9307 2.3347-0.2597 3.0057 0.6709 0.671 1.9217 0.529 3.0058-0.262-0.0345-0.221-0.0566-0.449-0.0566-0.687 0.1667-0.665 0.5598-1.551 1.0977-2.2188a2 2 0 0 1 -0.51172 -0.36719 2 2 0 0 1 0 -2.8281 2 2 0 0 1 2.8281 0 2 2 0 0 1 0 2.8281 2 2 0 0 1 -0.51172 0.36914c0.5375 0.6679 0.9305 1.5499 1.0976 2.2149v0.002c0 0.23786-0.022081 0.46588-0.056641 0.6875 1.0841 0.7907 2.3349 0.93267 3.0059 0.26172 0.67095-0.67095 0.52898-1.9217-0.26172-3.0059 1.3263-0.20719 2.3105-0.9942 2.3105-1.9434-0.00001-0.94916-0.98425-1.7362-2.3105-1.9434 0.79071-1.0841 0.93267-2.3369 0.26172-3.0078-0.67096-0.67095-1.9217-0.52898-3.0059 0.26172-0.2072-1.3262-0.9942-2.3105-1.9434-2.3105zm1.7168 12.521c-0.012816 0.03257-0.023505 0.06786-0.037109 0.09961 0.00179-0.0041 0.0041-0.0076 0.00586-0.01172 0.011756-0.02784 0.020141-0.05939 0.03125-0.08789zm-2.7715 1.0195c0.00463 0.0044 0.00901 0.0094 0.013672 0.01367 0.0513 0.047 0.10592 0.08877 0.16016 0.12891 0.00575 0.0042 0.011828 0.0075 0.017578 0.01172-0.065569-0.0472-0.13008-0.09705-0.19141-0.1543zm2.0938 0.01367c-0.056496 0.05166-0.11575 0.09741-0.17578 0.14062 0.00574-0.0042 0.011844-0.0075 0.017578-0.01172 0.0542-0.0401 0.1069-0.08188 0.1582-0.12891zm-1.7715 0.231c0.00475 0.0029 0.00889 0.007 0.013672 0.0098 0.0624 0.0361 0.12804 0.06119 0.19336 0.08789-0.0703-0.029-0.14-0.058-0.207-0.098zm1.4648 0c-0.066986 0.03949-0.13669 0.069-0.20703 0.09766 0.0654-0.0267 0.13094-0.05179 0.19336-0.08789 0.00478-0.0028 0.00892-0.0069 0.013672-0.0098z" transform="translate(425 -119)"/>
   <path opacity=".3" fill="url(#oomox)" class="ColorScheme-Text" d="m7.0996 9.7832c-0.5388 0.6678-0.9327 1.5548-1.0996 2.2208 0.00001 1.662 0.892 3 2 3 1.108-0.00001 2-1.338 2-3v-0.002c-0.1672-0.665-0.5597-1.549-1.0977-2.2168a2 2 0 0 1 -0.9023 0.2148 2 2 0 0 1 -0.9004 -0.2168z" transform="translate(425 -119)"/>
  </g>
 </g>
</svg>
