<svg xmlns="http://www.w3.org/2000/svg" width="16" height="16" version="1.1">
 <defs>
   <style id="current-color-scheme" type="text/css">
   .ColorScheme-Text { color: #00cce5; } .ColorScheme-Highlight { color:#5294e2; }
  </style>
  <linearGradient id="arrongin" x1="0%" x2="0%" y1="0%" y2="100%">
   <stop offset="0%" style="stop-color:#dd9b44; stop-opacity:1"/>
   <stop offset="100%" style="stop-color:#ad6c16; stop-opacity:1"/>
  </linearGradient>
  <linearGradient id="aurora" x1="0%" x2="0%" y1="0%" y2="100%">
   <stop offset="0%" style="stop-color:#09D4DF; stop-opacity:1"/>
   <stop offset="100%" style="stop-color:#9269F4; stop-opacity:1"/>
  </linearGradient>
  <linearGradient id="cyberneon" x1="0%" x2="0%" y1="0%" y2="100%">
    <stop offset="0" style="stop-color:#0abdc6; stop-opacity:1"/>
    <stop offset="1" style="stop-color:#ea00d9; stop-opacity:1"/>
  </linearGradient>
  <linearGradient id="fitdance" x1="0%" x2="0%" y1="0%" y2="100%">
   <stop offset="0%" style="stop-color:#1AD6AB; stop-opacity:1"/>
   <stop offset="100%" style="stop-color:#329DB6; stop-opacity:1"/>
  </linearGradient>
  <linearGradient id="oomox" x1="0%" x2="0%" y1="0%" y2="100%">
   <stop offset="0%" style="stop-color:#005aa5; stop-opacity:1"/>
   <stop offset="100%" style="stop-color:#8e59ff; stop-opacity:1"/>
  </linearGradient>
  <linearGradient id="rainblue" x1="0%" x2="0%" y1="0%" y2="100%">
   <stop offset="0%" style="stop-color:#00F260; stop-opacity:1"/>
   <stop offset="100%" style="stop-color:#0575E6; stop-opacity:1"/>
  </linearGradient>
  <linearGradient id="sunrise" x1="0%" x2="0%" y1="0%" y2="100%">
   <stop offset="0%" style="stop-color: #FF8501; stop-opacity:1"/>
   <stop offset="100%" style="stop-color: #FFCB01; stop-opacity:1"/>
  </linearGradient>
  <linearGradient id="telinkrin" x1="0%" x2="0%" y1="0%" y2="100%">
   <stop offset="0%" style="stop-color: #b2ced6; stop-opacity:1"/>
   <stop offset="100%" style="stop-color: #6da5b7; stop-opacity:1"/>
  </linearGradient>
  <linearGradient id="60spsycho" x1="0%" x2="0%" y1="0%" y2="100%">
   <stop offset="0%" style="stop-color: #df5940; stop-opacity:1"/>
   <stop offset="25%" style="stop-color: #d8d15f; stop-opacity:1"/>
   <stop offset="50%" style="stop-color: #e9882a; stop-opacity:1"/>
   <stop offset="100%" style="stop-color: #279362; stop-opacity:1"/>
  </linearGradient>
  <linearGradient id="90ssummer" x1="0%" x2="0%" y1="0%" y2="100%">
   <stop offset="0%" style="stop-color: #f618c7; stop-opacity:1"/>
   <stop offset="20%" style="stop-color: #94ffab; stop-opacity:1"/>
   <stop offset="50%" style="stop-color: #fbfd54; stop-opacity:1"/>
   <stop offset="100%" style="stop-color: #0f83ae; stop-opacity:1"/>
  </linearGradient>
 </defs>
 <path fill="url(#oomox)" class="ColorScheme-Text" fill-rule="evenodd" d="M 9.454 4.413 L 9.154 5.357 L 10.286 5.913 L 8.826 6.112 L 8.499 7.143 L 7.971 5.992 L 6.286 5.794 L 7.544 5.199 L 7.166 4.286 L 8.344 4.89 L 9.454 4.413 L 9.454 4.413 L 9.454 4.413 L 9.454 4.413 L 9.454 4.413 L 9.454 4.413 L 9.454 4.413 Z M 8.107 11.714 L 5.714 10.221 L 9.143 9.429 L 8.107 11.714 L 8.107 11.714 L 8.107 11.714 L 8.107 11.714 L 8.107 11.714 Z M 2.286 7.714 C 2.286 7.084 3.182 6.571 4.286 6.571 C 5.39 6.571 6.286 7.084 6.286 7.714 C 6.286 8.345 5.39 8.857 4.286 8.857 C 3.182 8.857 2.286 8.345 2.286 7.714 L 2.286 7.714 L 2.286 7.714 Z M 8 3.143 C 7.47 3.143 6.939 3.262 6.546 3.501 L 0.589 7.117 C -0.197 7.594 -0.196 8.406 0.589 8.883 L 6.546 12.5 C 7.332 12.976 8.669 12.976 9.454 12.5 L 15.411 8.883 C 16.197 8.406 16.196 7.594 15.411 7.117 L 9.454 3.501 C 9.062 3.262 8.531 3.143 8 3.143 L 8 3.143 L 8 3.143 L 8 3.143 L 8 3.143 L 8 3.143 L 8 3.143 Z M 11.429 9.429 L 9.143 8.074 L 11.429 6.571 L 13.714 7.928 L 11.429 9.429 Z"/>
</svg>
