<svg xmlns="http://www.w3.org/2000/svg" width="16" height="16" version="1.1">
 <defs>
   <style id="current-color-scheme" type="text/css">
   .ColorScheme-Text { color: #00cce5; } .ColorScheme-Highlight { color:#5294e2; }
  </style>
  <linearGradient id="arrongin" x1="0%" x2="0%" y1="0%" y2="100%">
   <stop offset="0%" style="stop-color:#dd9b44; stop-opacity:1"/>
   <stop offset="100%" style="stop-color:#ad6c16; stop-opacity:1"/>
  </linearGradient>
  <linearGradient id="aurora" x1="0%" x2="0%" y1="0%" y2="100%">
   <stop offset="0%" style="stop-color:#09D4DF; stop-opacity:1"/>
   <stop offset="100%" style="stop-color:#9269F4; stop-opacity:1"/>
  </linearGradient>
  <linearGradient id="cyberneon" x1="0%" x2="0%" y1="0%" y2="100%">
    <stop offset="0" style="stop-color:#0abdc6; stop-opacity:1"/>
    <stop offset="1" style="stop-color:#ea00d9; stop-opacity:1"/>
  </linearGradient>
  <linearGradient id="fitdance" x1="0%" x2="0%" y1="0%" y2="100%">
   <stop offset="0%" style="stop-color:#1AD6AB; stop-opacity:1"/>
   <stop offset="100%" style="stop-color:#329DB6; stop-opacity:1"/>
  </linearGradient>
  <linearGradient id="oomox" x1="0%" x2="0%" y1="0%" y2="100%">
   <stop offset="0%" style="stop-color:#005aa5; stop-opacity:1"/>
   <stop offset="100%" style="stop-color:#8e59ff; stop-opacity:1"/>
  </linearGradient>
  <linearGradient id="rainblue" x1="0%" x2="0%" y1="0%" y2="100%">
   <stop offset="0%" style="stop-color:#00F260; stop-opacity:1"/>
   <stop offset="100%" style="stop-color:#0575E6; stop-opacity:1"/>
  </linearGradient>
  <linearGradient id="sunrise" x1="0%" x2="0%" y1="0%" y2="100%">
   <stop offset="0%" style="stop-color: #FF8501; stop-opacity:1"/>
   <stop offset="100%" style="stop-color: #FFCB01; stop-opacity:1"/>
  </linearGradient>
  <linearGradient id="telinkrin" x1="0%" x2="0%" y1="0%" y2="100%">
   <stop offset="0%" style="stop-color: #b2ced6; stop-opacity:1"/>
   <stop offset="100%" style="stop-color: #6da5b7; stop-opacity:1"/>
  </linearGradient>
  <linearGradient id="60spsycho" x1="0%" x2="0%" y1="0%" y2="100%">
   <stop offset="0%" style="stop-color: #df5940; stop-opacity:1"/>
   <stop offset="25%" style="stop-color: #d8d15f; stop-opacity:1"/>
   <stop offset="50%" style="stop-color: #e9882a; stop-opacity:1"/>
   <stop offset="100%" style="stop-color: #279362; stop-opacity:1"/>
  </linearGradient>
  <linearGradient id="90ssummer" x1="0%" x2="0%" y1="0%" y2="100%">
   <stop offset="0%" style="stop-color: #f618c7; stop-opacity:1"/>
   <stop offset="20%" style="stop-color: #94ffab; stop-opacity:1"/>
   <stop offset="50%" style="stop-color: #fbfd54; stop-opacity:1"/>
   <stop offset="100%" style="stop-color: #0f83ae; stop-opacity:1"/>
  </linearGradient>
 </defs>
 <path fill="url(#oomox)" class="ColorScheme-Text" d="M 7.943 0.727 C 5.569 0.727 4.152 2.209 4.152 2.209 L 6.331 6.349 C 6.82 6.005 7.402 5.819 8 5.818 C 8.565 5.819 9.116 5.985 9.589 6.294 L 11.741 2.209 C 11.741 2.209 10.317 0.727 7.943 0.727 Z M 8 7.273 C 7.197 7.273 6.545 7.924 6.545 8.727 C 6.545 9.531 7.197 10.182 8 10.182 C 8.804 10.182 9.455 9.531 9.455 8.727 C 9.455 7.924 8.804 7.273 8 7.273 Z M 10.949 8.641 C 10.942 8.854 10.907 9.068 10.856 9.28 C 10.849 9.311 10.842 9.343 10.834 9.374 C 10.83 9.388 10.827 9.404 10.823 9.419 C 10.626 10.221 10.098 10.901 9.37 11.291 L 12.04 15.213 C 12.04 15.213 14.088 14.77 15.275 12.796 C 16.462 10.821 15.834 8.902 15.834 8.902 L 15.834 8.9 L 10.949 8.641 L 10.949 8.641 Z M 5.049 8.7 L 0.164 8.961 C 0.164 8.961 -0.46 10.887 0.727 12.861 C 1.914 14.836 3.958 15.273 3.958 15.273 L 6.636 11.34 C 6.377 11.185 6.14 10.991 5.929 10.769 C 5.891 10.729 5.855 10.689 5.82 10.648 C 5.788 10.611 5.754 10.577 5.724 10.538 C 5.723 10.537 5.722 10.536 5.721 10.535 C 5.648 10.441 5.581 10.343 5.52 10.241 C 5.513 10.231 5.505 10.223 5.499 10.212 C 5.486 10.191 5.478 10.169 5.466 10.148 C 5.432 10.088 5.4 10.027 5.371 9.964 C 5.172 9.557 5.064 9.128 5.049 8.7 L 5.049 8.7 Z"/>
</svg>
