<svg xmlns="http://www.w3.org/2000/svg" width="16" height="16" version="1.1">
 <defs>
   <style id="current-color-scheme" type="text/css">
   .ColorScheme-Text { color: #00cce5; } .ColorScheme-Highlight { color:#5294e2; }
  </style>
  <linearGradient id="arrongin" x1="0%" x2="0%" y1="0%" y2="100%">
   <stop offset="0%" style="stop-color:#dd9b44; stop-opacity:1"/>
   <stop offset="100%" style="stop-color:#ad6c16; stop-opacity:1"/>
  </linearGradient>
  <linearGradient id="aurora" x1="0%" x2="0%" y1="0%" y2="100%">
   <stop offset="0%" style="stop-color:#09D4DF; stop-opacity:1"/>
   <stop offset="100%" style="stop-color:#9269F4; stop-opacity:1"/>
  </linearGradient>
  <linearGradient id="cyberneon" x1="0%" x2="0%" y1="0%" y2="100%">
    <stop offset="0" style="stop-color:#0abdc6; stop-opacity:1"/>
    <stop offset="1" style="stop-color:#ea00d9; stop-opacity:1"/>
  </linearGradient>
  <linearGradient id="fitdance" x1="0%" x2="0%" y1="0%" y2="100%">
   <stop offset="0%" style="stop-color:#1AD6AB; stop-opacity:1"/>
   <stop offset="100%" style="stop-color:#329DB6; stop-opacity:1"/>
  </linearGradient>
  <linearGradient id="oomox" x1="0%" x2="0%" y1="0%" y2="100%">
   <stop offset="0%" style="stop-color:#005aa5; stop-opacity:1"/>
   <stop offset="100%" style="stop-color:#8e59ff; stop-opacity:1"/>
  </linearGradient>
  <linearGradient id="rainblue" x1="0%" x2="0%" y1="0%" y2="100%">
   <stop offset="0%" style="stop-color:#00F260; stop-opacity:1"/>
   <stop offset="100%" style="stop-color:#0575E6; stop-opacity:1"/>
  </linearGradient>
  <linearGradient id="sunrise" x1="0%" x2="0%" y1="0%" y2="100%">
   <stop offset="0%" style="stop-color: #FF8501; stop-opacity:1"/>
   <stop offset="100%" style="stop-color: #FFCB01; stop-opacity:1"/>
  </linearGradient>
  <linearGradient id="telinkrin" x1="0%" x2="0%" y1="0%" y2="100%">
   <stop offset="0%" style="stop-color: #b2ced6; stop-opacity:1"/>
   <stop offset="100%" style="stop-color: #6da5b7; stop-opacity:1"/>
  </linearGradient>
  <linearGradient id="60spsycho" x1="0%" x2="0%" y1="0%" y2="100%">
   <stop offset="0%" style="stop-color: #df5940; stop-opacity:1"/>
   <stop offset="25%" style="stop-color: #d8d15f; stop-opacity:1"/>
   <stop offset="50%" style="stop-color: #e9882a; stop-opacity:1"/>
   <stop offset="100%" style="stop-color: #279362; stop-opacity:1"/>
  </linearGradient>
  <linearGradient id="90ssummer" x1="0%" x2="0%" y1="0%" y2="100%">
   <stop offset="0%" style="stop-color: #f618c7; stop-opacity:1"/>
   <stop offset="20%" style="stop-color: #94ffab; stop-opacity:1"/>
   <stop offset="50%" style="stop-color: #fbfd54; stop-opacity:1"/>
   <stop offset="100%" style="stop-color: #0f83ae; stop-opacity:1"/>
  </linearGradient>
 </defs>
 <path fill="url(#oomox)" class="ColorScheme-Text" fill-rule="evenodd" d="M 5.557 7.955 L 4.322 8.632 L 5.912 6.831 C 5.43 6.87 4.646 7.041 3.707 7.401 L 9.862 3.707 L 10.184 3.904 C 10.556 3.795 10.887 3.726 11.186 3.711 L 11.186 3.711 L 11.185 3.711 C 11.683 3.685 11.978 3.989 12.324 4.323 C 10.115 4.445 10.053 5.408 10.083 5.661 C 10.767 5.663 11.728 5.676 12.016 5.862 C 9.153 6.716 9.196 8.446 9.246 8.715 C 9.434 10.838 10.996 11.153 12.94 11.137 C 12.994 11.135 13.038 11.141 13.079 11.148 C 14.14 9.907 14.769 8.292 14.769 6.604 C 14.769 4.086 13.5 1.897 11.383 0.746 L 11.466 0.666 C 14.148 1.911 16 4.564 16 7.639 C 16 11.916 12.418 15.384 8.001 15.384 C 3.582 15.384 0 11.916 0 7.639 C 0 4.525 1.898 1.846 4.634 0.617 L 4.634 0.616 C 4.649 0.648 4.67 0.682 4.684 0.713 C 2.532 1.852 1.231 4.059 1.231 6.604 C 1.231 8.377 1.925 10.069 3.079 11.335 C 3.101 11.379 5.188 9.875 5.557 7.955 Z M 9.34 4.459 C 9.482 4.516 9.5 4.602 9.525 4.696 C 9.279 4.743 8.931 4.855 8.834 4.728 C 8.79 4.684 9.092 4.523 9.343 4.462 L 9.34 4.459 L 9.34 4.459 Z"/>
</svg>
