<svg xmlns="http://www.w3.org/2000/svg" width="16" height="16" version="1.1">
 <defs>
   <style id="current-color-scheme" type="text/css">
   .ColorScheme-Text { color: #00cce5; } .ColorScheme-Highlight { color:#5294e2; }
  </style>
  <linearGradient id="arrongin" x1="0%" x2="0%" y1="0%" y2="100%">
   <stop offset="0%" style="stop-color:#dd9b44; stop-opacity:1"/>
   <stop offset="100%" style="stop-color:#ad6c16; stop-opacity:1"/>
  </linearGradient>
  <linearGradient id="aurora" x1="0%" x2="0%" y1="0%" y2="100%">
   <stop offset="0%" style="stop-color:#09D4DF; stop-opacity:1"/>
   <stop offset="100%" style="stop-color:#9269F4; stop-opacity:1"/>
  </linearGradient>
  <linearGradient id="cyberneon" x1="0%" x2="0%" y1="0%" y2="100%">
    <stop offset="0" style="stop-color:#0abdc6; stop-opacity:1"/>
    <stop offset="1" style="stop-color:#ea00d9; stop-opacity:1"/>
  </linearGradient>
  <linearGradient id="fitdance" x1="0%" x2="0%" y1="0%" y2="100%">
   <stop offset="0%" style="stop-color:#1AD6AB; stop-opacity:1"/>
   <stop offset="100%" style="stop-color:#329DB6; stop-opacity:1"/>
  </linearGradient>
  <linearGradient id="oomox" x1="0%" x2="0%" y1="0%" y2="100%">
   <stop offset="0%" style="stop-color:#005aa5; stop-opacity:1"/>
   <stop offset="100%" style="stop-color:#8e59ff; stop-opacity:1"/>
  </linearGradient>
  <linearGradient id="rainblue" x1="0%" x2="0%" y1="0%" y2="100%">
   <stop offset="0%" style="stop-color:#00F260; stop-opacity:1"/>
   <stop offset="100%" style="stop-color:#0575E6; stop-opacity:1"/>
  </linearGradient>
  <linearGradient id="sunrise" x1="0%" x2="0%" y1="0%" y2="100%">
   <stop offset="0%" style="stop-color: #FF8501; stop-opacity:1"/>
   <stop offset="100%" style="stop-color: #FFCB01; stop-opacity:1"/>
  </linearGradient>
  <linearGradient id="telinkrin" x1="0%" x2="0%" y1="0%" y2="100%">
   <stop offset="0%" style="stop-color: #b2ced6; stop-opacity:1"/>
   <stop offset="100%" style="stop-color: #6da5b7; stop-opacity:1"/>
  </linearGradient>
  <linearGradient id="60spsycho" x1="0%" x2="0%" y1="0%" y2="100%">
   <stop offset="0%" style="stop-color: #df5940; stop-opacity:1"/>
   <stop offset="25%" style="stop-color: #d8d15f; stop-opacity:1"/>
   <stop offset="50%" style="stop-color: #e9882a; stop-opacity:1"/>
   <stop offset="100%" style="stop-color: #279362; stop-opacity:1"/>
  </linearGradient>
  <linearGradient id="90ssummer" x1="0%" x2="0%" y1="0%" y2="100%">
   <stop offset="0%" style="stop-color: #f618c7; stop-opacity:1"/>
   <stop offset="20%" style="stop-color: #94ffab; stop-opacity:1"/>
   <stop offset="50%" style="stop-color: #fbfd54; stop-opacity:1"/>
   <stop offset="100%" style="stop-color: #0f83ae; stop-opacity:1"/>
  </linearGradient>
 </defs>
 <path fill="url(#oomox)" class="ColorScheme-Text" d="M 5.18 1.48 C 5.164 1.479 5.155 1.487 5.14 1.49 C 5.119 1.492 5.091 1.494 5.07 1.5 C 5.065 1.501 5.065 1.497 5.06 1.5 C 5.059 1.5 5.051 1.509 5.05 1.51 C 1.725 2.585 0.42 5.341 0.1 6.15 L 8.75 6.15 C 9.011 5.831 9.666 5.83 9.92 5.83 C 10.174 5.83 10.829 5.831 11.09 6.15 L 15.75 6.15 L 5.3 1.51 C 5.262 1.492 5.222 1.482 5.18 1.48 L 5.18 1.48 Z M 7.02 2.98 L 8.62 3.69 C 8.526 3.997 8.001 4.23 7.36 4.23 C 6.653 4.23 6.08 3.943 6.08 3.59 C 6.08 3.296 6.479 3.055 7.02 2.98 Z M 0 6.79 L 0 13.68 C -0.003 13.903 0.085 14.119 0.243 14.277 C 0.401 14.435 0.616 14.523 0.84 14.52 C 0.854 14.52 0.875 14.521 0.89 14.52 C 0.898 14.52 0.901 14.521 0.91 14.52 L 15.14 13.45 C 15.615 13.414 16 13.006 16 12.53 L 16 10.35 C 16 10.214 15.909 10.084 15.78 10.04 C 15.772 10.036 15.04 9.781 15.04 9.2 C 15.04 8.619 15.774 8.352 15.78 8.35 C 15.91 8.308 15.999 8.187 16 8.05 L 16 6.79 L 11.15 6.79 C 11.007 7.341 10.515 7.75 9.92 7.75 C 9.325 7.75 8.833 7.341 8.69 6.79 L 0 6.79 Z M 3.52 7.75 C 4.404 7.75 5.12 8.324 5.12 9.03 C 5.12 9.736 4.404 10.31 3.52 10.31 C 2.636 10.31 1.92 9.736 1.92 9.03 C 1.92 8.324 2.636 7.75 3.52 7.75 Z M 12 9.99 C 12.619 9.99 13.12 10.42 13.12 10.95 C 13.12 11.478 12.619 11.91 12 11.91 C 11.382 11.91 10.88 11.478 10.88 10.95 C 10.88 10.42 11.382 9.99 12 9.99 Z M 7.68 10.63 C 8.741 10.63 9.6 11.379 9.6 12.3 C 9.6 12.655 9.469 12.98 9.25 13.25 L 6.32 13.47 C 5.975 13.167 5.76 12.758 5.76 12.3 C 5.76 11.378 6.62 10.63 7.68 10.63 Z"/>
</svg>
