<svg xmlns="http://www.w3.org/2000/svg" width="16" height="16" version="1.1">
 <defs>
   <style id="current-color-scheme" type="text/css">
   .ColorScheme-Text { color: #00cce5; } .ColorScheme-Highlight { color:#5294e2; }
  </style>
  <linearGradient id="arrongin" x1="0%" x2="0%" y1="0%" y2="100%">
   <stop offset="0%" style="stop-color:#dd9b44; stop-opacity:1"/>
   <stop offset="100%" style="stop-color:#ad6c16; stop-opacity:1"/>
  </linearGradient>
  <linearGradient id="aurora" x1="0%" x2="0%" y1="0%" y2="100%">
   <stop offset="0%" style="stop-color:#09D4DF; stop-opacity:1"/>
   <stop offset="100%" style="stop-color:#9269F4; stop-opacity:1"/>
  </linearGradient>
  <linearGradient id="cyberneon" x1="0%" x2="0%" y1="0%" y2="100%">
    <stop offset="0" style="stop-color:#0abdc6; stop-opacity:1"/>
    <stop offset="1" style="stop-color:#ea00d9; stop-opacity:1"/>
  </linearGradient>
  <linearGradient id="fitdance" x1="0%" x2="0%" y1="0%" y2="100%">
   <stop offset="0%" style="stop-color:#1AD6AB; stop-opacity:1"/>
   <stop offset="100%" style="stop-color:#329DB6; stop-opacity:1"/>
  </linearGradient>
  <linearGradient id="oomox" x1="0%" x2="0%" y1="0%" y2="100%">
   <stop offset="0%" style="stop-color:#005aa5; stop-opacity:1"/>
   <stop offset="100%" style="stop-color:#8e59ff; stop-opacity:1"/>
  </linearGradient>
  <linearGradient id="rainblue" x1="0%" x2="0%" y1="0%" y2="100%">
   <stop offset="0%" style="stop-color:#00F260; stop-opacity:1"/>
   <stop offset="100%" style="stop-color:#0575E6; stop-opacity:1"/>
  </linearGradient>
  <linearGradient id="sunrise" x1="0%" x2="0%" y1="0%" y2="100%">
   <stop offset="0%" style="stop-color: #FF8501; stop-opacity:1"/>
   <stop offset="100%" style="stop-color: #FFCB01; stop-opacity:1"/>
  </linearGradient>
  <linearGradient id="telinkrin" x1="0%" x2="0%" y1="0%" y2="100%">
   <stop offset="0%" style="stop-color: #b2ced6; stop-opacity:1"/>
   <stop offset="100%" style="stop-color: #6da5b7; stop-opacity:1"/>
  </linearGradient>
  <linearGradient id="60spsycho" x1="0%" x2="0%" y1="0%" y2="100%">
   <stop offset="0%" style="stop-color: #df5940; stop-opacity:1"/>
   <stop offset="25%" style="stop-color: #d8d15f; stop-opacity:1"/>
   <stop offset="50%" style="stop-color: #e9882a; stop-opacity:1"/>
   <stop offset="100%" style="stop-color: #279362; stop-opacity:1"/>
  </linearGradient>
  <linearGradient id="90ssummer" x1="0%" x2="0%" y1="0%" y2="100%">
   <stop offset="0%" style="stop-color: #f618c7; stop-opacity:1"/>
   <stop offset="20%" style="stop-color: #94ffab; stop-opacity:1"/>
   <stop offset="50%" style="stop-color: #fbfd54; stop-opacity:1"/>
   <stop offset="100%" style="stop-color: #0f83ae; stop-opacity:1"/>
  </linearGradient>
 </defs>
 <path fill="url(#oomox)" class="ColorScheme-Text" d="M 15.752 0 C 15.722 0 15.664 0.002 15.602 0.006 C 15.519 0.011 15.446 0.015 15.44 0.015 C 15.433 0.015 15.403 0.051 15.372 0.095 C 15.341 0.139 15.309 0.179 15.3 0.183 C 15.292 0.188 15.238 0.209 15.182 0.23 C 15.086 0.265 15.076 0.267 15.042 0.259 C 14.996 0.247 14.929 0.251 14.347 0.297 L 14.077 0.318 L 13.943 0.445 C 13.869 0.514 13.804 0.577 13.799 0.584 C 13.793 0.59 13.752 0.608 13.706 0.623 C 13.543 0.676 13.408 0.754 13.313 0.85 C 13.246 0.918 13.224 0.954 13.17 1.083 C 13.147 1.137 13.127 1.183 13.125 1.185 C 13.123 1.187 13.089 1.168 13.05 1.143 C 12.839 1.006 12.634 0.943 12.402 0.943 C 12.077 0.943 11.786 1.031 11.567 1.195 C 11.354 1.354 11.18 1.553 11.081 1.749 C 11.043 1.824 11.004 1.978 10.985 2.124 C 10.966 2.277 10.971 2.53 10.997 2.649 C 11.041 2.852 11.21 3.226 11.399 3.538 C 11.623 3.908 11.806 4.142 12.249 4.623 C 12.42 4.809 12.457 4.848 12.814 5.214 C 13.092 5.499 13.183 5.606 13.3 5.783 C 13.553 6.169 13.685 6.537 13.646 6.75 C 13.625 6.86 13.552 6.972 13.448 7.049 C 13.379 7.101 13.223 7.18 13.132 7.208 C 13.055 7.232 12.959 7.251 12.951 7.244 C 12.949 7.241 12.961 7.183 12.978 7.115 C 13.033 6.892 13.054 6.693 13.042 6.5 C 13.021 6.168 12.889 5.835 12.695 5.625 C 12.542 5.459 12.265 5.274 12.063 5.203 C 11.945 5.161 11.881 5.152 11.746 5.157 C 11.599 5.162 11.52 5.18 11.415 5.232 C 11.28 5.298 11.215 5.39 11.215 5.509 C 11.216 5.563 11.219 5.58 11.24 5.619 C 11.272 5.677 11.328 5.734 11.375 5.754 C 11.395 5.763 11.449 5.774 11.496 5.779 C 11.612 5.791 11.701 5.815 11.8 5.863 C 11.897 5.909 11.965 5.958 12.053 6.044 C 12.16 6.149 12.218 6.254 12.251 6.399 C 12.27 6.481 12.27 6.659 12.251 6.735 C 12.232 6.811 12.189 6.92 12.168 6.948 L 12.15 6.971 L 11.987 6.812 C 11.772 6.602 11.477 6.326 11.394 6.256 C 11.096 6.008 10.792 5.833 10.548 5.77 C 10.509 5.759 10.472 5.747 10.467 5.742 C 10.461 5.737 10.453 5.702 10.447 5.665 C 10.4 5.356 10.263 5.001 10.095 4.751 C 9.996 4.603 9.911 4.503 9.738 4.331 C 9.486 4.08 9.249 3.904 8.999 3.782 L 8.872 3.72 L 8.847 3.633 C 8.775 3.372 8.635 3.091 8.47 2.872 C 8.393 2.769 8.228 2.599 8.13 2.521 C 7.87 2.315 7.585 2.195 7.227 2.14 C 7.079 2.118 6.779 2.11 6.631 2.124 C 6.332 2.154 6.079 2.242 5.893 2.381 C 5.519 2.661 5.182 3.14 5.031 3.606 C 4.91 3.978 4.496 5.654 4.284 6.633 C 4.256 6.759 4.23 6.816 4.148 6.931 C 4.067 7.043 3.997 7.116 3.933 7.155 C 3.89 7.181 3.879 7.184 3.824 7.183 C 3.751 7.183 3.68 7.154 3.651 7.114 C 3.6 7.043 3.577 6.911 3.585 6.725 C 3.59 6.597 3.6 6.527 3.655 6.248 C 3.714 5.946 3.661 5.726 3.486 5.545 C 3.4 5.456 3.266 5.378 3.141 5.344 C 3.061 5.322 2.904 5.324 2.816 5.347 C 2.578 5.411 2.386 5.555 2.259 5.767 C 2.236 5.804 2.209 5.855 2.199 5.881 C 2.166 5.959 2.165 5.959 2.109 5.875 C 2.082 5.834 2.033 5.774 2 5.741 C 1.94 5.682 1.94 5.682 1.826 5.645 C 1.763 5.625 1.682 5.594 1.647 5.576 C 1.56 5.533 1.49 5.511 1.403 5.5 C 1.362 5.495 1.239 5.476 1.129 5.458 C 0.939 5.427 0.925 5.424 0.839 5.383 C 0.739 5.337 0.749 5.347 0.646 5.187 C 0.581 5.086 0.534 5.044 0.466 5.028 C 0.337 4.997 0.177 5.117 0.165 5.256 C 0.161 5.302 0.158 5.309 0.135 5.32 C 0.092 5.343 0.042 5.394 0.021 5.437 C -0.033 5.554 0.022 5.714 0.134 5.764 C 0.162 5.776 0.383 5.813 0.43 5.813 C 0.436 5.813 0.479 5.841 0.525 5.875 C 0.606 5.935 0.609 5.939 0.68 6.054 C 0.72 6.119 0.772 6.195 0.796 6.223 C 0.82 6.252 0.848 6.29 0.857 6.309 C 0.887 6.367 0.974 6.475 1.024 6.516 C 1.05 6.537 1.087 6.577 1.108 6.604 C 1.21 6.742 1.33 6.801 1.562 6.826 L 1.658 6.837 L 1.727 6.886 C 1.823 6.955 1.949 7.016 2.051 7.042 C 2.165 7.071 2.289 7.067 2.414 7.03 C 2.459 7.017 2.498 7.008 2.5 7.011 C 2.502 7.014 2.507 7.061 2.513 7.117 C 2.546 7.478 2.696 7.773 2.964 8.004 C 3.199 8.208 3.38 8.291 3.697 8.342 C 3.809 8.36 4.031 8.362 4.129 8.346 C 4.31 8.317 4.532 8.216 4.71 8.083 C 4.92 7.925 5.12 7.652 5.33 7.235 C 5.551 6.798 5.667 6.446 5.822 5.754 C 5.9 5.405 5.976 5.013 6.022 4.718 C 6.038 4.613 6.063 4.48 6.077 4.422 C 6.152 4.119 6.286 3.842 6.471 3.606 C 6.54 3.518 6.681 3.384 6.735 3.355 C 6.859 3.289 7.033 3.291 7.187 3.361 C 7.246 3.388 7.536 3.602 7.534 3.617 C 7.533 3.623 7.484 3.647 7.426 3.67 C 7.175 3.77 6.966 3.904 6.803 4.069 C 6.62 4.255 6.477 4.484 6.4 4.713 C 6.357 4.842 6.347 4.913 6.347 5.085 C 6.347 5.291 6.373 5.445 6.432 5.598 C 6.515 5.812 6.693 5.989 6.894 6.059 C 7.013 6.1 7.097 6.087 7.17 6.017 C 7.234 5.954 7.265 5.872 7.253 5.793 C 7.249 5.772 7.228 5.724 7.204 5.681 C 7.121 5.539 7.079 5.409 7.072 5.276 C 7.064 5.146 7.102 4.954 7.158 4.839 C 7.193 4.767 7.278 4.671 7.365 4.606 C 7.474 4.524 7.64 4.453 7.754 4.44 L 7.802 4.435 L 7.796 4.513 C 7.79 4.595 7.786 4.621 7.72 4.986 C 7.699 5.104 7.675 5.245 7.669 5.298 C 7.613 5.726 7.639 6.146 7.737 6.399 C 7.739 6.405 7.716 6.427 7.683 6.45 C 7.373 6.668 7.094 6.993 6.926 7.336 C 6.73 7.733 6.611 8.195 6.611 8.557 L 6.611 8.663 L 6.546 8.717 C 6.454 8.793 6.322 8.926 6.243 9.024 C 5.93 9.411 5.775 9.854 5.791 10.316 C 5.798 10.526 5.825 10.666 5.901 10.89 C 6.04 11.299 6.249 11.613 6.514 11.812 C 6.593 11.871 6.851 11.997 6.992 12.046 C 7.289 12.147 7.596 12.193 7.894 12.182 C 8.033 12.177 8.05 12.174 9.039 11.987 C 9.592 11.882 10.294 11.749 10.599 11.691 C 10.905 11.633 11.193 11.577 11.24 11.567 C 11.451 11.522 11.691 11.573 11.827 11.692 C 11.896 11.752 11.934 11.849 11.92 11.927 C 11.908 11.989 11.799 12.082 11.665 12.143 C 11.543 12.199 11.427 12.232 11.189 12.278 C 11.006 12.313 10.973 12.323 10.879 12.372 C 10.694 12.468 10.543 12.642 10.496 12.815 C 10.473 12.902 10.47 13.083 10.491 13.16 C 10.554 13.393 10.726 13.584 10.964 13.689 C 11.095 13.746 11.279 13.78 11.398 13.768 C 11.43 13.765 11.457 13.766 11.46 13.77 C 11.462 13.775 11.446 13.809 11.423 13.847 C 11.4 13.885 11.369 13.945 11.354 13.981 C 11.321 14.058 11.32 14.073 11.335 14.333 C 11.346 14.513 11.36 14.596 11.396 14.689 C 11.406 14.713 11.417 14.766 11.423 14.807 C 11.439 14.937 11.454 15.008 11.476 15.062 L 11.497 15.114 L 11.487 15.248 L 11.477 15.381 L 11.407 15.49 C 11.332 15.608 11.312 15.655 11.312 15.707 C 11.312 15.768 11.33 15.807 11.38 15.857 C 11.459 15.936 11.556 15.97 11.642 15.95 C 11.682 15.94 11.688 15.941 11.716 15.958 C 11.732 15.969 11.762 15.982 11.782 15.988 L 11.782 15.988 C 11.847 16.008 11.904 16.003 11.97 15.972 C 12.042 15.937 12.088 15.893 12.116 15.833 C 12.147 15.767 12.14 15.697 12.093 15.574 L 12.057 15.481 L 12.081 15.325 C 12.104 15.171 12.105 15.168 12.135 15.135 C 12.182 15.084 12.201 15.053 12.228 14.989 C 12.241 14.957 12.277 14.898 12.307 14.859 C 12.371 14.776 12.433 14.657 12.458 14.571 C 12.468 14.538 12.497 14.456 12.523 14.389 L 12.57 14.268 L 12.566 14.186 C 12.562 14.123 12.554 14.084 12.529 14.009 L 12.497 13.913 L 12.511 13.794 C 12.528 13.657 12.529 13.593 12.517 13.493 C 12.498 13.342 12.45 13.227 12.361 13.118 C 12.33 13.081 12.305 13.045 12.305 13.038 C 12.305 13.03 12.338 13.007 12.382 12.983 C 12.537 12.897 12.708 12.751 12.819 12.61 C 12.987 12.396 13.099 11.989 13.07 11.697 C 13.045 11.446 12.97 11.219 12.854 11.044 C 12.727 10.851 12.526 10.679 12.292 10.563 C 12.104 10.469 11.918 10.424 11.571 10.386 C 11.435 10.371 10.905 10.371 10.752 10.386 C 10.281 10.431 9.692 10.548 9.068 10.721 C 8.96 10.751 8.821 10.786 8.757 10.8 C 8.628 10.829 7.919 10.921 7.835 10.92 C 7.778 10.92 7.597 10.892 7.515 10.872 C 7.344 10.829 7.199 10.763 7.136 10.699 C 7.091 10.652 7.026 10.53 7.007 10.454 C 7 10.429 6.992 10.378 6.989 10.343 C 6.983 10.282 6.986 10.266 7.032 10.08 C 7.06 9.97 7.085 9.881 7.089 9.881 C 7.094 9.881 7.13 9.912 7.17 9.95 C 7.499 10.253 7.914 10.389 8.256 10.418 C 8.717 10.432 9.313 10.223 9.509 9.864 C 9.633 9.624 9.635 9.383 9.513 9.27 C 9.465 9.225 9.409 9.206 9.326 9.206 C 9.228 9.206 9.159 9.243 9.109 9.323 C 9.05 9.415 9.033 9.437 8.98 9.49 C 8.885 9.584 8.732 9.664 8.576 9.704 C 8.476 9.73 8.33 9.732 8.249 9.709 C 8.172 9.687 8.045 9.627 7.983 9.582 C 7.895 9.52 7.757 9.361 7.754 9.317 C 7.752 9.302 7.989 9.228 8.303 9.146 C 8.623 9.063 8.831 8.987 9.065 8.872 C 9.289 8.76 9.428 8.666 9.573 8.525 C 9.623 8.477 9.667 8.438 9.672 8.438 C 9.677 8.438 9.706 8.449 9.736 8.462 C 9.882 8.527 10.134 8.601 10.311 8.631 C 10.548 8.671 10.736 8.674 10.965 8.64 C 11.387 8.579 11.741 8.465 12.036 8.295 C 12.077 8.271 12.116 8.252 12.123 8.252 C 12.129 8.252 12.191 8.271 12.26 8.294 C 12.485 8.368 12.675 8.402 12.911 8.41 C 13.25 8.421 13.557 8.358 13.839 8.218 C 14.045 8.116 14.172 8.023 14.33 7.861 C 14.616 7.568 14.82 7.232 14.902 6.924 C 14.94 6.78 14.948 6.69 14.936 6.537 C 14.899 6.04 14.716 5.569 14.399 5.152 C 14.128 4.796 13.503 4.076 12.755 3.26 C 12.485 2.966 12.492 2.974 12.39 2.85 C 12.26 2.692 12.21 2.576 12.186 2.379 C 12.167 2.222 12.218 2.107 12.327 2.065 C 12.452 2.016 12.711 2.17 12.937 2.429 C 13.114 2.631 13.194 2.701 13.327 2.766 C 13.561 2.881 13.79 2.875 14.016 2.748 C 14.116 2.692 14.226 2.58 14.272 2.487 C 14.325 2.38 14.35 2.271 14.356 2.129 C 14.363 1.923 14.322 1.763 14.213 1.574 C 14.197 1.548 14.187 1.524 14.189 1.522 C 14.192 1.519 14.27 1.513 14.363 1.508 C 14.526 1.499 14.534 1.498 14.583 1.473 C 14.611 1.459 14.655 1.433 14.681 1.415 C 14.706 1.397 14.764 1.358 14.808 1.328 C 14.898 1.267 14.973 1.198 15.052 1.101 C 15.093 1.052 15.119 1.029 15.158 1.009 C 15.226 0.973 15.282 0.917 15.313 0.854 L 15.338 0.804 L 15.427 0.773 C 15.512 0.743 15.522 0.741 15.628 0.741 C 15.797 0.74 15.871 0.72 15.933 0.659 C 15.986 0.606 16 0.569 16 0.479 C 16 0.387 15.986 0.348 15.929 0.283 C 15.902 0.253 15.896 0.238 15.891 0.196 C 15.881 0.109 15.822 0.014 15.771 0.001 C 15.768 0 15.762 0 15.752 0 L 15.752 0 Z M 8.645 4.416 C 8.652 4.415 8.665 4.424 8.695 4.446 C 8.843 4.56 8.993 4.713 9.112 4.871 C 9.357 5.197 9.484 5.57 9.468 5.914 C 9.46 6.086 9.417 6.21 9.332 6.307 C 9.261 6.388 9.178 6.415 9.074 6.391 C 8.875 6.347 8.731 6.194 8.662 5.955 C 8.594 5.723 8.575 5.243 8.617 4.825 C 8.625 4.753 8.631 4.636 8.631 4.564 C 8.631 4.492 8.634 4.427 8.639 4.421 C 8.64 4.418 8.642 4.417 8.645 4.416 L 8.645 4.416 Z M 10.181 6.734 C 10.295 6.735 10.42 6.767 10.553 6.83 C 10.687 6.894 11.002 7.113 11.253 7.316 C 11.467 7.49 11.652 7.648 11.649 7.656 C 11.643 7.675 11.443 7.726 11.276 7.751 C 11.193 7.763 10.857 7.773 10.782 7.766 C 10.684 7.756 10.511 7.725 10.431 7.703 C 10.211 7.641 9.958 7.483 9.848 7.339 C 9.778 7.247 9.725 7.115 9.725 7.034 C 9.726 6.993 9.761 6.928 9.807 6.881 C 9.906 6.782 10.034 6.733 10.181 6.734 L 10.181 6.734 Z M 8.631 7.132 C 8.641 7.132 8.652 7.133 8.662 7.133 C 8.784 7.143 8.882 7.177 8.929 7.228 C 8.975 7.277 8.992 7.404 8.966 7.506 C 8.88 7.836 8.462 8.149 7.744 8.423 C 7.62 8.47 7.418 8.531 7.384 8.531 C 7.376 8.531 7.375 8.522 7.379 8.5 C 7.401 8.381 7.477 8.182 7.562 8.017 C 7.768 7.62 8.059 7.326 8.377 7.192 C 8.474 7.151 8.556 7.132 8.631 7.132 L 8.631 7.132 Z"/>
</svg>
