<svg xmlns="http://www.w3.org/2000/svg" width="16" height="16" version="1.1">
 <defs>
   <style id="current-color-scheme" type="text/css">
   .ColorScheme-Text { color: #00cce5; } .ColorScheme-Highlight { color:#5294e2; }
  </style>
  <linearGradient id="arrongin" x1="0%" x2="0%" y1="0%" y2="100%">
   <stop offset="0%" style="stop-color:#dd9b44; stop-opacity:1"/>
   <stop offset="100%" style="stop-color:#ad6c16; stop-opacity:1"/>
  </linearGradient>
  <linearGradient id="aurora" x1="0%" x2="0%" y1="0%" y2="100%">
   <stop offset="0%" style="stop-color:#09D4DF; stop-opacity:1"/>
   <stop offset="100%" style="stop-color:#9269F4; stop-opacity:1"/>
  </linearGradient>
  <linearGradient id="cyberneon" x1="0%" x2="0%" y1="0%" y2="100%">
    <stop offset="0" style="stop-color:#0abdc6; stop-opacity:1"/>
    <stop offset="1" style="stop-color:#ea00d9; stop-opacity:1"/>
  </linearGradient>
  <linearGradient id="fitdance" x1="0%" x2="0%" y1="0%" y2="100%">
   <stop offset="0%" style="stop-color:#1AD6AB; stop-opacity:1"/>
   <stop offset="100%" style="stop-color:#329DB6; stop-opacity:1"/>
  </linearGradient>
  <linearGradient id="oomox" x1="0%" x2="0%" y1="0%" y2="100%">
   <stop offset="0%" style="stop-color:#005aa5; stop-opacity:1"/>
   <stop offset="100%" style="stop-color:#8e59ff; stop-opacity:1"/>
  </linearGradient>
  <linearGradient id="rainblue" x1="0%" x2="0%" y1="0%" y2="100%">
   <stop offset="0%" style="stop-color:#00F260; stop-opacity:1"/>
   <stop offset="100%" style="stop-color:#0575E6; stop-opacity:1"/>
  </linearGradient>
  <linearGradient id="sunrise" x1="0%" x2="0%" y1="0%" y2="100%">
   <stop offset="0%" style="stop-color: #FF8501; stop-opacity:1"/>
   <stop offset="100%" style="stop-color: #FFCB01; stop-opacity:1"/>
  </linearGradient>
  <linearGradient id="telinkrin" x1="0%" x2="0%" y1="0%" y2="100%">
   <stop offset="0%" style="stop-color: #b2ced6; stop-opacity:1"/>
   <stop offset="100%" style="stop-color: #6da5b7; stop-opacity:1"/>
  </linearGradient>
  <linearGradient id="60spsycho" x1="0%" x2="0%" y1="0%" y2="100%">
   <stop offset="0%" style="stop-color: #df5940; stop-opacity:1"/>
   <stop offset="25%" style="stop-color: #d8d15f; stop-opacity:1"/>
   <stop offset="50%" style="stop-color: #e9882a; stop-opacity:1"/>
   <stop offset="100%" style="stop-color: #279362; stop-opacity:1"/>
  </linearGradient>
  <linearGradient id="90ssummer" x1="0%" x2="0%" y1="0%" y2="100%">
   <stop offset="0%" style="stop-color: #f618c7; stop-opacity:1"/>
   <stop offset="20%" style="stop-color: #94ffab; stop-opacity:1"/>
   <stop offset="50%" style="stop-color: #fbfd54; stop-opacity:1"/>
   <stop offset="100%" style="stop-color: #0f83ae; stop-opacity:1"/>
  </linearGradient>
 </defs>
 <path fill="url(#oomox)" class="ColorScheme-Text" d="M 3.294 0.389 C 3.294 0.389 2.503 0.389 1.621 0.807 L 1.621 0.805 C 0.946 1.126 0.378 1.593 0.105 1.976 C 0.024 2.081 0.007 2.223 0.06 2.343 C -0.036 2.488 -0.015 2.68 0.109 2.801 C 0.232 2.922 0.424 2.939 0.567 2.841 C 0.71 2.743 0.763 2.557 0.694 2.398 C 0.825 2.216 1.383 1.723 1.933 1.462 C 2.666 1.114 3.294 1.114 3.294 1.114 C 3.424 1.116 3.546 1.048 3.612 0.934 C 3.678 0.821 3.678 0.682 3.612 0.569 C 3.546 0.456 3.424 0.387 3.294 0.389 Z M 10.509 0.736 C 9.517 0.73 8.526 0.789 7.543 0.913 C 6.053 1.105 4.708 1.401 3.43 1.819 C 1.258 2.526 0.538 3.357 0.268 3.668 L 0.243 3.698 C -0.293 4.312 0.388 6.5 0.394 6.521 C 0.556 7.017 0.966 7.267 1.33 7.267 C 1.403 7.267 1.474 7.257 1.541 7.237 C 1.677 7.196 2.212 6.983 3.013 6.666 C 3.407 6.508 3.756 6.369 3.869 6.328 C 4.178 6.215 4.412 5.889 4.493 5.458 C 4.532 5.257 4.752 4.337 4.894 3.752 C 5.264 3.603 6.29 3.238 7.826 3.039 C 9.361 2.841 10.449 2.919 10.845 2.959 C 11.25 3.641 11.835 4.626 11.862 4.667 C 12.058 4.966 12.316 5.142 12.589 5.163 C 12.713 5.173 13.114 5.224 13.557 5.279 C 14.374 5.382 14.919 5.448 15.074 5.453 C 15.472 5.46 15.959 5.088 15.995 4.469 C 15.996 4.446 16.091 2.204 15.414 1.745 C 15.414 1.745 15.347 1.7 15.309 1.676 C 14.888 1.401 13.814 0.809 11.29 0.747 C 11.029 0.74 10.769 0.736 10.509 0.736 L 10.509 0.736 Z M 5.842 4.727 C 5.642 4.727 5.479 4.89 5.479 5.09 L 5.479 6.021 C 5.112 6.373 3.916 7.539 2.483 9.207 C 1.281 10.606 1.122 11.583 1.125 12.356 C 1.128 13.035 1.478 15.213 1.494 15.305 C 1.521 15.481 1.672 15.612 1.851 15.611 L 3.665 15.611 C 3.865 15.611 4.028 15.448 4.028 15.248 L 4.028 14.886 L 12.735 14.886 L 12.735 15.248 C 12.735 15.448 12.898 15.611 13.098 15.611 L 14.912 15.611 C 15.091 15.611 15.242 15.482 15.269 15.305 C 15.285 15.213 15.636 13.03 15.638 12.346 C 15.639 11.578 15.48 10.603 14.28 9.207 C 12.847 7.539 11.651 6.372 11.284 6.021 L 11.284 5.09 C 11.284 4.89 11.121 4.727 10.921 4.727 L 9.833 4.727 C 9.633 4.727 9.47 4.89 9.47 5.09 L 9.47 5.815 L 7.293 5.815 L 7.293 5.09 C 7.293 4.89 7.13 4.727 6.93 4.727 L 5.842 4.727 Z M 12.734 5.831 C 12.579 5.83 12.441 5.926 12.389 6.072 C 12.337 6.218 12.384 6.38 12.503 6.477 C 12.82 6.739 13.271 6.871 13.801 6.904 C 14.439 6.942 14.736 6.868 15.06 6.745 C 15.236 6.665 15.319 6.462 15.249 6.282 C 15.18 6.101 14.981 6.007 14.797 6.066 C 14.497 6.183 14.433 6.215 13.846 6.178 C 13.424 6.153 13.088 6.019 12.966 5.917 C 12.902 5.862 12.819 5.831 12.734 5.831 L 12.734 5.831 Z M 5.479 7.992 L 6.93 7.992 L 6.93 8.718 L 5.479 8.718 L 5.479 7.992 Z M 7.656 7.992 L 9.107 7.992 L 9.107 8.718 L 7.656 8.718 L 7.656 7.992 Z M 9.833 7.992 L 11.284 7.992 L 11.284 8.718 L 9.833 8.718 L 9.833 7.992 Z M 5.479 9.443 L 6.93 9.443 L 6.93 10.169 L 5.479 10.169 L 5.479 9.443 Z M 7.656 9.443 L 9.107 9.443 L 9.107 10.169 L 7.656 10.169 L 7.656 9.443 Z M 9.833 9.443 L 11.284 9.443 L 11.284 10.169 L 9.833 10.169 L 9.833 9.443 Z M 5.479 10.895 L 6.93 10.895 L 6.93 11.62 L 5.479 11.62 L 5.479 10.895 Z M 7.656 10.895 L 9.107 10.895 L 9.107 11.62 L 7.656 11.62 L 7.656 10.895 Z M 9.833 10.895 L 11.284 10.895 L 11.284 11.62 L 9.833 11.62 L 9.833 10.895 Z"/>
</svg>
