<svg xmlns="http://www.w3.org/2000/svg" width="16" height="16" version="1.1">
 <defs>
   <style id="current-color-scheme" type="text/css">
   .ColorScheme-Text { color: #00cce5; } .ColorScheme-Highlight { color:#5294e2; }
  </style>
  <linearGradient id="arrongin" x1="0%" x2="0%" y1="0%" y2="100%">
   <stop offset="0%" style="stop-color:#dd9b44; stop-opacity:1"/>
   <stop offset="100%" style="stop-color:#ad6c16; stop-opacity:1"/>
  </linearGradient>
  <linearGradient id="aurora" x1="0%" x2="0%" y1="0%" y2="100%">
   <stop offset="0%" style="stop-color:#09D4DF; stop-opacity:1"/>
   <stop offset="100%" style="stop-color:#9269F4; stop-opacity:1"/>
  </linearGradient>
  <linearGradient id="cyberneon" x1="0%" x2="0%" y1="0%" y2="100%">
    <stop offset="0" style="stop-color:#0abdc6; stop-opacity:1"/>
    <stop offset="1" style="stop-color:#ea00d9; stop-opacity:1"/>
  </linearGradient>
  <linearGradient id="fitdance" x1="0%" x2="0%" y1="0%" y2="100%">
   <stop offset="0%" style="stop-color:#1AD6AB; stop-opacity:1"/>
   <stop offset="100%" style="stop-color:#329DB6; stop-opacity:1"/>
  </linearGradient>
  <linearGradient id="oomox" x1="0%" x2="0%" y1="0%" y2="100%">
   <stop offset="0%" style="stop-color:#005aa5; stop-opacity:1"/>
   <stop offset="100%" style="stop-color:#8e59ff; stop-opacity:1"/>
  </linearGradient>
  <linearGradient id="rainblue" x1="0%" x2="0%" y1="0%" y2="100%">
   <stop offset="0%" style="stop-color:#00F260; stop-opacity:1"/>
   <stop offset="100%" style="stop-color:#0575E6; stop-opacity:1"/>
  </linearGradient>
  <linearGradient id="sunrise" x1="0%" x2="0%" y1="0%" y2="100%">
   <stop offset="0%" style="stop-color: #FF8501; stop-opacity:1"/>
   <stop offset="100%" style="stop-color: #FFCB01; stop-opacity:1"/>
  </linearGradient>
  <linearGradient id="telinkrin" x1="0%" x2="0%" y1="0%" y2="100%">
   <stop offset="0%" style="stop-color: #b2ced6; stop-opacity:1"/>
   <stop offset="100%" style="stop-color: #6da5b7; stop-opacity:1"/>
  </linearGradient>
  <linearGradient id="60spsycho" x1="0%" x2="0%" y1="0%" y2="100%">
   <stop offset="0%" style="stop-color: #df5940; stop-opacity:1"/>
   <stop offset="25%" style="stop-color: #d8d15f; stop-opacity:1"/>
   <stop offset="50%" style="stop-color: #e9882a; stop-opacity:1"/>
   <stop offset="100%" style="stop-color: #279362; stop-opacity:1"/>
  </linearGradient>
  <linearGradient id="90ssummer" x1="0%" x2="0%" y1="0%" y2="100%">
   <stop offset="0%" style="stop-color: #f618c7; stop-opacity:1"/>
   <stop offset="20%" style="stop-color: #94ffab; stop-opacity:1"/>
   <stop offset="50%" style="stop-color: #fbfd54; stop-opacity:1"/>
   <stop offset="100%" style="stop-color: #0f83ae; stop-opacity:1"/>
  </linearGradient>
 </defs>
 <path fill="url(#oomox)" class="ColorScheme-Text" d="M 8 0 C 7.329 0 6.78 0.372 6.419 0.88 C 6.182 0.778 5.944 0.667 5.667 0.667 C 4.918 0.667 4.283 1.095 3.941 1.708 C 3.85 1.693 3.767 1.667 3.667 1.667 C 2.567 1.667 1.667 2.567 1.667 3.667 C 1.667 3.717 1.68 3.762 1.683 3.811 C 0.905 4.085 0.333 4.798 0.333 5.667 C 0.333 6.023 0.451 6.342 0.615 6.63 C 0.258 6.99 0 7.453 0 8 C 0 8.62 0.318 9.139 0.76 9.505 C 0.717 9.665 0.667 9.823 0.667 10 C 0.667 10.868 1.238 11.582 2.017 11.855 C 2.013 11.905 2 11.949 2 12 C 2 13.1 2.9 14 4 14 L 4.005 14 C 4.357 14.577 4.944 15 5.667 15 C 5.872 15 6.047 14.921 6.23 14.861 C 6.555 15.526 7.212 16 8 16 C 8.788 16 9.445 15.526 9.77 14.861 C 9.953 14.921 10.128 15 10.333 15 C 11.056 15 11.643 14.577 11.995 14 L 12 14 C 13.1 14 14 13.1 14 12 C 14 11.949 13.987 11.905 13.983 11.855 C 14.761 11.582 15.333 10.869 15.333 10 C 15.333 9.823 15.283 9.665 15.24 9.505 C 15.682 9.139 16 8.62 16 8 C 16 7.453 15.742 6.99 15.385 6.63 C 15.549 6.342 15.667 6.023 15.667 5.667 C 15.667 4.918 15.238 4.283 14.625 3.941 C 14.641 3.85 14.667 3.767 14.667 3.667 C 14.667 2.567 13.767 1.667 12.667 1.667 C 12.567 1.667 12.483 1.693 12.392 1.708 C 12.051 1.095 11.415 0.667 10.667 0.667 C 10.299 0.667 9.975 0.794 9.682 0.966 C 9.331 0.395 8.719 0 8 0 Z M 8 0.667 C 8.578 0.667 9.059 1.033 9.246 1.544 L 9.417 2.005 L 9.783 1.677 C 10.024 1.456 10.339 1.334 10.667 1.333 C 11.218 1.333 11.711 1.674 11.906 2.189 L 12.016 2.471 L 12.307 2.391 C 12.433 2.355 12.551 2.333 12.667 2.333 C 13.406 2.333 14 2.927 14 3.667 C 14 3.783 13.978 3.9 13.943 4.026 L 13.863 4.318 L 14.145 4.427 C 14.66 4.622 15 5.116 15 5.667 C 15 5.967 14.897 6.24 14.725 6.466 L 14.523 6.734 L 14.792 6.934 C 15.121 7.18 15.333 7.561 15.333 8 C 15.333 8.477 15.083 8.888 14.708 9.125 L 14.478 9.271 L 14.574 9.526 C 14.633 9.678 14.667 9.836 14.667 10 C 14.668 10.646 14.203 11.199 13.567 11.309 L 13.223 11.37 L 13.298 11.71 C 13.32 11.807 13.333 11.904 13.333 12 C 13.333 12.74 12.74 13.333 12 13.333 C 12.003 13.333 11.97 13.327 11.891 13.322 L 11.654 13.303 L 11.56 13.522 C 11.351 14.014 10.868 14.334 10.333 14.333 C 10.121 14.333 9.923 14.28 9.738 14.186 L 9.384 14.006 L 9.268 14.385 C 9.102 14.934 8.603 15.333 8 15.333 C 7.397 15.333 6.898 14.933 6.732 14.385 L 6.616 14.007 L 6.262 14.186 C 6.078 14.282 5.874 14.332 5.667 14.333 C 5.132 14.334 4.649 14.014 4.44 13.522 L 4.347 13.303 L 4.109 13.322 C 4.073 13.323 4.036 13.327 4 13.333 C 3.26 13.333 2.667 12.74 2.667 12 C 2.667 11.903 2.68 11.807 2.701 11.71 L 2.777 11.37 L 2.434 11.309 C 1.797 11.199 1.332 10.646 1.333 10 C 1.333 9.836 1.367 9.678 1.424 9.526 L 1.523 9.271 L 1.292 9.125 C 0.903 8.883 0.667 8.458 0.667 8 C 0.667 7.561 0.879 7.18 1.208 6.933 L 1.477 6.734 L 1.273 6.466 C 1.097 6.237 1.001 5.956 1 5.667 C 0.999 5.021 1.463 4.468 2.1 4.358 L 2.444 4.297 L 2.367 3.957 C 2.346 3.862 2.334 3.764 2.333 3.667 C 2.333 2.927 2.927 2.333 3.667 2.333 C 3.783 2.333 3.9 2.355 4.026 2.391 L 4.318 2.471 L 4.427 2.189 C 4.622 1.674 5.116 1.333 5.667 1.333 C 5.915 1.333 6.146 1.406 6.35 1.529 L 6.656 1.714 L 6.819 1.396 C 7.042 0.964 7.482 0.667 8 0.667 Z M 5.667 5 C 5.667 5 5.833 6 4.333 6 C 3.768 6.005 2.667 6.118 2.667 6.333 C 2.667 7.313 3.449 7.651 4.597 7.664 C 5.164 9.914 6.575 13 8 13 C 9.428 13 10.844 9.898 11.408 7.646 C 11.498 7.659 11.583 7.667 11.667 7.667 C 12.854 7.667 13.667 7.333 13.667 6.333 C 13.667 6.118 12.565 6 12 6 C 11.883 6 11.777 6.004 11.667 6.007 L 11.667 6 C 10.375 6 10.333 5 10.333 5 C 10.333 5 9.333 6.667 8 5 C 6.667 6.667 5.667 5 5.667 5 Z M 6.001 7.339 C 6.005 7.521 6.151 7.667 6.333 7.667 C 6.515 7.666 6.663 7.52 6.665 7.339 C 6.865 7.355 7 7.421 7 7.667 C 7 8.035 6.702 8.333 6.333 8.333 C 5.965 8.333 5.667 8.035 5.667 7.667 C 5.667 7.421 5.802 7.355 6.001 7.339 Z M 9.335 7.339 C 9.339 7.521 9.485 7.667 9.667 7.667 C 9.848 7.666 9.996 7.52 9.999 7.339 C 10.198 7.355 10.333 7.421 10.333 7.667 C 10.333 8.035 10.035 8.333 9.667 8.333 C 9.298 8.333 9 8.035 9 7.667 C 9 7.421 9.135 7.355 9.335 7.339 Z M 7.667 11 L 8.333 11 C 8.518 11 8.667 11.148 8.667 11.333 C 8.667 11.518 8.518 11.667 8.333 11.667 L 7.667 11.667 C 7.482 11.667 7.333 11.518 7.333 11.333 C 7.333 11.148 7.482 11 7.667 11 Z"/>
</svg>
