<svg xmlns="http://www.w3.org/2000/svg" width="24" height="24" version="1.1">
 <defs>
  <style id="current-color-scheme" type="text/css">
   .ColorScheme-Text { color: #00cce5; } .ColorScheme-Highlight { color: #1AD6AB; }
  </style>
  <linearGradient id="arrongin" x1="0%" x2="0%" y1="0%" y2="100%">
   <stop offset="0%" style="stop-color:#dd9b44"/>
   <stop offset="100%" style="stop-color:#ad6c16"/>
  </linearGradient>
  <linearGradient id="aurora" x1="0%" x2="0%" y1="0%" y2="100%">
   <stop offset="0%" style="stop-color:#09D4DF"/>
   <stop offset="100%" style="stop-color:#9269F4"/>
  </linearGradient>
  <linearGradient id="cyberneon" x1="0%" x2="0%" y1="0%" y2="100%">
   <stop offset="0" style="stop-color:#0abdc6"/>
   <stop offset="1" style="stop-color:#ea00d9"/>
  </linearGradient>
  <linearGradient id="fitdance" x1="0%" x2="0%" y1="0%" y2="100%">
   <stop offset="0%" style="stop-color:#1AD6AB"/>
   <stop offset="100%" style="stop-color:#329DB6"/>
  </linearGradient>
  <linearGradient id="oomox" x1="0%" x2="0%" y1="0%" y2="100%">
   <stop offset="0%" style="stop-color:#9d72ff"/>
   <stop offset="100%" style="stop-color:#005aa5"/>
  </linearGradient>
  <linearGradient id="rainblue" x1="0%" x2="0%" y1="0%" y2="100%">
   <stop offset="0%" style="stop-color:#00F260"/>
   <stop offset="100%" style="stop-color:#0575E6"/>
  </linearGradient>
  <linearGradient id="sunrise" x1="0%" x2="0%" y1="0%" y2="100%">
   <stop offset="0%" style="stop-color:#FF8501"/>
   <stop offset="100%" style="stop-color:#FFCB01"/>
  </linearGradient>
  <linearGradient id="telinkrin" x1="0%" x2="0%" y1="0%" y2="100%">
   <stop offset="0%" style="stop-color:#b2ced6"/>
   <stop offset="100%" style="stop-color:#6da5b7"/>
  </linearGradient>
  <linearGradient id="60spsycho" x1="0%" x2="0%" y1="0%" y2="100%">
   <stop offset="0%" style="stop-color:#df5940"/>
   <stop offset="25%" style="stop-color:#d8d15f"/>
   <stop offset="50%" style="stop-color:#e9882a"/>
   <stop offset="100%" style="stop-color:#279362"/>
  </linearGradient>
  <linearGradient id="90ssummer" x1="0%" x2="0%" y1="0%" y2="100%">
   <stop offset="0%" style="stop-color:#f618c7"/>
   <stop offset="20%" style="stop-color:#94ffab"/>
   <stop offset="50%" style="stop-color:#fbfd54"/>
   <stop offset="100%" style="stop-color:#0f83ae"/>
  </linearGradient>
 </defs>
 <path fill="url(#oomox)" class="ColorScheme-Text" opacity="0.3" d="m9 6v0.017578a3 2.9965 0 0 0 -3 2.9961v0.27148a2 1.9977 0 0 0 -1 -0.27148 2 1.9977 0 0 0 -2 1.998h-0.5a0.5 0.49942 0 0 0 -0.5 0.5 0.5 0.49942 0 0 0 0.5 0.49805h0.77148 2.2891c0.69631-1.1861 1.9728-1.998 3.4395-1.998h0.00195c0.53313 0.000799 1.0499 0.11815 1.5332 0.32031 0.32866-0.74504 0.8083-1.4043 1.3984-1.9355a3 2.9965 0 0 0 -2.934 -2.3968zm6.5 2.0117v0.00391c-2.2208 0-4.1069 1.6234-4.4414 3.8164-0.55606-0.5263-1.2926-0.81912-2.0586-0.82032-1.6569 0-3 1.3411-3 2.9961 0.00109 0.3432 0.06121 0.68293 0.17773 1.0059-0.0591-0.01-0.1184-0.0098-0.17773-0.0098-1.1046 0-2 0.89472-2 1.998 0 1.1034 0.89543 1.9981 2 1.9981h1.0449c0.37118-0.10248 0.64896-0.20383 0.9668-0.47852 0.33976-0.29376 3.4977-5.498 6.377-5.498 1.5268 0.000598 3.0074 0.74744 3.5254 2.7969 0.04577 0.19208 0.1078 0.56368 0.08594 0.68164 0 0.82744-0.67157 1.5-1.5 1.5s-1.5-0.67256-1.5-1.5c-0.000084-0.81916 0.65851-1.4864 1.4785-1.498-0.46843-0.29736-1.0396-0.47091-1.4746-0.47461-1.181-0.01-1.917 1.0206-2.0215 1.9434-0.1034 0.91325 0.19556 1.9752 2.0098 2.5273h4.508c1.381 0 2.5-1.119 2.5-2.498 0-1.289-0.983-2.365-2.268-2.484 0.176-0.485 0.266-0.995 0.268-1.51 0-2.483-2.015-4.4963-4.5-4.4963z"/>
</svg>
